<?xml version="1.0" encoding="utf-8"?>
<!-- Generator: Adobe Illustrator 24.2.1, SVG Export Plug-In . SVG Version: 6.00 Build 0)  -->
<svg version="1.1" id="Layer_1" xmlns="http://www.w3.org/2000/svg" xmlns:xlink="http://www.w3.org/1999/xlink" x="0px" y="0px"
	 viewBox="0 0 1920 1080" style="enable-background:new 0 0 1920 1080;" xml:space="preserve">
<style type="text/css">
	.st0{fill:#071119;}
	.st1{fill:#133049;}
	.st2{fill:#FFFFFF;stroke:#071119;stroke-miterlimit:10;}
	.st3{fill:none;stroke:#071119;stroke-miterlimit:10;}
	.st4{fill:#133049;stroke:#FFFFFF;stroke-miterlimit:10;}
	.st5{fill:none;stroke:#FFFFFF;stroke-miterlimit:10;}
	.st6{fill:#133049;stroke:#071119;stroke-miterlimit:10;}
	.st7{fill:#FFFFFF;stroke:#071119;stroke-linejoin:round;stroke-miterlimit:10;}
	.st8{fill:none;stroke:#071119;stroke-width:0.9445;stroke-miterlimit:10;}
	.st9{fill:#FFFFFF;stroke:#133049;stroke-miterlimit:10;}
	.st10{fill:#FFFFFF;}
	.st11{display:none;fill:none;stroke:#071119;stroke-miterlimit:10;}
	.st12{fill:#FFFFFF;stroke:#FFFFFF;stroke-miterlimit:10;}
	.st13{fill:#071119;stroke:#FFFFFF;stroke-miterlimit:10;}
	.st14{fill:#071119;stroke:#071119;stroke-miterlimit:10;}
	.st15{fill:#FFFFFF;stroke:#071119;stroke-linecap:round;stroke-linejoin:round;stroke-miterlimit:10;}
</style>
<g>
	<path class="st0" d="M1001.52,107.53c0,0-20.26,0.89-17.08-17.29c0,0,1.09-6.49,6.83-6.59c0,0-6.95-11.71,12.44-21.23
		c19.4-9.52,34.65,4.04,34.83,17.33L1001.52,107.53z"/>
	<path class="st5" d="M991.27,83.65c0,0,5.3,0.1,7.13,4.6c1.83,4.5,5.68,9.17,12.92,7.5c7.41-1.71,11.12-3.81,14.27-6.07
		c3.15-2.26,11.78-5.88,9.17-21.11"/>
	<circle class="st2" cx="968.64" cy="185.17" r="5.6"/>
	<path class="st1" d="M937.32,244.87c0,0,38.97-4.25,67.74-24.39c27.23-19.06,25.01-62.98-4.78-100.82
		c-2.92-3.7-2.33-9.06,1.25-12.13c8.53-7.33,23.89-19.96,37.02-27.77c3.41-2.03,7.76-1.46,10.58,1.34
		c15.48,15.36,63.44,69.68,70.51,159.33c0,0,43.85,26.81,78.82,59.71s-167.24,73.39-167.24,73.39l-96.6,6.5L937.32,244.87z"/>
	<path class="st1" d="M1062.15,639.29c33.08-14.09,115.28-62.62,164.22-94.87c48.94-32.25,125.96-88.65,151.95-113.49
		c37.39-35.74,80.02-8.68,91.75,6.94c14.93,19.88,30.3,70.5-34.56,99.06c-37.19,16.38-104.43,58.91-157.53,94.11
		c-53.3,34.91-111.26,74.9-140.98,102.61"/>
	<line class="st3" x1="112.54" y1="980.57" x2="1807.46" y2="980.57"/>
	<path class="st14" d="M1399.13,534.85c0,0,9.06-4.76,16.73,3.76c7.67,8.53,2.36,31.39-19.82,44.34
		c-19.87,11.59-45.25,10.73-65.04,1.95L1399.13,534.85z"/>
	<path class="st2" d="M954.03,926.59c0,0-18.37,31.37-22.81,47.97c-2.98,11.13,1.11,20.03,4.13,24.69c0.73,1.13,1.6,2.31,2.87,3.68
		c2.4,2.56,6.27,3.1,9.29,1.31l103.24-61.32c17.47-10.66,9.76-24.29,8.64-26.82c-3.87-8.78-12.17-23.33-26.67-33.67L954.03,926.59z"
		/>
	<path class="st0" d="M916.57,614.59c0,0-88.67,42-102.67,108s66.25,163.33,140.13,204c0,0,51.38-6.33,78.71-44.17
		c0,0-6.64-105.17-36.73-120.83c0,0,58.57-19.67,81.9-36.67c0,0,3.06,139.96,61.56,255.65h112.03c0,0,39.63-162.27,45.08-299.98
		c0,0-100.47-46.67-138.57-82.67S971.36,578.18,916.57,614.59z"/>
	<path class="st0" d="M648.59,555.23c0,0-31.36,36.03-18.53,70.19s34.31,17.42,36.5,10.67c2.18-6.73,7.33-28.5,13.67-24.17
		c6.33,4.33-7.67,9,1.33,18.83c9,9.83,30.56-16.91,25.95-32.7L648.59,555.23z"/>
	<g>
		<path class="st2" d="M923.9,483.26c0,0-91.4,7.67-187.84,118.77c-3.75,4.32-9.9,5.59-15.03,3.07
			c-16.16-7.95-50.9-26.79-74.53-52.05c-3.66-3.91-4.26-9.78-1.47-14.35c22.17-36.35,126.1-193.3,294.87-242.1
			c191.33-55.33,302,17.33,345.33,55.33c38.59,33.84,91.99,93.6,117.81,146.3c5.84,11.92,4.27,26.17-3.91,36.63
			c-12.85,16.43-38.22,38.94-70.89,51.11c-8.65,3.22-18.38,0.21-23.78-7.27c-5.13-7.11-11.83-18.14-19.23-34.77
			c0,0,22.67,57.33,11.33,136.67c0,0-58.67,8.67-134-42c-75.33-50.67-177.33-46.67-246-24c0,0,3.33-36,24-49.33
			C940.57,565.26,951.23,519.26,923.9,483.26z"/>
		<line class="st2" x1="923.9" y1="483.26" x2="917.48" y2="475.76"/>
		<path class="st2" d="M940.57,565.26c0,0,14.67-9.75,26.92-12.75"/>
		<path class="st2" d="M1285.23,543.92c0,0-7.78-35.86-63.51-83.49c0,0-90.5-13.81-119.08-67.16"/>
		<path class="st2" d="M1234.9,442.17c0,0-2.36,11.6-13.18,18.26"/>
	</g>
	<line class="st5" x1="1075.73" y1="697.76" x2="1077.9" y2="724.92"/>
	<path class="st5" d="M954.23,768.92c0,0,30.6-3.4,41.77-7.33"/>
	<path class="st1" d="M947.31,938.64c0,0,11.87,0.61,21.13,0.22c1.69-0.07,2.87,1.66,2.16,3.2c-0.92,2-2.12,4.51-3.16,6.46
		c-0.83,1.55-2.38,2.57-4.13,2.73c-5.23,0.49-16.78,1.32-22.37-0.28L947.31,938.64z"/>
	<path class="st1" d="M937.97,957.17c0,0,11.48,1.73,20.66,0.68c1.69-0.19,2.94,1.55,2.22,3.1c-0.92,1.98-2.04,4.37-2.94,6.17
		c-0.79,1.58-2.33,2.63-4.09,2.81c-4.89,0.49-15.22,1.26-21.04-0.31L937.97,957.17z"/>
	<circle class="st2" cx="925.45" cy="276.53" r="30.69"/>
	<path class="st0" d="M948.32,310.68c0,0,1.96-7.47,7.47-10.08c5.52-2.61,9.69,6.47,6.01,12.6c-3.68,6.13,11.28,3.43,11.53-3.68
		s10.04-1.41,12.27,7.09c1.56,5.96,6.64,28.65-31.53,34.15L948.32,310.68z"/>
	<path class="st1" d="M891.51,265.45c0,0-38.78,24.69-22.9,70.17c12.57,36.01,51.9,37.02,74.23,28.96
		c8.49-3.07,14.35-10.93,14.88-19.94c0.75-12.82-0.93-32.35-16.23-41.22c-3.4-1.97-7.45-2.48-11.25-1.49
		c-8.66,2.26-27.83,4.08-35.47-20.7"/>
	<line class="st5" x1="1104.14" y1="233.07" x2="1119.63" y2="240.42"/>
	<path class="st1" d="M941.61,206.76c0,0,8.01-24.1,31.94-20.32c17.25,2.72,16.91,26.44,16.91,26.44L941.61,206.76z"/>
	<path class="st2" d="M968.64,238.94c0,0,8.16,11.92,22.78,5.93c14.63-5.99,13.22-17.67,13.22-17.67s-7.38,2.25-15.43-9
		S968.64,238.94,968.64,238.94z"/>
	<circle class="st2" cx="965.96" cy="220.45" r="22.64"/>
	<path class="st0" d="M943.65,224.34c0,0,6.17-13.99,19.49-16.23c13.31-2.24,24.01,6.08,25.46,9.34c0,0,3.16-4.93,1.89-9.88
		c0,0-4.79-15.3-25.25-14.6c-10.87,0.37-19.65,6.16-23.24,11.71c-3.16,4.9-2.59,9.84-2,14.06c0.75,5.38,3.16,9.08,5.25,10.9
		C945.26,229.64,943.92,226.45,943.65,224.34z"/>
	<circle class="st2" cx="925.45" cy="236.78" r="8.1"/>
	<path class="st2" d="M891.51,268.26c0,0,0-27.92,32.1-29.3c0,0,19.28-1.3,28.91,16.8l-4.23,8l-41.58,11.06L891.51,268.26z"/>
	<path class="st2" d="M934.61,277.63c0,0,9.36,23.16,37.23,25.12c2.56,0.18,5.07-0.75,6.89-2.56c3.06-3.03,7.78-8.22,10.18-13.48
		c0.98-2.16-0.56-4.64-2.93-4.65c-6.93-0.04-20.45-2.13-28.17-16.61L934.61,277.63z"/>
	<path class="st2" d="M890.92,280.7c26.57,4.47,60.9-5.78,66.9-15.25c0.31-0.49,0.35-1.11,0.19-1.67c-0.49-1.72-1.74-5.5-3.81-7.43
		c-0.71-0.66-1.77-0.79-2.62-0.31c-4.1,2.34-18.69,10.27-32.59,13.05c-12.27,2.46-22.42,0.41-26.74-0.77
		c-1.27-0.35-2.55,0.49-2.76,1.78c-0.37,2.3-0.66,5.87,0.26,9.23C889.9,279.95,890.29,280.6,890.92,280.7z"/>
</g>
</svg>
