<?xml version="1.0" encoding="utf-8"?>
<!-- Generator: Adobe Illustrator 24.2.1, SVG Export Plug-In . SVG Version: 6.00 Build 0)  -->
<svg version="1.1" id="Layer_1" xmlns="http://www.w3.org/2000/svg" xmlns:xlink="http://www.w3.org/1999/xlink" x="0px" y="0px"
	 viewBox="0 0 1920 1080" style="enable-background:new 0 0 1920 1080;" xml:space="preserve">
<style type="text/css">
	.st0{fill:#071119;}
	.st1{fill:#133049;}
	.st2{fill:#FFFFFF;stroke:#071119;stroke-miterlimit:10;}
	.st3{fill:none;stroke:#071119;stroke-miterlimit:10;}
	.st4{fill:#133049;stroke:#FFFFFF;stroke-miterlimit:10;}
	.st5{fill:none;stroke:#FFFFFF;stroke-miterlimit:10;}
	.st6{fill:#133049;stroke:#071119;stroke-miterlimit:10;}
	.st7{fill:#FFFFFF;stroke:#071119;stroke-linejoin:round;stroke-miterlimit:10;}
	.st8{fill:none;stroke:#071119;stroke-width:0.9445;stroke-miterlimit:10;}
	.st9{fill:#FFFFFF;stroke:#133049;stroke-miterlimit:10;}
	.st10{fill:#FFFFFF;}
	.st11{display:none;fill:none;stroke:#071119;stroke-miterlimit:10;}
	.st12{fill:#FFFFFF;stroke:#FFFFFF;stroke-miterlimit:10;}
	.st13{fill:#071119;stroke:#FFFFFF;stroke-miterlimit:10;}
	.st14{fill:#071119;stroke:#071119;stroke-miterlimit:10;}
	.st15{fill:#FFFFFF;stroke:#071119;stroke-linecap:round;stroke-linejoin:round;stroke-miterlimit:10;}
</style>
<path class="st0" d="M1097.86,709.76c0,0-30.76,0.56-47.63,21.66c0,0-12.09,18.56,4.5,28.41c0,0-7.03,7.31,5.91,23.35
	c12.94,16.03,47.03,51.43,75.41,2.51C1164.42,736.76,1097.86,709.76,1097.86,709.76z"/>
<circle class="st1" cx="300.67" cy="293.56" r="10.32"/>
<polygon class="st2" points="347.9,269.76 349.48,279.76 331.15,295.17 325.9,316.67 316.32,317.09 307.23,313.01 300.67,290.67 
	310.23,268.59 325.08,262.17 336.07,260.59 "/>
<path class="st2" d="M1326.11,378.9l8.44,10.53l54.38-40.6c0,0-13.75,11.12-39.47,0L1326.11,378.9z"/>
<path class="st2" d="M1313.07,386.44c0,0-7.5,22.08-31,19.91c0,0-16.82-0.56-10.33-19.91c4.83-14.42,2.5-39.18,2.5-39.18
	L1313.07,386.44z"/>
<path class="st1" d="M1308.87,456.45c0,0-62.95,121.57-104.78,160.43c-33.6,31.22-82.5,68.76-100.71,83.88
	c-4.7,3.91-6.62,10.22-4.9,16.09c5.27,18.05,19.29,56.44,47.74,77.7c8.44,6.3,19.67,7.41,29.31,3.16
	c27.4-12.07,90.54-42.84,147.04-92.04C1397.26,640.64,1308.87,456.45,1308.87,456.45z"/>
<path class="st0" d="M1241.67,808.43c0,0-32.35,16.98-42.14,54.19c0,0-6.09,24.59,14.58,35.26c20.68,10.66,62.46-7.84,42.22-30.91
	l6.75-30.03L1241.67,808.43z"/>
<path class="st2" d="M1672.07,838.61c0,0,19.24-10.45,28.42-32.4L1561.37,699.8C1561.37,699.8,1573.83,809.94,1672.07,838.61z"/>
<line class="st3" x1="112.54" y1="980.57" x2="1807.46" y2="980.57"/>
<path class="st0" d="M440.9,912.92c0,0-125.45-129.6-99.57-225.37s155.3-93.7,155.3-93.7l210.5-85.72l149.17,4.89
	c0,0,59.5,44.02,69.29,62.76c9.78,18.75,1.63,114.93-61.13,177.7c0,0,41.89-9.22,121.84,97.77c0,0,9.45,42.37-19.93,61.66
	c-29.38,19.29-74.75,25.89-74.75,25.89S719.52,903.87,674.4,829.85c0,0-19.19-26.36-11.62-81.12c0,0-62.26,7.24-105.95,2.24
	c0,0,26.07-3.02,43.05,155.77l-55.65,18.27L440.9,912.92z"/>
<path class="st5" d="M490.15,740.7c0,0,42.29,10.14,66.68,10.28"/>
<path class="st5" d="M662.78,748.73c0,0,8.93-64.17,14.55-82.17"/>
<path class="st5" d="M658.95,659.43c0,0,5.93,31.17,10.09,48.21"/>
<path class="st1" d="M862.87,557.94c0,0-4.11,41.02-46.94,42.61c-49.69,1.84-47.85-34.74-47.85-34.74s-20.29,0.98,2.28-37.24
	S862.87,557.94,862.87,557.94z"/>
<path class="st5" d="M827.84,783.32c0,0,23.56-15.39,36.61-29.83c0,0-2.24,8.83-6.34,14.92"/>
<path class="st7" d="M871.22,430.62c0,0,57.55,88.2,57.55,159.95c0,0-16.44-28.4-70.26-44.1L871.22,430.62z"/>
<path class="st15" d="M361.25,319.25c0,0-107.96,152.17,20.56,281.72c122.94,123.93,296.69,50.28,352.04,2.25
	c4.32-3.75,6.01-9.7,4.36-15.18c-5.83-19.34-22.61-65.6-55.32-88.45l81,23.67c0,0,46.77,44.12,113.4,33.1
	c8.32-1.38,14.56-8.34,14.87-16.77c2.1-55.85-4.88-265.67-223.13-311.51C459.04,183.98,361.25,319.25,361.25,319.25z"/>
<path class="st3" d="M635.91,355.84c0,0,134.49,19.92,127.99,167.41"/>
<path class="st3" d="M682.9,499.59c0,0-64.97-11-164.15,23.67"/>
<path class="st3" d="M481.56,439.55c0,0,61.97,35.78,68.18,73.98"/>
<path class="st0" d="M335.04,262.17c0,0,7.49,4.11,9.42,10.87c0,0-27.05,7.49-23.91,39.61c0,0-6.31,0.32-12.06-3.93
	c0,0,24.1,45.05,37.14,47.25s29.54-4.4,42.58-22.63c13.04-18.23,18.07-39.44,3.3-50.91S350.68,259.2,335.04,262.17z"/>
<path class="st2" d="M345.28,262.51c-5.87-3.93-31.51-9.51-42.37,13.81s0,45.39,6.41,50.38s11.72,3.11,11.72,3.11l-12.56-21.09
	c-6.89-18.69,0-30.08,0-30.08s9.22-17.6,26.55-16.46L345.28,262.51z"/>
<path class="st1" d="M689.94,505.06c0,0-3.95-30.22,23.8-28.47c0,0,10.5-10.25,25.75-3.75s41.26,30.1,35.63,59.17
	c-5.63,29.08-43.19,37.78-43.19,37.78C724.11,545.97,709.11,520.23,689.94,505.06z"/>
<path class="st5" d="M708.61,498.46c0,0,15.41-6.59,13.63-15.75c-1-5.13-8.5-6.13-8.5-6.13"/>
<path class="st5" d="M768.08,565.81c0,0,16.75,1.45,16.59-9.31c-0.16-10.76-7.29-3.67-10.45-0.66"/>
<path class="st3" d="M640.05,622.5c0,0-18.13-35.25,6.59-60.54c33.59-34.37,10.26-67.7,40.92-79.53c13.6-5.25,29.28,11,29.28,11"/>
<path class="st5" d="M765.51,549.2c0,0,8.24,8.52,18.58,10.55"/>
<line class="st3" x1="847.79" y1="588.19" x2="1233.23" y2="875.85"/>
<g>
	<path class="st2" d="M1401.28,980.57c-70.44,0-114.85-26.86-139.88-49.72c-27.98-25.55-38.32-51.36-38.75-52.44l13.03-5.13
		c0.1,0.24,9.86,24.33,35.68,47.71c34.55,31.28,79.99,46.59,135.08,45.53c136.55-2.64,279.51,0.03,280.94,0.05l-0.27,14
		c-1.43-0.03-144.12-2.69-280.4-0.05C1404.88,980.55,1403.07,980.57,1401.28,980.57z"/>
</g>
<rect x="1308.89" y="870.85" class="st3" width="333.52" height="14"/>
<g>
	<polygon class="st3" points="1333.47,956.63 1325.86,953.99 1359.45,884.85 1368.34,884.85 	"/>
</g>
<path class="st1" d="M1242.93,813.49c-1.51-4.52-1.68-9.39-0.44-13.99c7.46-27.59,35.97-133.54,49.33-190.71
	c15.45-66.11-6.01-218.92,88.43-256.7c94.44-37.77,226.65-18.78,320.23,104.36c93.58,123.14,44.64,315.37,0,349.75
	c0,0-100.5-23.12-139.11-106.41l-286.07,163.72C1275.31,863.52,1255.62,851.36,1242.93,813.49z"/>
<g>
	<polygon class="st3" points="1637.79,965.89 1592.32,884.85 1601.49,884.85 1646.97,965.89 	"/>
</g>
<path class="st0" d="M1292.64,821.58c0,0-112.58-209.09-6.31-295.84s250.67,60.95,258.91,102.12c0,0,12.08,153,126.83,210.75
	c0,0-7.14,29.03-43.38,32.4h-168.01c0,0-7.46-1.02-11.69-11.45L1292.64,821.58z"/>
<path class="st5" d="M1438.06,806.21c0,0,20.42-106.42-19.11-189.32"/>
<path class="st5" d="M1438.44,623.09c0,0,2.54,11.85-7.3,25.82"/>
<path class="st5" d="M1521.15,587.98c0,0,14.52-32.51,17.53-61.61"/>
<path class="st5" d="M1079.98,735.74c0,0,4.42,10.5-5,20.49c-5,5.3-13.52,5.57-20.26,3.6"/>
<path class="st2" d="M1292.64,821.58c0,0-20.19,10.71-36.5,22.71c-10.94,8.05-11.63,17.32-10.9,22.56c0.33,2.39,2.38,4.17,4.8,4.17
	h193.58c2.63,0,4.83-1.98,5.09-4.6c1.56-15.8-3.32-44.35-10.64-60.21L1292.64,821.58z"/>
<path class="st5" d="M1119.08,805.37c0,0,11.82-13.85-2.85-35.52c-14.67-21.67-30.43-29-35.22-28"/>
<circle class="st2" cx="1315.93" cy="348.82" r="37.62"/>
<path class="st0" d="M1292,341.17c0,0-10.51,11.89-22.94,7.74c-2.12-0.71-4.92-3.59-2.63-6.57c2.85-3.7,6.2,0.06,10.3,1.42
	C1278.62,344.38,1284.28,344.79,1292,341.17z"/>
<path class="st2" d="M1278.31,346.85c0,0,14.09-9,28.09-5.33c14,3.67,16.67,62.17,50,49.5c0,0,18.61-9.3-0.86-39.9
	c0,0,13.44-18.27,1.99-34.93c-11.46-16.67-52.29-24.17-76.46,6.67c0,0-8.5,11.81-6.83,24.41L1278.31,346.85z"/>
<path class="st3" d="M1280.23,406.11c0,0-0.42,9.62-22.71,12.49c-22.29,2.87-52.08,45.46-52.08,45.46l-7.86,1.8"/>
<path class="st3" d="M1206.23,472.02c0-0.33-0.8-7.96-0.8-7.96l-4.53,6.71"/>
<line class="st3" x1="1197.57" y1="469.02" x2="1205.43" y2="464.06"/>
<path class="st5" d="M1356.4,391.02c0,0,7.33,27.85,53.45,31.98c46.13,4.13,48.75,30.92,72.75,33.46l7.92-4.99"/>
<polyline class="st5" points="1493.9,453.57 1482.61,456.45 1490.53,461.73 "/>
<path class="st5" d="M1495.59,458.77c-0.56,0-12.98-2.32-12.98-2.32"/>
<path class="st0" d="M1267.22,852.81l9.93-4.75c1.12-0.54,1.43-2,0.62-2.94l-8.39-9.86l-11.97,8.12l7.47,8.84
	C1265.42,852.96,1266.4,853.2,1267.22,852.81z"/>
<path class="st0" d="M1286.35,841.86l9.92-4.74c1.13-0.54,1.43-2.01,0.61-2.95l-9.41-9.75l-12.16,7.11l8.7,9.74
	C1284.55,842.01,1285.53,842.26,1286.35,841.86z"/>
<path class="st5" d="M1301.11,515.29c0,0,2.39-44.85,7.76-58.84"/>
<line class="st5" x1="1258.7" y1="738.95" x2="1253.77" y2="757.48"/>
<g>
	<path class="st1" d="M440.9,912.92c29.89,1.78,97.76,1.62,158.98-6.18c0,0,13.02,41.68,11.15,64.84c-0.23,2.9-2.29,8.99-8.68,8.99
		h-176.5c-1.77,0-3.35-1.04-3.86-2.57c-2.45-7.32-4.69-28.51,45.04-39.85L440.9,912.92z"/>
	<path class="st0" d="M446.4,918.23c1.95,0.92,20.38,1.91,31.69,1.24c1.89-0.11,3.4,1.44,3.4,3.15v7.97c0,1.68-1.46,3.07-3.32,3.15
		c-4.77,0.2-10.52-0.02-16.45-0.71L446.4,918.23z"/>
	<path class="st0" d="M457.02,940.77c0,0,10.01,1.17,16.57,5.37c1.22,0.78,1,2.48-0.36,3.04l-11.38,4.7
		c-1.28,0.53-2.76,0.44-3.94-0.25c-3.35-1.97-11.17-5.69-21.01-4.48C436.9,949.15,449.11,942.89,457.02,940.77z"/>
</g>
<g>
	<path class="st1" d="M891.61,938.81c0,0,31.36-2.73,61.9-25.56c14.01-10.48,34.38-36.76,32.78-61.98c0,0,42.93,41.02,52.45,51.33
		c9.51,10.31-13.5,48-36.6,77.98H886.91c0,0-9.51-32.18,23.52-36.41C910.43,944.16,902.22,943.46,891.61,938.81z"/>
	<path class="st5" d="M910.43,944.16c0,0,76.11-11.1,86.15,23.78"/>
	<path class="st0" d="M904.95,942.48c0,0,31.31,0.11,51.58-11.89c1.27-0.75,2.88-0.54,3.92,0.52l6.81,6.94
		c1.46,1.49,1.15,3.96-0.65,5.02c-1.47,0.87-3.59,1.52-6.5,1.13c0,0-25.46-4.47-50.76,0.11L904.95,942.48z"/>
</g>
<path class="st5" d="M467.03,938.15c0,0,12.54-1.35,26.87,3.98"/>
<path class="st5" d="M759.81,554.38c0,0,15.94-12.57,15.31-22.37"/>
<line class="st5" x1="923.13" y1="644.42" x2="848.07" y2="587.84"/>
<path class="st5" d="M696.34,481.62c2.13,0.35,11.25,2.51,20.51,11.8"/>
</svg>
