<?xml version="1.0" encoding="utf-8"?>
<!-- Generator: Adobe Illustrator 24.2.1, SVG Export Plug-In . SVG Version: 6.00 Build 0)  -->
<svg version="1.1" id="Layer_1" xmlns="http://www.w3.org/2000/svg" xmlns:xlink="http://www.w3.org/1999/xlink" x="0px" y="0px"
	 viewBox="0 0 1920 1080" style="enable-background:new 0 0 1920 1080;" xml:space="preserve">
<style type="text/css">
	.st0{fill:#071119;}
	.st1{fill:#133049;}
	.st2{fill:#FFFFFF;stroke:#071119;stroke-miterlimit:10;}
	.st3{fill:none;stroke:#071119;stroke-miterlimit:10;}
	.st4{fill:#133049;stroke:#FFFFFF;stroke-miterlimit:10;}
	.st5{fill:none;stroke:#FFFFFF;stroke-miterlimit:10;}
	.st6{fill:#133049;stroke:#071119;stroke-miterlimit:10;}
	.st7{fill:#FFFFFF;stroke:#071119;stroke-linejoin:round;stroke-miterlimit:10;}
	.st8{fill:none;stroke:#071119;stroke-width:0.9445;stroke-miterlimit:10;}
	.st9{fill:#FFFFFF;stroke:#133049;stroke-miterlimit:10;}
	.st10{fill:#FFFFFF;}
	.st11{display:none;fill:none;stroke:#071119;stroke-miterlimit:10;}
	.st12{fill:#FFFFFF;stroke:#FFFFFF;stroke-miterlimit:10;}
	.st13{fill:#071119;stroke:#FFFFFF;stroke-miterlimit:10;}
	.st14{fill:#071119;stroke:#071119;stroke-miterlimit:10;}
	.st15{fill:#FFFFFF;stroke:#071119;stroke-linecap:round;stroke-linejoin:round;stroke-miterlimit:10;}
</style>
<path class="st11" d="M822.89,428.09L645.45,541.42c-25.13,16.05-58.65,6.46-71.47-20.45C451.26,263.53,576.82,118,620.82,77.54
	c7.35-6.76,18.82-6.09,25.32,1.49l0,0"/>
<path class="st11" d="M636.28,596.31c-28.07,17.93-65.52,7.22-79.85-22.84c-40.27-84.49-56.61-158.18-58.35-221.29"/>
<path class="st11" d="M1115.3,428.09l177.45,113.33c25.13,16.05,58.65,6.46,71.47-20.45c122.72-257.44-2.85-402.97-46.85-443.43
	c-7.35-6.76-18.82-6.09-25.32,1.49v0"/>
<path class="st11" d="M1184.27,495.37l103.46,78.06c0,0,21.42,16.59,47.77,4.88"/>
<g>
	<g>
		<path class="st0" d="M738.39,893.34c0,0-15.58,33.26-31.85,51.06c-3.89,4.25-10.05,5.54-15.29,3.14
			c-25.4-11.67-81.17-40.87-114.46-89.55c-1.35-1.97-1.1-4.64-0.02-6.76c2.84-5.58,9.45-16.01,19.55-16.79
			c13.84-1.07,74.69,7.93,74.69,7.93L738.39,893.34z"/>
		<path class="st2" d="M659.6,841.04c0,0-1.46,3.98-1.02,20.46c0.05,1.93-1.65,3.43-3.55,3.14l-9.12-1.4
			c-1.41-0.22-2.48-1.36-2.6-2.78c-0.41-4.69-1.13-15.15-0.14-21.69L659.6,841.04z"/>
		<path class="st2" d="M637.54,837.97c0,0-1.46,3.98-1.02,20.46c0.05,1.93-1.65,3.43-3.55,3.14l-9.12-1.4
			c-1.41-0.22-2.48-1.36-2.6-2.78c-0.41-4.69-1.18-14.78-0.19-21.32C625.86,836.35,631.5,837.05,637.54,837.97z"/>
	</g>
	<g>
		<path class="st0" d="M1231.65,860.14c0,0,21.29,29.93,40.48,44.52c4.59,3.49,10.88,3.65,15.6,0.34
			c22.89-16.03,72.53-54.76,96.55-108.61c0.97-2.18,0.25-4.76-1.19-6.66c-3.79-4.98-12.17-14.06-22.24-13.01
			c-13.81,1.43-72.06,21.19-72.06,21.19L1231.65,860.14z"/>
	</g>
	<path class="st1" d="M787.8,554.11c0,0-64.71,71.12-81.21,116.2c-16.51,45.08-37.46,142.85-35.55,172.06
		c0,0,25.44,38.46,62.05,50.83c2.62,0.89,5.5,0.63,7.96-0.64c15.1-7.75,86.81-82.61,86.81-137.81c0,0,44.44-12.7,97.14-65.4
		c0,0,21.9-30.16,44.76-19.36c22.86,10.79,152.06,139.36,261.9,190.16c0,0,41.27-13.97,57.14-62.22c0,0-109.12-206.74-183.13-256.38
		C1031.65,491.89,787.8,554.11,787.8,554.11z"/>
	<path class="st1" d="M700.64,132.18c0,0,4.51-30.92-11.66-36.22c-16.18-5.29-13.82,20-13.82,20s-12.06-32.65-36.77-28.53
		c-24.71,4.12-28.15,30.02-23.24,42.35c4.63,11.63,20.22,34.84,40.08,40.43C682.14,177.79,700.64,132.18,700.64,132.18z"/>
	<path class="st1" d="M1214.18,138.03c0,0-7.8-28.11,5.64-32.01s16.48,13.15,16.48,13.15s15.9-28.62,36.71-23.13
		s26.23,28.19,22.26,40.61c-2.99,9.37-18.47,32.57-41.47,36.45S1214.18,138.03,1214.18,138.03z"/>
	<path class="st0" d="M866.1,242.26c0,0-0.95-11.23,12.14-12.66c13.1-1.43,12.86-8.81,10.71-13.33
		c-2.14-4.52-24.05-10.71-15.71-29.29s35.56,3.91,56.19-14.05c20.24-17.62,26.67-23.81,47.62-20.95
		c18.64,2.54,24.29,28.33,42.86,31.19c18.57,2.86,56.9-4.05,71.43,22.62c14.52,26.67-28.57,59.28-28.57,59.28
		S886.82,314.68,866.1,242.26z"/>
	<g>
		<path class="st2" d="M649.62,176.92c11.35-14.18,30.79-34.54,57.17-48.1c4.41-2.27,9.8-1.25,12.99,2.55
			c22.9,27.26,120.48,133.57,246.31,129.41c127.86-4.22,222.15-100.24,241.96-122.04c2.44-2.69,6.34-3.49,9.63-1.97
			c10.01,4.63,31.04,16.35,46.68,38.79c6.36,9.12,6.78,21.15,1.13,30.72c-19.47,32.94-75.12,113.46-176.54,160.22
			c0,0,4.96,89.28,22.97,156.16c2.3,8.55-1.9,17.5-9.98,21.13c-43.76,19.64-182.02,71.13-316.7,9.15
			c-9.28-4.27-12.68-15.76-7.18-24.38c20.75-32.53,63.03-109.18,39.96-163.02c0,0-81.05-18.6-170.1-156.6
			C641.5,199.03,642.24,186.13,649.62,176.92z"/>
		<path class="st3" d="M818.01,365.55c0,0,8.1,2.54,17.14,3.49"/>
	</g>
	<path class="st2" d="M937.24,259.84l9.36-16.84l35.56-0.74l11.26,16.47c0,0,2.51,18.87-28.03,19.69
		C935.92,279.22,937.24,259.84,937.24,259.84z"/>
	<circle class="st2" cx="963.96" cy="224.84" r="24.58"/>
	<path class="st5" d="M797.06,760.66c0,0,19.85-1.78,30.79-5.91"/>
	<line class="st5" x1="977.73" y1="675.12" x2="944.43" y2="646.26"/>
	<path class="st5" d="M1240.43,129.73c0,0-2.71-3.81-3.87-11.76"/>
	<path class="st5" d="M674.47,112.79c0,0,1.16,10.98-0.39,12.77"/>
	<path class="st3" d="M980.21,1043.24c258.84-17.18,366.8-124.95,410.04-195.07c19.55-31.7,12.75-72.96-15.77-96.9l-250.7-210.43"/>
	<path class="st3" d="M761.77,567.3L560.53,761.35c-24.55,23.68-30.03,60.87-13.51,90.71c36.45,65.85,123.57,169.74,315.55,189.57"
		/>
	<path class="st3" d="M797.06,1004.05c49.76,13.5,109.8,20.1,182.13,15.3c102.93-6.83,179.98-28.87,237.33-56.81"/>
	<line class="st3" x1="672.43" y1="53.85" x2="672.43" y2="53.85"/>
	<path class="st3" d="M808.62,407.48L645.01,519.74c-28.51,19.56-67.72,9.33-83.08-21.64c-46.29-93.33-110.41-284.01,39.46-430.72
		c20.02-19.59,51.34-21.65,73.77-4.88l26.05,20.19"/>
	<path class="st3" d="M498.66,420.92c-26.67-96.18-33.77-216.15,35.02-325.58"/>
	<path class="st3" d="M1103.39,407.48L1267,519.74c28.51,19.56,67.72,9.33,83.08-21.64c46.29-93.33,110.41-284.01-39.46-430.72
		c-20.02-19.59-51.34-21.65-73.77-4.88l-26.05,20.19"/>
	<path class="st3" d="M1416.74,439.91c26.01-86.58,38.13-193.62-3.76-296.67"/>
	<path class="st2" d="M1305.71,792.27c0,0,2.09,3.61,4.43,19.62c0.27,1.87,2.17,3.04,3.96,2.44l8.58-2.89
		c1.32-0.45,2.17-1.73,2.05-3.12c-0.39-4.6-1.45-14.84-3.51-21L1305.71,792.27z"/>
	<path class="st2" d="M1326.53,785.59c0,0,2.09,3.61,4.43,19.62c0.27,1.87,2.17,3.04,3.96,2.44l8.58-2.89
		c1.32-0.45,2.17-1.73,2.05-3.12c-0.39-4.6-1.34-14.49-3.39-20.65C1337.55,782.07,1332.21,783.69,1326.53,785.59z"/>
</g>
</svg>
