<?xml version="1.0" encoding="utf-8"?>
<!-- Generator: Adobe Illustrator 24.2.1, SVG Export Plug-In . SVG Version: 6.00 Build 0)  -->
<svg version="1.1" xmlns="http://www.w3.org/2000/svg" xmlns:xlink="http://www.w3.org/1999/xlink" x="0px" y="0px"
	 viewBox="0 0 1920 1080" style="enable-background:new 0 0 1920 1080;" xml:space="preserve">
<style type="text/css">
	.st0{fill:#FFFFFF;stroke:#000000;stroke-miterlimit:10;}
	.st1{fill:#414042;}
	.st2{fill:none;}
	.st3{fill:#EC008C;}
	.st4{opacity:0.3;fill:#EC008C;}
	.st5{opacity:0.5;fill:#EC008C;}
</style>
<g id="Layer_12">
	<rect x="-0.5" y="-0.5" class="st0" width="1920" height="1080"/>
</g>
<g id="Layer_3">
	<g>
		<path class="st1" d="M628,629.9c-4.4,6.3-10.4,11.3-17.9,14.9c-7.5,3.6-15.6,5.4-24.3,5.4c-16.1,0-29.6-5.5-40.3-16.6
			c-10.7-11-16.1-24.7-16.1-40.9c0-16.5,5.5-30.2,16.5-41.3c11-11.1,24.7-16.6,41.2-16.6c8.5,0,16.2,1.7,23.3,5.2
			c7.1,3.4,12.9,8.4,17.6,14.9v-17.6h13.8v110H628V629.9z M628,591.6c0-11.7-4.2-21.9-12.5-30.6c-8.3-8.7-17.9-13.1-28.8-13.1
			c-11.8,0-21.9,4.4-30.2,13.1c-8.3,8.7-12.5,19.5-12.5,32.4c0,12.3,4.1,22.6,12.4,31.1c8.3,8.4,18.2,12.7,29.8,12.7
			c11.2,0,21-4.5,29.3-13.4C623.8,614.8,628,604.1,628,591.6z"/>
		<path class="st2" d="M682.7,501.6v45.9v8.2c5.9-7.1,12.4-12.4,19.5-15.8c7.1-3.4,15-5.1,23.7-5.1c15.5,0,28.6,5.6,39.3,16.7
			c10.7,11.1,16.1,24.7,16.1,40.6c0,16.5-5.5,30.3-16.4,41.4c-10.9,11.1-24.7,16.7-41.2,16.7c-8.1,0-15.6-1.6-22.4-4.9
			c-6.8-3.2-13-8.1-18.6-14.7v16.6h-13.9V501.6H682.7z M682.7,593.4c0,11.7,4.2,22,12.5,30.7s17.9,13.1,28.7,13.1
			c11.8,0,21.9-4.4,30.2-13.1c8.3-8.7,12.5-19.5,12.5-32.4c0-12.2-4.1-22.5-12.4-31c-8.3-8.4-18.2-12.7-29.7-12.7
			c-11.5,0-21.4,4.4-29.5,13.2C686.7,569.9,682.7,580.7,682.7,593.4z"/>
		<path class="st1" d="M911.3,596.8h-99.3c0.9,12,5.2,21.7,13,29s17.5,11.1,29.2,11.1c8.3,0,15.7-2.1,22.3-6.4
			c6.6-4.3,11.7-10.2,15.3-17.9h16c-5.1,12.2-12.2,21.5-21.4,28c-9.2,6.5-19.8,9.8-31.9,9.8c-16,0-29.5-5.7-40.6-17.1
			c-11.1-11.4-16.6-25.1-16.6-41.1c0-16.7,5.4-30.6,16.3-41.5c10.8-10.9,24.7-16.4,41.6-16.4c16.5,0,30,5.7,40.5,17.1
			c10.4,11.4,15.7,26.2,15.7,44.4V596.8z M895.7,584.5c-2.7-12.2-7.6-21.4-14.7-27.6c-7.1-6.2-16.4-9.3-27.9-9.3
			c-10.7,0-19.7,3.3-27.1,10c-7.4,6.6-11.9,15.6-13.6,26.9H895.7z"/>
		<path class="st1" d="M942.6,647.3h-14.3v-110h13.3v12.7c3.5-4.9,7.3-8.4,11.4-10.7c4.1-2.3,8.9-3.5,14.4-3.6l0.1,15.3
			c-8.9,0.8-15.2,3.5-19.1,8c-3.8,4.5-5.8,11.8-5.8,22V647.3z"/>
		<path class="st1" d="M994.8,647.3h-14.3v-110h13.3v12.7c3.5-4.9,7.3-8.4,11.4-10.7c4.1-2.3,8.9-3.5,14.4-3.6l0.1,15.3
			c-8.9,0.8-15.2,3.5-19.1,8c-3.8,4.5-5.8,11.8-5.8,22V647.3z"/>
		<path class="st1" d="M1125.9,629.9c-4.4,6.3-10.4,11.3-17.9,14.9c-7.5,3.6-15.6,5.4-24.3,5.4c-16.1,0-29.6-5.5-40.3-16.6
			c-10.7-11-16.1-24.7-16.1-40.9c0-16.5,5.5-30.2,16.5-41.3c11-11.1,24.7-16.6,41.2-16.6c8.5,0,16.2,1.7,23.3,5.2
			c7.1,3.4,12.9,8.4,17.6,14.9v-17.6h13.8v110h-13.8V629.9z M1125.9,591.6c0-11.7-4.2-21.9-12.5-30.6c-8.3-8.7-17.9-13.1-28.8-13.1
			c-11.8,0-21.9,4.4-30.2,13.1c-8.3,8.7-12.5,19.5-12.5,32.4c0,12.3,4.1,22.6,12.4,31.1c8.3,8.4,18.2,12.7,29.8,12.7
			c11.2,0,21-4.5,29.3-13.4C1121.7,614.8,1125.9,604.1,1125.9,591.6z"/>
		<path class="st1" d="M1163,537.2h13.7v12.5c4.3-5,9.4-8.7,15.1-11.1s12.2-3.6,19.6-3.6c8.1,0,15.3,1.5,21.6,4.5s11.3,7.3,15,12.9
			c2.5,3.9,4.4,8.6,5.5,13.9c1.1,5.3,1.7,13.1,1.7,23.5v57.5H1241v-61.6c0-13-2.5-22.4-7.5-28.3c-5-5.9-12.9-8.8-23.9-8.8
			c-6.4,0-12,1.3-16.9,3.9c-4.8,2.6-8.7,6.3-11.5,11.1c-1.7,3-3,6.4-3.7,10.3c-0.7,3.8-1,10.5-1,20.1v53.5H1163V537.2z"/>
		<path class="st1" d="M1288,647.3v-95.8h-20.9v-14.2h20.9v-35.6h14.1v35.6h20.9v14.2h-20.9v95.8H1288z"/>
	</g>
</g>
<g id="Layer_11">
	<g>
		<g>
			<g>
				<g>
					<g>
						<g>
							<path class="st3" d="M712.9,482.7c-2,1-4.2,1.9-6.1,3.1c-1,0.6-2,1.1-3,1.7l-2.8,1.9l-1.4,1c-0.5,0.3-0.9,0.7-1.4,1.1
								l-2.7,2.1c-0.9,0.7-1.7,1.5-2.6,2.3c-0.9,0.8-1.7,1.5-2.5,2.4l-2.5,2.4c-0.8,0.8-1.6,1.7-2.3,2.6c-0.4,0.4-0.8,0.9-1.2,1.3
								l-1.1,1.3c-0.7,0.9-1.5,1.8-2.2,2.7c-2.9,3.6-5.5,7.5-8,11.5c-0.7,1.3-1,2.7-0.8,3.9c0.2,1.2,0.7,2.1,1.7,2.4
								c0.9,0.3,1.9,0.2,2.8-0.4c0.9-0.6,1.7-1.6,2.3-2.9c1.6-4.1,3.5-8.1,5.8-11.9c0.5-1,1.2-1.9,1.7-2.8l0.9-1.4
								c0.3-0.5,0.6-0.9,1-1.4c0.6-0.9,1.3-1.8,1.9-2.7l2.1-2.6c0.7-0.9,1.4-1.7,2.2-2.5c0.8-0.8,1.5-1.7,2.3-2.5l2.4-2.3
								c0.4-0.4,0.8-0.8,1.2-1.1l1.3-1.1l2.6-2.1c0.9-0.7,1.9-1.3,2.8-1.9c1.8-1.3,3.8-2.3,5.8-3.4c0.6-0.3,1.1-0.7,1-0.9
								C714.2,482.2,713.6,482.4,712.9,482.7z"/>
						</g>
						<path class="st4" d="M688.5,505.6c0.6-0.9,1.3-1.8,1.9-2.7l0.8-1c-9,7-13,16.5-13,16.5c-0.1,2.5-0.1,4.6-0.1,6.4
							c0.4-0.5,0.7-1,0.9-1.6c1.6-4.1,3.5-8.1,5.8-11.9c0.5-1,1.2-1.9,1.7-2.8l0.9-1.4C687.8,506.5,688.2,506,688.5,505.6z"/>
						<g>
							<path class="st3" d="M677.8,585.1c-0.5-4.6-0.7-9.3-0.7-14c0-4.7,0.2-9.3,0.3-13.9c0.1-4.6,0.1-9.3,0.3-13.9
								c0.3-9.3,1-18.5,2.2-27.6c0.4-2.3,0.6-4.6,1-6.8l0.6-3.4l0.7-3.3l0.7-3.5c0.2-1.2,0.5-2.4,0.7-3.6l0.6-3.6
								c0.2-1.2,0.3-2.4,0.5-3.6c1.3-9.6,1.2-19.4-0.2-28.9c-1.4-9.5-4.1-18.8-7.6-27.6c-1.7-4.4-3.7-8.7-5.6-13
								c-1.9-4.3-3.8-8.6-5.1-13c-0.2-0.7-0.3-1.4-0.5-2c-0.1-0.6-0.3-1.2-0.4-1.6c-0.2-0.9-0.3-1.5-0.5-1.5c-0.1,0-0.2,0.6-0.3,1.6
								c0,0.5,0.1,1.1,0.1,1.8c0.1,0.7,0.2,1.4,0.4,2.1c1.1,4.7,2.8,9.1,4.5,13.5c1.7,4.4,3.3,8.8,4.8,13.2c2.9,8.9,4.9,18,5.6,27.1
								c0.6,9.2-0.1,18.4-2,27.3c-0.3,1.1-0.5,2.2-0.8,3.3l-0.9,3.3c-0.3,1.1-0.7,2.2-1,3.3l-1,3.4l-1.1,3.5l-0.9,3.5
								c-0.6,2.3-1.1,4.7-1.6,7.1c-1.9,9.4-3,19-3.8,28.5c-0.4,4.8-0.7,9.5-0.8,14.3c0,2.4,0,4.8,0,7.1l0.1,7.1
								c0.1,4.7,0.7,15.5,0.8,19.5"/>
						</g>
						<g>
							<path class="st3" d="M652.8,467.4c1.5,1.7,3.1,3.3,4.3,5.2c0.7,0.9,1.3,1.8,2,2.7l1.8,2.9l0.9,1.4c0.3,0.5,0.5,1,0.8,1.5
								l1.5,3c0.5,1,0.9,2.1,1.3,3.1c0.4,1,0.9,2.1,1.2,3.1l1.1,3.2c0.3,1.1,0.6,2.1,0.9,3.2c0.1,0.5,0.3,1.1,0.4,1.6l0.4,1.6
								c0.2,1.1,0.5,2.2,0.7,3.3c0.8,4.4,1.3,8.8,1.4,13.2c0.1,1.4,0.5,2.6,1.2,3.5c0.7,0.9,1.6,1.4,2.5,1.4c1,0,1.8-0.7,2.4-1.7
								c0.5-1,0.7-2.4,0.5-3.9c-1-4.6-2.2-9.1-3.7-13.5c-0.3-1.1-0.8-2.2-1.2-3.3l-0.6-1.6c-0.2-0.5-0.4-1.1-0.7-1.6
								c-0.5-1.1-0.9-2.1-1.4-3.2l-1.5-3.1c-0.5-1.1-1-2.1-1.6-3.1c-0.6-1-1.1-2-1.7-3l-1.8-2.9c-0.3-0.5-0.6-1-0.9-1.5l-1-1.4
								l-2-2.8c-0.7-0.9-1.5-1.8-2.2-2.6c-1.4-1.8-3.1-3.4-4.7-5c-0.5-0.5-1-0.9-1.1-0.8C652,466.4,652.3,466.9,652.8,467.4z"/>
						</g>
						<path class="st4" d="M672.5,508c0.5-2.3,1-4.6,1.6-6.9c-0.3-0.8-0.6-1.5-0.8-2.3l-0.3-0.8c0,0,0,9-2.6,6.6
							c0.5,3.1,0.9,6.3,1.1,9.4C671.7,512,672.1,510,672.5,508z"/>
					</g>
				</g>
			</g>
		</g>
	</g>
</g>
<g id="Layer_10">
	<g>
		<path class="st3" d="M740.5,461.7l9.8,2l-2,9.8c-4.9,23.6-27.9,38.8-51.6,33.9l-9.8-2l2-9.8C693.9,472.1,716.9,456.9,740.5,461.7z
			"/>
		<path class="st4" d="M750.3,463.7l-2,9.8c-4.9,23.6-27.9,38.8-51.6,33.9l-9.8-2C687,505.5,714.1,475.3,750.3,463.7z"/>
		<path class="st5" d="M740.5,461.7l5.6,1.1c-47.8-9.1-58.6,39.9-58.6,39.9l1.5-7.1C693.9,472.1,716.9,456.9,740.5,461.7z"/>
	</g>
</g>
<g id="Layer_9">
	<g>
		<path class="st3" d="M630.7,444.3l-10-0.5l-0.5,10c-1.1,24.1,17.5,44.5,41.6,45.6l10,0.5l0.5-10
			C673.4,465.9,654.8,445.4,630.7,444.3z"/>
		<path class="st4" d="M620.7,443.9l-0.5,10c-1.1,24.1,17.5,44.5,41.6,45.6l10,0.5C671.8,499.9,653,464,620.7,443.9z"/>
		<path class="st5" d="M630.7,444.3l-5.7-0.3c48.6,2.9,46.9,53.1,46.9,53.1l0.3-7.3C673.4,465.9,654.8,445.4,630.7,444.3z"/>
	</g>
</g>
<g id="Layer_8">
	<g>
		<path class="st3" d="M721.5,416.5l8.6,0l0,8.6c0,20.6-16.8,37.3-37.4,37.3l-8.6,0l0-8.6C684.1,433.2,700.9,416.5,721.5,416.5z"/>
		<path class="st4" d="M730.1,416.5l0,8.6c0,20.6-16.8,37.3-37.4,37.3l-8.6,0C684.1,462.3,701.6,432.4,730.1,416.5z"/>
		<path class="st5" d="M721.5,416.5l4.9,0c-41.6,0.5-42.3,43.5-42.3,43.5l0-6.2C684.1,433.2,700.9,416.5,721.5,416.5z"/>
	</g>
</g>
<g id="Layer_7">
	<g>
		<path class="st3" d="M653.8,386.3l-7.7-1.9l-1.9,7.7c-4.5,18.7,7,37.4,25.7,41.9l7.7,1.9l1.9-7.7
			C683.9,409.5,672.4,390.8,653.8,386.3z"/>
		<path class="st4" d="M646,384.4l-1.9,7.7c-4.5,18.7,7,37.4,25.7,41.9l7.7,1.9C677.6,435.9,668.3,405,646,384.4z"/>
		<path class="st5" d="M653.8,386.3l-4.4-1.1c37.5,9.6,28.7,48.6,28.7,48.6l1.4-5.6C683.9,409.5,672.4,390.8,653.8,386.3z"/>
	</g>
</g>
<g id="Layer_5">
	<g>
		<g>
			<path class="st3" d="M765.6,628.5c-4.4,6.3-10.4,11.3-17.9,14.9s-15.6,5.4-24.3,5.4c-16.1,0-29.6-5.5-40.3-16.6
				s-16.1-24.7-16.1-40.9c0-16.5,5.5-30.2,16.5-41.3c11-11.1,24.7-16.6,41.2-16.6c8.5,0,16.2,1.7,23.3,5.2
				c7.1,3.4,12.9,8.4,17.6,14.9 M765.6,590.2c0-11.7-4.2-21.9-12.5-30.6c-8.3-8.7-17.9-13.1-28.8-13.1c-11.8,0-21.9,4.4-30.2,13.1
				c-8.3,8.7-12.5,19.5-12.5,32.4c0,12.3,4.1,22.6,12.4,31.1c8.3,8.4,18.2,12.7,29.8,12.7c11.2,0,21-4.5,29.3-13.4
				C761.4,613.4,765.6,602.7,765.6,590.2z"/>
		</g>
		<g>
			<path class="st3" d="M681.4,552.6c4.7-6.5,10.5-11.4,17.6-14.9c7.1-3.4,14.8-5.2,23.3-5.2c16.5,0,30.2,5.5,41.2,16.6
				c11,11.1,16.5,24.8,16.5,41.3c0,16.2-5.4,29.8-16.1,40.9c-10.7,11-24.2,16.6-40.3,16.6c-8.7,0-16.8-1.8-24.3-5.4
				s-13.5-8.6-17.9-14.9 M693.9,621.5c8.3,8.9,18.1,13.4,29.3,13.4c11.6,0,21.5-4.2,29.8-12.7c8.3-8.4,12.4-18.8,12.4-31.1
				c0-12.9-4.2-23.7-12.5-32.4c-8.3-8.7-18.4-13.1-30.2-13.1c-10.9,0-20.5,4.4-28.8,13.1c-8.3,8.7-12.5,18.9-12.5,30.6
				C681.4,601.8,685.6,612.6,693.9,621.5z"/>
		</g>
	</g>
</g>
</svg>
