<?xml version="1.0" encoding="utf-8"?>
<!-- Generator: Adobe Illustrator 24.2.1, SVG Export Plug-In . SVG Version: 6.00 Build 0)  -->
<svg version="1.1" xmlns="http://www.w3.org/2000/svg" xmlns:xlink="http://www.w3.org/1999/xlink" x="0px" y="0px"
	 viewBox="0 0 1920 1080" style="enable-background:new 0 0 1920 1080;" xml:space="preserve">
<style type="text/css">
	.st0{fill:#FFFFFF;stroke:#000000;stroke-miterlimit:10;}
	.st1{fill:#3E64FF;}
</style>
<g id="Layer_6">
	<rect x="-0.5" y="-0.5" class="st0" width="1920" height="1080"/>
</g>
<g id="Layer_5">
	<path d="M834.2,486.5c-2.5-3.6-5.8-6.2-10-7.8c-4.1-1.7-8.4-2.6-12.9-2.6c-2.7,0-5.4,0.3-8,0.9c-2.5,0.6-4.7,1.6-6.8,3
		c-2,1.4-3.6,3.1-4.8,5.4c-1.2,2.1-1.8,4.6-1.8,7.6c0,4.4,1.5,7.8,4.6,10.2c3.1,2.3,6.9,4.4,11.5,6.1c4.6,1.7,9.6,3.4,15,5
		c5.4,1.6,10.4,3.8,15,6.7c4.6,2.8,8.4,6.6,11.5,11.3c3.1,4.7,4.6,10.9,4.6,18.7c0,7-1.3,13.2-3.9,18.5c-2.6,5.2-6.1,9.5-10.5,12.9
		c-4.3,3.5-9.4,6-15.2,7.8c-5.8,1.7-11.9,2.6-18.3,2.6c-8.1,0-16-1.4-23.5-4.1c-7.5-2.7-14-7.3-19.4-13.7l17.6-17
		c2.8,4.3,6.5,7.7,11.1,10.2c4.7,2.3,9.6,3.5,14.8,3.5c2.7,0,5.4-0.4,8.1-1.1c2.7-0.7,5.2-1.8,7.4-3.3c2.2-1.5,4-3.3,5.4-5.5
		c1.4-2.3,2-5,2-8c0-4.8-1.5-8.5-4.6-11.1c-3.1-2.6-6.9-4.7-11.5-6.5c-4.6-1.8-9.6-3.6-15-5.2c-5.4-1.6-10.4-3.8-15-6.5
		c-4.6-2.8-8.4-6.5-11.5-11.1c-3.1-4.7-4.6-10.9-4.6-18.7c0-6.8,1.4-12.6,4.1-17.6c2.8-4.9,6.5-9,10.9-12.2
		c4.6-3.3,9.7-5.8,15.5-7.4s11.7-2.4,17.8-2.4c6.9,0,13.6,1,20,3.1c6.5,2.1,12.4,5.5,17.6,10.4L834.2,486.5z M965.5,631.5h-22.2V578
		h-0.6c-1.1,1.5-2.5,3-4.3,4.6c-1.7,1.5-3.8,2.9-6.3,4.3c-2.5,1.4-5.3,2.5-8.5,3.3c-3.2,0.9-6.9,1.3-11.1,1.3
		c-6.3,0-12.1-1.2-17.4-3.5c-5.3-2.5-9.9-5.8-13.7-10c-3.7-4.2-6.6-9.1-8.7-14.8c-2.1-5.7-3.1-11.8-3.1-18.3s1-12.6,3-18.3
		c2-5.7,4.9-10.6,8.7-14.8c3.8-4.2,8.4-7.5,13.7-9.8c5.4-2.5,11.6-3.7,18.5-3.7c6.3,0,12.1,1.2,17.6,3.7c5.4,2.5,9.7,6.4,12.9,11.8
		h0.4v-13.3h21.1V631.5z M891.9,544.9c0,3.5,0.6,6.8,1.7,10c1.2,3.2,3,6,5.2,8.5c2.3,2.5,5.1,4.4,8.3,5.9c3.2,1.5,6.8,2.2,10.9,2.2
		s7.7-0.7,10.9-2.2c3.2-1.5,5.9-3.5,8.1-5.9c2.3-2.5,4.1-5.3,5.2-8.5c1.2-3.2,1.8-6.5,1.8-10s-0.6-6.8-1.8-10
		c-1.1-3.2-2.8-6-5.2-8.5c-2.2-2.5-4.9-4.4-8.1-5.9c-3.2-1.5-6.8-2.2-10.9-2.2s-7.7,0.7-10.9,2.2c-3.2,1.5-6,3.5-8.3,5.9
		c-2.2,2.5-3.9,5.3-5.2,8.5C892.5,538.2,891.9,541.5,891.9,544.9z M1071.7,589.3h-21.1v-14.2h-0.4c-2.1,4.4-5.3,8.3-9.6,11.7
		c-4.3,3.2-10.2,4.8-17.6,4.8c-5.9,0-11-0.9-15.2-2.8c-4.1-2-7.4-4.6-10-7.8c-2.6-3.3-4.4-7.1-5.5-11.3c-1.1-4.2-1.7-8.6-1.7-13.1
		v-56h22.2v44.9c0,2.5,0.1,5.2,0.4,8.3c0.2,3,0.9,5.8,1.8,8.5c1.1,2.6,2.7,4.8,4.8,6.7c2.2,1.7,5.3,2.6,9.2,2.6
		c3.7,0,6.8-0.6,9.2-1.8c2.6-1.2,4.7-2.9,6.3-5c1.7-2.1,3-4.5,3.7-7.2c0.7-2.7,1.1-5.5,1.1-8.5v-48.5h22.2V589.3z M1097.2,500.6
		h22.2v88.8h-22.2V500.6z M1094.1,470.4c0-3.6,1.3-6.7,3.9-9.2c2.7-2.7,6.1-4.1,10.2-4.1c4.1,0,7.5,1.3,10.2,3.9
		c2.8,2.5,4.3,5.6,4.3,9.4s-1.4,7-4.3,9.6c-2.7,2.5-6.1,3.7-10.2,3.7c-4.1,0-7.5-1.3-10.2-3.9C1095.4,477.1,1094.1,474,1094.1,470.4
		z M1138.6,568.8l47.5-50.1v-0.4h-45.3v-17.8h72.1v20.2l-48.1,50.9h50.3v17.8h-76.6V568.8z M1234.5,500.6h22.2v88.8h-22.2V500.6z
		 M1231.3,470.4c0-3.6,1.3-6.7,3.9-9.2c2.7-2.7,6.1-4.1,10.2-4.1c4.1,0,7.5,1.3,10.2,3.9c2.8,2.5,4.3,5.6,4.3,9.4s-1.4,7-4.3,9.6
		c-2.7,2.5-6.1,3.7-10.2,3.7c-4.1,0-7.5-1.3-10.2-3.9C1232.6,477.1,1231.3,474,1231.3,470.4z M1290.1,519.4h-18.3v-18.9h18.3V488
		c0-6.2,0.4-11.7,1.3-16.6c0.9-5.1,2.5-9.4,4.8-12.9c2.5-3.6,5.9-6.3,10.2-8.1c4.3-2,9.9-3,16.8-3c5.1,0,9.7,0.4,14.1,1.3l-1.5,18.9
		c-1.6-0.4-3.1-0.7-4.6-0.9c-1.5-0.2-3-0.4-4.6-0.4c-3.1,0-5.5,0.5-7.4,1.5c-1.8,1-3.3,2.3-4.4,4.1c-1,1.6-1.7,3.5-2,5.7
		c-0.2,2.2-0.4,4.6-0.4,7v16.1h20.5v18.9h-20.5v69.9h-22.2V519.4z M1335.1,500.6h24.4l24.8,61.6h0.4l22.2-61.6h23.1l-42,107.8
		c-1.6,4.2-3.4,7.8-5.4,10.9c-1.8,3.2-4.1,5.9-6.7,8c-2.6,2.2-5.7,3.8-9.2,4.8c-3.5,1.1-7.6,1.7-12.6,1.7c-5.8,0-11.5-0.7-17-2.2
		l2.8-20c1.7,0.6,3.5,1.1,5.4,1.5c2,0.5,3.9,0.7,5.9,0.7c2.7,0,5-0.2,6.8-0.7c1.8-0.5,3.4-1.3,4.6-2.4c1.4-1,2.5-2.3,3.3-4.1
		c0.9-1.6,1.8-3.6,2.8-5.9l4.3-10.5L1335.1,500.6z"/>
</g>
<g id="Layer_4">
	<path class="st1" d="M669.3,523c-0.5,0.6-0.9,1.2-1.4,1.9c-0.4,0.2-0.7,0.4-0.7,0.9l0,0c-1.3,1-2.2,2.2-3.2,3.5
		c-0.1,0.1-0.2,0.2-0.3,0.3c-1.1,0.7-2,1.6-2.8,2.5c-1.2,0.9-2.3,1.9-3.5,2.8c-0.4,0-0.6,0.3-0.8,0.6c-0.1,0-0.2,0-0.2,0.1
		c-1.8,1.1-3.5,2.3-5.3,3.4c-0.6,0-0.9,0.4-1.3,0.7c-1.9,0.9-3.7,1.8-5.6,2.7c-0.2,0.1-0.4,0.1-0.7,0.2c-1.9,0.7-3.7,1.3-5.6,2
		c-0.2,0-0.5,0.1-0.7,0.1c-0.7,0.1-1.4,0.2-2.1,0.6c-1.5,0.3-3,0.5-4.5,0.8c-1.3,0.2-2.5,0.4-3.8,0.6c-0.7,0-1.4,0-2.1,0.1
		c-6.3,0-12.5,0-18.8,0c-0.5,0-0.9,0-1.4-0.1c-1.1-0.3-2.3-0.6-3.5-0.6c-0.2,0-0.4,0-0.7-0.1c-0.7-0.4-1.4-0.6-2.1-0.6
		c-6.3-1.8-11.9-4.9-16.7-9.4c-5.3-4.9-11.6-7.4-18.9-7.4c-20.8,0-41.6,0-62.4,0c-1.7,0-3.3-0.3-4.9-0.8c-0.2-0.1-0.4-0.3-0.7-0.4
		c-0.5-0.3-1-0.6-1.4-1c-0.3-0.6-0.7-1.1-1.4-1.3c-0.3-0.5-0.6-1-0.8-1.5c-1-2.2-1.1-4.5-0.6-6.9c0-0.2,0.1-0.4,0.1-0.7
		c0.6-0.9,1.1-1.8,1.7-2.8l0,0c0.8-0.7,1.6-1.3,2.4-2c0.1,0,0.2-0.1,0.3-0.1c0.1-0.1,0.3-0.2,0.4-0.2l0,0c1.8-0.6,3.6-0.7,5.5-0.7
		c22.1,0.1,44.3-0.2,66.4,0.2c0.6,0,1.1,0.1,1.7,0.1c1.1,0.4,2.3,0.6,3.5,0.7c0.2,0,0.4,0.1,0.7,0.1c1.4,0.4,2.8,0.8,4.2,1.2
		c6.6,2.3,12.4,5.9,17.5,10.7c3.9,3.6,8.8,5.2,14,5.2c6.3,0.1,12.7,0.5,19-0.6c6.8-1.1,12.9-3.6,18.4-7.9c1.2-0.7,2.2-1.5,3.1-2.6
		c1.2-0.9,2.2-2,3.1-3.2c1.6-1.5,2.9-3.2,3.9-5.1l0,0c0.6-0.6,1-1.3,1.3-2.1c0.5-0.7,1-1.4,1.1-2.3c0.7-0.7,0.9-1.6,1.2-2.5
		c0-0.2,0.1-0.3,0.1-0.5c1-2.1,1.7-4.3,2-6.6c0-0.2,0-0.5,0.1-0.7c0.7-2.3,0.6-2.4-1.3-2.4c-53,0-105.9,0-158.9,0
		c-1.9,0-3.8,0-5.7-0.4c-0.1,0-0.2,0-0.3-0.1c-0.9-0.6-1.9-1.1-2.8-1.7c-0.5-0.5-0.9-1-1.4-1.4c0-0.2-0.1-0.4-0.4-0.4
		c-0.1-0.2-0.3-0.4-0.4-0.7c-0.8-2.3-1.3-4.6-0.8-7c0-0.2,0.1-0.5,0.1-0.7c0.1-0.2,0.2-0.5,0.3-0.7c0.4-0.6,0.7-1.2,1.1-1.8
		c0.6-0.5,1.1-1,1.5-1.6c0.3,0,0.5-0.1,0.6-0.4c2.2-1.3,4.7-1.5,7.2-1.5c56.4,0,112.8,0,169.2,0c2.5,0,5,0.3,7.2,1.5l0,0
		c0,0.2,0.1,0.3,0.3,0.3c0.1,0.1,0.2,0.1,0.3,0.1c0.4,0.7,0.9,1.2,1.5,1.6c0.1,0.1,0.2,0.3,0.3,0.4c0.4,0.7,0.7,1.4,1.1,2.1
		c0,0.1,0,0.2,0,0.4c0.1,1.1,0.3,2.3,0.3,3.4c0.1,4.8-0.2,9.6-1,14.3c0,0.2,0,0.5-0.1,0.7c-0.4,0.9-0.7,1.8-0.7,2.8
		c-0.3,1-0.5,2-0.8,3c-1.1,2.7-2.1,5.4-3.2,8.1l0,0c-0.1,0.1-0.2,0.3-0.2,0.4l0,0C673.6,516.4,671.5,519.8,669.3,523z"/>
</g>
<g id="Layer_3">
	<path class="st1" d="M601,584.9c-0.2,0.1-0.5,0.1-0.7,0.2c-3,1.1-5.4,3.1-7.5,5.4l0,0c-0.8,0.4-1.5,1-2.1,1.7l0,0
		c-0.9,0.5-1.7,1-2.4,1.7h0c-0.2,0-0.4,0.1-0.4,0.3l0,0c-0.7,0.2-1.3,0.5-1.7,1.1c-0.4,0-0.7,0.2-1,0.5c-0.1,0.1-0.2,0.1-0.3,0.2
		l0,0c-2,0.9-4,1.8-5.9,2.7c-0.2,0.1-0.4,0.1-0.7,0.2c-0.5,0-1,0.2-1.4,0.6c-0.2,0-0.5,0.1-0.7,0.1c-0.7,0.1-1.4,0.3-2.1,0.6
		c-0.2,0-0.5,0-0.7,0.1c-0.8,0.1-1.7,0.2-2.4,0.6c-0.1,0-0.2,0-0.3,0c-5.4,0.6-10.7,0.5-16.1,0.5c-17.7,0-35.4,0-53.2,0
		c-2.5,0-5-0.3-7.2-1.5l0,0c0-0.2-0.1-0.3-0.3-0.3c-0.1-0.1-0.2-0.1-0.3-0.1c-0.4-0.7-0.9-1.2-1.5-1.6c-0.1-0.1-0.2-0.3-0.3-0.4
		c-0.4-0.7-0.7-1.4-1.1-2.1c0-0.2-0.1-0.5-0.1-0.7c-0.6-2.4-0.1-4.7,0.7-7c0.1-0.2,0.3-0.4,0.4-0.7c0.3,0,0.3-0.1,0.4-0.4
		c0.3-0.4,0.7-0.7,1-1.1c2.2-1.9,4.7-2.5,7.5-2.5c20.7,0,41.5,0,62.2,0c1.1,0,2.2,0.1,3.3-0.3c0.3,0,0.7,0,1-0.1
		c1.7-0.1,3.4-0.5,4.9-1.3c0.1,0,0.2-0.1,0.3-0.1c0.1-0.1,0.3-0.1,0.4-0.2c0,0,0,0,0,0c0.4,0.1,0.8-0.1,1.1-0.4c0.1,0,0.2,0,0.3-0.1
		c0.6,0,1-0.3,1.4-0.7c1.9-0.8,3.6-2,5.1-3.3c3.3-3.1,6.9-5.7,10.9-7.8c0.5,0,0.9-0.3,1.2-0.6c0.1,0,0.1,0,0.2-0.1
		c1.2-0.3,2.4-0.7,3.5-1.4c0.1,0,0.2,0,0.3-0.1c0.8,0,1.4-0.2,2.1-0.6c0.1,0,0.2,0,0.3,0c1,0,1.9-0.3,2.8-0.7c0.2,0,0.5,0,0.7-0.1
		c1.2-0.1,2.4-0.3,3.6-0.3c7.9-0.1,15.9-0.1,23.8-0.1c14,0,28,0,42,0c4.2,0,7.2,1.9,8.8,5.7c1.2,3,0.7,5.9-0.9,8.6
		c-0.4,0.5-0.9,1-1.3,1.5c-1.1,0.7-2.1,1.3-3.2,2c-0.2,0-0.4,0.1-0.7,0.1c-1.3,0.1-2.6,0.2-4,0.2c-20.3,0-40.5,0-60.8,0
		c-1.1,0-2.3-0.2-3.4,0.3c-1.4,0.1-2.8,0.4-4.1,0.8C601.9,584.3,601.4,584.4,601,584.9z"/>
</g>
<g id="Layer_2">
	<path class="st1" d="M491.1,551.6c0.3-0.5,0.6-0.9,0.9-1.4c0.6-0.4,1-0.8,1.4-1.4c0.2-0.2,0.5-0.4,0.7-0.6c0.1,0,0.2,0,0.2-0.1
		c0.1-0.1,0.3-0.2,0.4-0.2c0.2-0.1,0.5-0.3,0.7-0.4c0.1,0,0.2,0,0.3-0.1c0.1-0.1,0.3-0.1,0.4-0.2l0,0c0.6-0.1,1.2-0.1,1.7-0.5
		c21.7,0,43.3,0,65,0c4.6,0,8.3,3,9.1,7.3c0.9,4.6-1.3,8.7-5.7,10.5c-1.2,0.5-2.5,0.6-3.7,0.6c-20.8,0-41.6,0-62.4,0
		c-1.2,0-2.4-0.2-3.6-0.3c-0.3-0.2-0.7-0.3-1-0.5c-0.2,0-0.3-0.1-0.5-0.1c-0.9-0.7-1.8-1.4-2.7-2.1l0,0c-0.6-0.9-1.1-1.8-1.7-2.8
		c0-0.2-0.1-0.4-0.1-0.7C489.9,556.1,490.1,553.8,491.1,551.6z"/>
</g>
</svg>
