<?xml version="1.0" encoding="utf-8"?>
<!-- Generator: Adobe Illustrator 24.2.1, SVG Export Plug-In . SVG Version: 6.00 Build 0)  -->
<svg version="1.1" xmlns="http://www.w3.org/2000/svg" xmlns:xlink="http://www.w3.org/1999/xlink" x="0px" y="0px"
	 viewBox="0 0 1920 1080" style="enable-background:new 0 0 1920 1080;" xml:space="preserve">
<style type="text/css">
	.st0{fill:#2B2F3E;}
	.st1{fill:#FFFFFF;}
</style>
<g id="Layer_2">
	<rect class="st0" width="1920" height="1080"/>
</g>
<g id="Layer_1">
	<g id="Layer_2_1_">
		<g id="Layer_1-2">
			<path class="st1" d="M958,479.3c-2.6-2.4-4-5.8-3.8-9.3c-0.2-3.5,1.2-6.8,3.8-9.2c2.9-2.4,6.6-3.6,10.3-3.4
				c3.7-0.2,7.4,1.1,10.2,3.4c2.6,2.3,4.1,5.7,3.9,9.2c0.1,3.5-1.3,6.9-3.8,9.3C972.6,484,964.1,484,958,479.3"/>
			<path class="st1" d="M929.1,537.5c4.4,6.1,6.6,13.5,6.4,21c0,11.5-4.1,20.5-12.3,27c-8.2,6.5-19.5,9.8-33.9,9.7h-49.3
				c-3.2,0.2-6.3-0.9-8.7-3.1c-2.2-2.3-3.3-5.4-3.1-8.6V472.1c-0.2-3.2,0.9-6.3,3.1-8.6c2.4-2.1,5.5-3.2,8.7-3.1h47.4
				c14,0,25,3.1,33,9.3c8,6.2,12,14.8,11.9,25.9c0.2,6.6-1.8,13.1-5.6,18.5c-3.9,5.3-9.3,9.3-15.6,11.5
				C918.2,527.4,924.5,531.6,929.1,537.5 M852,517.2h31.2c17,0,25.4-6.3,25.4-18.9c0-6.4-2.1-11.1-6.3-14.1
				c-4.2-3.1-10.6-4.5-19.1-4.5h-31.1L852,517.2z M906,571.4c4.1-3.2,6.1-8.2,6.1-14.9c0-6.7-2.1-11.8-6.2-15.1
				c-4.1-3.3-10.6-5-19.4-5h-34.4v39.7h34.4C895.5,576.1,902,574.5,906,571.4"/>
			<path class="st1" d="M1092.8,502.9c2.2,2.1,3.4,5.1,3.3,8.2v75.6c0,14.6-4.1,25.7-12.2,33.3c-8.2,7.5-20.2,11.3-36.1,11.2
				c-13.9,0-25.5-2.6-34.8-7.8c-4.7-2.8-7.1-6.2-7.1-10.1c-0.1-2.4,0.6-4.8,2-6.7c1.3-1.6,3.2-2.6,5.3-2.5c1.4,0.1,2.9,0.3,4.2,0.9
				c1.7,0.6,3.4,1.3,5.2,2c4,1.8,8.1,3.3,12.3,4.5c4.1,1.1,8.3,1.6,12.5,1.5c16.7,0,25.1-8.2,25.1-24.5v-12.3
				c-2.8,5.2-7,9.4-12.2,12.1c-5.7,2.9-12,4.4-18.4,4.3c-15.5,0.4-29.8-8.3-36.5-22.2c-3.7-7.5-5.5-15.8-5.4-24.2
				c-0.2-8.4,1.6-16.8,5.3-24.4c3.2-6.8,8.4-12.5,14.8-16.4c6.6-3.9,14.1-6,21.8-5.8c6.4-0.1,12.7,1.4,18.4,4.3
				c5.2,2.7,9.5,7,12.2,12.1v-5.1c-0.1-3,1.1-5.9,3.2-8C1080.6,498.8,1087.8,498.8,1092.8,502.9 M1065.9,566.5
				c4.3-5,6.4-11.8,6.4-20.4s-2.1-15.6-6.4-20.6c-9.7-9.8-25.5-10-35.4-0.3c-0.1,0.1-0.2,0.2-0.3,0.3c-4.3,5-6.5,11.9-6.5,20.7
				s2.2,15.7,6.5,20.4c9.7,9.8,25.5,10,35.4,0.3C1065.8,566.8,1065.9,566.7,1065.9,566.5"/>
			<path class="st1" d="M1200.1,509c5.5,6.4,8.2,16,8.2,28.9v47c0.2,3.1-1,6.2-3.1,8.4c-2.4,2.1-5.5,3.2-8.7,3.1
				c-3.2,0.2-6.4-0.9-8.8-2.9c-2.2-2.2-3.4-5.3-3.2-8.4v-45.8c0-7.3-1.4-12.6-4.1-15.9c-2.7-3.3-7-5-12.9-5
				c-6.2-0.3-12.2,2.1-16.5,6.5c-4.3,4.8-6.5,11-6.2,17.4v42.6c0.2,3.2-1,6.3-3.3,8.5c-2.4,2.1-5.6,3.2-8.8,3.1
				c-3.2,0.2-6.3-0.9-8.7-3.1c-2.2-2.2-3.3-5.3-3.2-8.4v-74.1c-0.2-3,1-5.9,3.2-8c2.5-2.2,5.7-3.3,9-3.1c3-0.1,5.9,0.9,8.1,2.9
				c2.1,2,3.3,4.8,3.1,7.8v5.2c3.1-5.1,7.5-9.3,12.8-12c5.6-2.9,11.8-4.3,18.2-4.2c11.2,0,19.6,3.2,25.1,9.6"/>
			<path class="st1" d="M1311.8,572.1c1.4,1.9,2.1,4.3,2,6.7c0,4-2.4,7.3-7.1,9.9c-4.6,2.5-9.6,4.5-14.7,5.8
				c-5.1,1.4-10.4,2.2-15.7,2.2c-15,0-26.9-4.3-35.7-13c-8.8-8.7-13.2-20.6-13.2-35.7c-0.2-8.8,1.8-17.5,5.7-25.4
				c3.6-7.2,9.2-13.2,16.2-17.2c7.2-4.1,15.3-6.3,23.6-6.1c7.7-0.2,15.3,1.7,22,5.5c6.3,3.7,11.3,9.2,14.5,15.7
				c3.6,7.4,5.4,15.6,5.2,23.9c0,5.5-2.4,8.2-7.3,8.2h-56.3c0.8,8.8,3.2,15.3,7.4,19.4s10.4,6.2,18.5,6.1c3.7,0.1,7.3-0.4,10.8-1.5
				c3.6-1.2,7.1-2.6,10.6-4.2c2.6-1.6,5.4-2.6,8.4-3.1c2.1-0.1,4,0.9,5.3,2.5 M1257.9,522.4c-3.9,4.1-6.2,9.9-7,17.6h43.2
				c-0.3-7.8-2.2-13.7-5.7-17.7c-3.8-4.1-9.3-6.3-14.9-6C1267.7,516,1262,518.2,1257.9,522.4"/>
			<path class="st1" d="M1334.3,588.5c-3.8-2-6.2-6-6.1-10.3c-0.1-2.3,0.6-4.5,2.1-6.2c1.3-1.5,3.2-2.4,5.2-2.4
				c3.2,0.3,6.3,1.4,9,3.1c3.6,1.8,7.4,3.3,11.2,4.5c4.2,1.1,8.5,1.6,12.9,1.5c4.3,0.2,8.7-0.7,12.5-2.7c2.8-1.4,4.5-4.3,4.5-7.5
				c0.1-1.9-0.6-3.7-1.8-5.2c-1.9-1.7-4.1-3-6.6-3.7c-4.7-1.5-9.4-2.7-14.2-3.7c-11.4-2.3-19.5-5.5-24.4-9.8
				c-5-4.4-7.7-10.8-7.4-17.4c-0.1-5.5,1.7-10.8,5-15.2c3.5-4.7,8.2-8.3,13.7-10.5c6.3-2.6,13-3.8,19.8-3.7c5.2,0,10.4,0.6,15.5,2
				c4.8,1.2,9.3,3.2,13.5,5.8c3.7,2,6.1,5.9,6.1,10.1c0.1,2.3-0.7,4.6-2.1,6.4c-1.2,1.6-3.1,2.6-5.2,2.6c-1.4,0-2.8-0.3-4.1-0.9
				c-1.7-0.8-3.4-1.6-5.1-2.6c-3.1-1.6-6.3-3.1-9.6-4.3c-3.2-1-6.6-1.5-9.9-1.4c-4-0.2-7.9,0.8-11.2,2.9c-2.7,1.7-4.3,4.7-4.3,7.9
				c-0.1,3,1.5,5.8,4.2,7.3c5.1,2.4,10.6,4.1,16.2,5c6.9,1.2,13.7,3.3,20.2,6c4.2,1.8,7.9,4.8,10.4,8.6c2.2,4,3.3,8.6,3.1,13.2
				c0.2,8.3-3.9,16.2-10.8,20.9c-7.2,5.2-16.8,7.8-28.8,7.8C1354,596.7,1342.8,593.9,1334.3,588.5"/>
			<path class="st1" d="M1484,587.2c0.1,2.8-1.3,5.5-3.7,7c-3.2,1.8-6.9,2.5-10.6,2l-5.2-0.4c-21.4-1.5-32.1-13-32.1-34.4v-41.7
				h-9.6c-2.8,0.2-5.6-0.6-7.9-2.2c-1.9-1.7-2.9-4.2-2.8-6.7c-0.2-2.6,0.8-5.1,2.8-6.7c2.3-1.7,5.1-2.4,7.9-2.2h9.6v-17.6
				c-0.1-3.1,1-6.1,3.3-8.2c2.4-2.1,5.6-3.2,8.8-3.1c3.2-0.1,6.2,1,8.6,3.1c2.2,2.2,3.4,5.1,3.3,8.2v17.6h16.3
				c2.8-0.2,5.6,0.6,7.9,2.2c1.9,1.7,3,4.2,2.8,6.7c0.2,2.6-0.8,5.1-2.8,6.7c-2.3,1.7-5.1,2.4-7.9,2.2h-16.2v43.4
				c0,9.4,4.3,14.5,13,15.1l5.2,0.4C1480.8,579,1484,581.8,1484,587.2"/>
			<path class="st1" d="M725.1,551.2c-2.8-4.1-8.4-5.1-12.5-2.3c-1,0.7-1.8,1.5-2.4,2.5l-3.6,5.5c-2.7,4-1.7,9.5,2.2,12.3
				c10.2,7.1,12.8,21.1,5.7,31.3c-4.9,7.1-13.6,10.8-22.1,9.4c-12.8-2.1-18.8-14.1-18.4-27l5.6-74.8c2.5-33.6-20.2-63.9-53.2-70.9
				l-70.3-14.9c-51.8-11.1-104.2,22.2-114.2,74.2c-9.9,51.2,23.6,100.8,74.9,110.6c23.2,4.5,47.2,0.1,67.4-12.3
				c9.3,31.6,34.6,55.8,66.6,63.6l0.8,0.2l1,0.2l1,0.2l0,0c37.7,8,74.7-16,82.7-53.7c4-18.8,0.1-38.5-10.9-54.3 M624.7,545
				c-6.1-1.3-9.9-7.3-8.6-13.4c1.3-6.1,7.3-9.9,13.4-8.6c6.1,1.3,9.9,7.3,8.6,13.3C636.8,542.4,630.8,546.3,624.7,545"/>
			<path class="st1" d="M959.9,593.4c-2.3-2.2-3.6-5.3-3.4-8.5v-73.8c-0.2-3.2,1-6.3,3.4-8.4c2.4-2,5.4-3,8.5-2.9
				c3.1-0.1,6.2,0.9,8.6,2.9c2.4,2.1,3.7,5.2,3.4,8.4v73.8c0.2,3.2-1.1,6.4-3.4,8.5c-2.4,2-5.5,3.1-8.6,3
				C965.2,596.5,962.2,595.4,959.9,593.4"/>
		</g>
	</g>
</g>
</svg>
