<?xml version="1.0" encoding="utf-8"?>
<!-- Generator: Adobe Illustrator 24.2.1, SVG Export Plug-In . SVG Version: 6.00 Build 0)  -->
<svg version="1.1" id="Layer_1" xmlns="http://www.w3.org/2000/svg" xmlns:xlink="http://www.w3.org/1999/xlink" x="0px" y="0px"
	 viewBox="0 0 16 16" style="enable-background:new 0 0 16 16;" xml:space="preserve">
<style type="text/css">
	.st0{fill:#464F84;}
	.st1{fill:#FFFFFF;}
</style>
<rect class="st0" width="16" height="16"/>
<polygon class="st1" points="11.8,4.1 11.8,11.9 10.3,11.9 10.3,8.2 8.5,11.9 7.5,11.9 5.7,8.2 5.7,11.9 4.2,11.9 4.2,4.1 5.7,4.1 
	8,9.4 10.3,4.1 "/>
</svg>
