<svg width="90" height="90" viewBox="0 0 90 90" fill="none" xmlns="http://www.w3.org/2000/svg">
<path d="M45 90C69.8528 90 90 69.8528 90 45C90 20.1472 69.8528 0 45 0C20.1472 0 0 20.1472 0 45C0 69.8528 20.1472 90 45 90Z" fill="#2B96AF"/>
<path d="M44.9999 61.8026C54.2798 61.8026 61.8026 54.2798 61.8026 44.9999C61.8026 35.7201 54.2798 28.1973 44.9999 28.1973C35.7201 28.1973 28.1973 35.7201 28.1973 44.9999C28.1973 54.2798 35.7201 61.8026 44.9999 61.8026Z" fill="white"/>
<path fill-rule="evenodd" clip-rule="evenodd" d="M30.8901 28.1975C30.8901 27.9517 31.0894 27.7524 31.3352 27.7524H65.5637C65.8096 27.7524 66.0088 27.9517 66.0088 28.1975C66.0088 28.4434 65.8096 28.6426 65.5637 28.6426H31.3352C31.0894 28.6426 30.8901 28.4434 30.8901 28.1975Z" fill="#020135"/>
<path fill-rule="evenodd" clip-rule="evenodd" d="M23.991 28.1975C23.991 27.9517 24.1902 27.7524 24.4361 27.7524H28.531C28.7768 27.7524 28.9761 27.9517 28.9761 28.1975C28.9761 28.4434 28.7768 28.6426 28.531 28.6426H24.4361C24.1902 28.6426 23.991 28.4434 23.991 28.1975Z" fill="#020135"/>
<path d="M47.1588 26.061H42.8635V30.3563H47.1588V26.061Z" fill="#2B96AF"/>
<path fill-rule="evenodd" clip-rule="evenodd" d="M42.4183 26.0608C42.4183 25.815 42.6176 25.6157 42.8634 25.6157H47.1587C47.4045 25.6157 47.6038 25.815 47.6038 26.0608V30.3561C47.6038 30.6019 47.4045 30.8012 47.1587 30.8012H42.8634C42.6176 30.8012 42.4183 30.6019 42.4183 30.3561V26.0608ZM43.3085 26.5059V29.911H46.7136V26.5059H43.3085Z" fill="#020135"/>
<path d="M67.5463 28.1972L65.5635 26.2144L63.5807 28.1972L65.5635 30.18L67.5463 28.1972Z" fill="#020135"/>
<path d="M26.0847 28.1977L24.1019 26.2148L22.1191 28.1977L24.1019 30.1805L26.0847 28.1977Z" fill="#020135"/>
<path d="M44.6552 46.4672H41.9936L41.5233 47.6879H39.1218L42.1837 40.6836H44.5052L47.567 47.6879H45.1255L44.6552 46.4672ZM44.0048 44.7661L43.3244 43.005L42.644 44.7661H44.0048Z" fill="#020135"/>
<path d="M47.9439 40.6836H50.3054V47.6879H47.9439V40.6836Z" fill="#020135"/>
</svg>
