<svg width="90" height="90" viewBox="0 0 90 90" fill="none" xmlns="http://www.w3.org/2000/svg">
<path d="M45 90C69.8528 90 90 69.8528 90 45C90 20.1472 69.8528 0 45 0C20.1472 0 0 20.1472 0 45C0 69.8528 20.1472 90 45 90Z" fill="#6F73A5"/>
<path fill-rule="evenodd" clip-rule="evenodd" d="M74.3867 53.0412C74.4442 53.2802 74.2971 53.5206 74.0581 53.5781C72.8836 53.8609 71.7562 54.2516 70.719 54.7486C70.4973 54.8548 70.2315 54.7612 70.1252 54.5395C70.019 54.3178 70.1126 54.052 70.3343 53.9458C71.4335 53.4191 72.6207 53.0085 73.8497 52.7127C74.0887 52.6551 74.3291 52.8022 74.3867 53.0412Z" fill="#020135"/>
<path fill-rule="evenodd" clip-rule="evenodd" d="M21.6275 26.3152C21.6961 26.0791 21.943 25.9434 22.1791 26.0119L22.055 26.4394C22.1791 26.0119 22.1795 26.012 22.1799 26.0122L22.1813 26.0126L22.1858 26.0139L22.2014 26.0186C22.2149 26.0226 22.2342 26.0285 22.2594 26.0364C22.3097 26.0521 22.3832 26.0756 22.4786 26.1076C22.6695 26.1716 22.9482 26.2696 23.305 26.407C24.0187 26.6818 25.045 27.1146 26.3065 27.7495C28.8296 29.0193 32.294 31.0978 36.0787 34.3385C43.4795 40.6754 52.0907 51.4438 57.2891 69.2616C57.3269 69.173 57.3669 69.0804 57.4091 68.9838C57.8153 68.0543 58.427 66.7613 59.2509 65.3033C60.8957 62.3927 63.4006 58.7981 66.8261 56.1326C67.0201 55.9816 67.2998 56.0165 67.4508 56.2105C67.6017 56.4045 67.5668 56.6842 67.3728 56.8352C64.0772 59.3996 61.6416 62.8822 60.0259 65.7412C59.2197 67.168 58.6213 68.433 58.2248 69.3402C58.0267 69.7937 57.8792 70.1574 57.7816 70.4068C57.7327 70.5314 57.6964 70.6275 57.6725 70.6918C57.6605 70.724 57.6516 70.7483 57.6458 70.7642L57.6395 70.7819L57.6377 70.7867M21.9308 26.8668L21.9332 26.8675L21.9447 26.8709C21.9553 26.8741 21.9718 26.8791 21.994 26.8861C22.0386 26.9 22.1062 26.9216 22.1956 26.9516C22.3746 27.0116 22.6409 27.1052 22.9851 27.2377C23.6735 27.5028 24.6729 27.9239 25.9064 28.5447C28.3734 29.7863 31.7761 31.8263 35.4997 35.0147C42.943 41.388 51.6839 52.3622 56.7893 70.7572C56.8412 70.9444 57.0085 71.0762 57.2027 71.083C57.3968 71.0898 57.5729 70.9698 57.6377 70.7867M21.6275 26.3152C21.559 26.5512 21.6947 26.7981 21.9306 26.8667L21.6275 26.3152Z" fill="#020135"/>
<path d="M45 56.4835C51.3423 56.4835 56.4837 51.3421 56.4837 44.9998C56.4837 38.6575 51.3423 33.5161 45 33.5161C38.6578 33.5161 33.5164 38.6575 33.5164 44.9998C33.5164 51.3421 38.6578 56.4835 45 56.4835Z" fill="white"/>
<path d="M42.7522 47.4701V42.5295C42.7522 41.8618 43.4421 41.4389 44.043 41.7283L48.9837 44.1986C49.6513 44.5324 49.6513 45.4671 48.9837 45.801L44.043 48.2713C43.4421 48.5606 42.7522 48.1378 42.7522 47.4701Z" fill="#020135"/>
</svg>
