<?xml version="1.0" encoding="utf-8"?>
<!-- Generator: Adobe Illustrator 24.2.1, SVG Export Plug-In . SVG Version: 6.00 Build 0)  -->
<svg version="1.1" id="Layer_1" xmlns="http://www.w3.org/2000/svg" xmlns:xlink="http://www.w3.org/1999/xlink" x="0px" y="0px"
	 viewBox="0 0 1920 1080" style="enable-background:new 0 0 1920 1080;" xml:space="preserve">
<style type="text/css">
	.st0{fill:#01166F;}
	.st1{fill:#F4F4F4;}
	.st2{fill:#F5C64A;}
	.st3{fill:#FFD4C3;}
	.st4{fill:none;stroke:#000000;stroke-width:0.9471;stroke-miterlimit:10;}
	.st5{fill:#FFB806;}
	.st6{fill:#FFD26E;}
	.st7{fill:#0C38BF;}
	.st8{fill:#0065F1;}
	.st9{fill:#EA1543;}
	.st10{fill:#F9EFD4;}
	.st11{fill:none;stroke:#0065F1;stroke-width:0.9279;stroke-miterlimit:10;}
	.st12{fill:#FCC9C0;}
	.st13{fill:#E2987D;}
	.st14{fill:#FFFFFF;}
	.st15{fill:none;stroke:#000000;stroke-width:2.1581;stroke-miterlimit:10;}
	.st16{fill:#EDEDED;}
	.st17{clip-path:url(#SVGID_2_);fill:#FFB806;}
	.st18{clip-path:url(#SVGID_2_);}
	.st19{fill:none;stroke:#0065F1;stroke-width:2.1581;stroke-miterlimit:10;}
	.st20{fill:none;}
	.st21{fill:none;stroke:#5699F6;stroke-width:2.1581;stroke-miterlimit:10;}
	.st22{clip-path:url(#SVGID_4_);fill:#EA1543;}
	.st23{clip-path:url(#SVGID_6_);fill:#01166F;}
	.st24{fill:none;stroke:#000000;stroke-width:2.3749;stroke-miterlimit:10;}
	.st25{fill:none;stroke:#000000;stroke-width:3.2072;stroke-miterlimit:10;}
	.st26{fill:#EAEAEA;}
	.st27{fill:none;stroke:#01166F;stroke-width:2.8499;stroke-miterlimit:10;}
	.st28{fill:none;stroke:#FFD26E;stroke-width:1.4565;stroke-miterlimit:10;}
	.st29{fill:#000B30;}
	.st30{fill:#1D82FC;}
</style>
<rect class="st0" width="1227.13" height="1080"/>
<g>
	<path class="st13" d="M796.25,487.24l-2.5-4.37l-20.69-36.32l-42.81-75.09l18.33-44.44c3.85,5.12,10.02,14.12,17.22,24.82
		c12.11,18.02,27.1,40.94,38.71,58.63c10.48,15.93,18.19,27.63,18.63,27.76C824.32,438.62,796.25,487.24,796.25,487.24z"/>
	<path d="M744.09,395.71c0,0,10.78-19.03,2.93-40.53l-16.76,16.27L744.09,395.71z"/>
	<path class="st12" d="M606.06,415.44c0,0,2.88-6.64,28.03-7.16l17.54,74.83l-55.06,59.51l-37.29-6.65L606.06,415.44z"/>
	<path class="st12" d="M484.34,382.76c0,0-18.21,27.73-31.89,50.24c-6.77,11.12-12.41,20.97-14.2,25.59l-42.15-27.76
		c0,0,45.43-46.53,58.96-83.45l9.44,11.42L484.34,382.76z"/>
	<path d="M484.34,382.76c0,0-5.49,7.08-19.17,29.59c-4.93-4.06-15.06-21.52-4.41-48.57c0.92-2.34,2.5-3.82,3.74-4.98L484.34,382.76z
		"/>
	<path class="st9" d="M455.92,468.23c0,0,40.64,154.51,45.69,192.99l56.78-139.44l131.23,34.7l-68.77,229.37
		c0,0-11.53,44.46-37.94,53.29c-26.41,8.83-99.13-0.63-132.8-71.3S455.92,468.23,455.92,468.23z"/>
	<polygon points="458.7,561.57 501.15,766 465.72,758.57 	"/>
	<path class="st12" d="M453.22,346.62c0,0,1.81,38.05,32.98,45.66c31.16,7.61,50.37-35.15,51.82-77.91
		c1.45-42.76-74.07-51.36-79.36-8.7s-5.29,42.66-5.29,42.66"/>
	<path class="st5" d="M440.93,312.62c0,0-8,25.08-21.26,46.84c0,0-3.36,4.26-4.26,5.46c-0.9,1.2-1.6,6.31,5.71,4.31
		c7.31-2,10.52-8.01,10.52-8.01s-1.8,8.63,2,8.47c3.81-0.16,8.51-8.67,8.51-8.67s-0.3,8.84,6.31,8.68s16.43-13.79,17.03-35.72
		c0.6-21.94,74.83-34.96,74.83-34.96s0.61-11.56,19.55-25.74c0,0,2.62-0.71,2.86-5.84c0.24-5.12,3.45-14.65-3.81-11.56
		c-7.27,3.1-7.5,5.96-14.41,5.36c-6.91-0.6-5-4.77-12.03-3.69c-7.03,1.07-5-7.74-15.49-9.41c-10.48-1.67-19.84-6.19-21.36-12.75
		s-6.88,5.48-8.31,7.74c-1.43,2.26-10.13,7.74-13.58,7.39c-3.45-0.36-14.18-11.79-15.96-10.6c-1.79,1.19-5.12,10.24-6.55,10.36
		s-12.27-3.69-12.87-1.55s0.24,8.34-2.74,10.84s-4.88,7.5,0.12,13.58C440.75,279.23,445.28,295.38,440.93,312.62z"/>
	<path class="st9" d="M420.58,423.31c0,0,37.62,2.59,36.97,68.11s8.78,257.52,8.61,289.31c-0.18,31.78,0,70.71,0,70.71H169.55
		c0,0-42.81-3.24-40.22-70.71c2.59-67.46,177.74-291.39,210.17-322.13S386.54,417.17,420.58,423.31z"/>
	<path d="M228.47,598.46c0,0,113.34,61.89,125.15,75.06l-4.55,7.3c0,0-70.36-23.41-121.28-81.39L228.47,598.46z"/>
	<path class="st14" d="M283.99,524.21c0,0,71.08,36.77,109.32,59.42c0,0-18.19,48.68-39.7,89.89
		c-5.38,1.83-86.73-34.55-125.15-75.06C228.47,598.46,266.34,542.83,283.99,524.21z"/>
	<path class="st15" d="M409.34,539.58c0,0-37.41,109.77-71.01,158.03"/>
	<path class="st12" d="M596.38,819.47c0,0-0.72,17.22-14.28,18.32c0,0-4.02,5.83-11.34,6.22c-7.32,0.36-34.78-16.12-34.78-16.12
		s-15.38,25.26-44.68,23.44c-14.45-0.91-26.03-5.64-34.06-10.18c-8.34-4.7-12.88-9.24-12.88-9.24l1.79-91.52c0,0,4.1-0.5,11.09-0.77
		c21.46-0.85,70.16,0.55,111.33,25.67C568.57,765.3,598.97,786.15,596.38,819.47z"/>
	<path d="M457.24,841.15c-8.34-4.7-12.88-9.24-12.88-9.24l1.79-91.52c0,0,4.1-0.5,11.09-0.77
		C457.18,741.5,455.45,819.2,457.24,841.15z"/>
	<path class="st15" d="M553.19,795.44c0,0,35.5,9.78,28.92,42.36"/>
	<path d="M796.97,454.61c-5.15,8.2-2.56,8.89-3.03,25.29c-0.03,0.99-0.11,2.01-0.19,2.97l-20.69-36.32
		c0.36-3.38,1.24-7.24,2.67-11.97c3.83-12.66,0-12.66-1.27-21.13c-1.27-8.45,8.89-21.49,8.89-21.49s-0.85-6.33-11.61-19.84
		c-4.29-5.39-5.75-13.01-5.94-20.28c12.11,18.02,27.1,40.94,38.71,58.63c-2.94,5.28-2.39,9.03-2.39,9.03
		C808.44,436.81,802.11,446.41,796.97,454.61z"/>
	<path class="st13" d="M693.65,294.95c0,0-23.21,65.42,6.33,84.41c29.55,18.99,49.8-17.13,54.45-31.99c0,0,9.71-35.12,6.33-48.2
		C757.38,286.09,718.13,251.9,693.65,294.95z"/>
	<path class="st16" d="M755.92,603.12c0,0,24.6-147.54,53.98-170.11c29.38-22.57,61.5-6.3,118.21,54.23s144.86,213.47,198.15,364.19
		H862.51l-19.82-39.34c0,0-25.96,23.67-60.13,24.54c-34.16,0.86-68.33-21.69-105.91-79.77c-37.58-58.08-99.08-188.59-99.08-188.59
		s92.93-45.78,125.72-54.66C703.31,513.61,750.45,594.23,755.92,603.12z"/>
	<g>
		<defs>
			<path id="SVGID_1_" d="M768.48,501.43c0.48,0.03,187.75,49.64,186.35,48.83c0,0-29.5,76.25-55.98,147.57
				c0,0-89.39-7.08-115.44-44.45c-8.84-12.68-28.5-50.42-27.49-50.26C755.92,603.12,765.18,515.67,768.48,501.43z"/>
		</defs>
		<clipPath id="SVGID_2_">
			<use xlink:href="#SVGID_1_"  style="overflow:visible;"/>
		</clipPath>
		<path class="st17" d="M770.5,533.22c0,0,109.5,50.43,163.07,52.68c0,0-24.07,82.65-50.55,153.98c0,0-159.88-6.65-178.36-44.06
			c-18.48-37.42,51.27-92.7,51.27-92.7S765.75,547.84,770.5,533.22z"/>
		<g class="st18">
			<path class="st0" d="M798.62,623.17l1.36-0.52l13.03-4.82l13.71-5.08c4.45-1.69,7.25-2.95,8.39-3.79
				c1.24-0.88,1.78-2.02,1.63-3.43c-0.15-1.4-0.9-2.36-2.25-2.87c-1.84-0.75-3.27-1-4.3-0.77c-0.67,0.1-1.23,0.49-1.68,1.14
				c-0.24,0.24-0.52,0.63-0.85,1.17c-0.38,0.68-0.7,1.18-0.95,1.49c-0.97,1.29-2.16,2.02-3.58,2.21c-0.6,0.13-1.36,0.01-2.28-0.37
				c-0.58-0.19-1.27-0.52-2.07-1.02c-0.41-0.21-0.99-0.53-1.73-0.97c-0.74-0.43-1.18-0.68-1.33-0.72c-0.27-0.16-1.02-0.56-2.25-1.2
				c-1.23-0.63-2.06-1.04-2.49-1.21c-0.42-0.17-1.15-0.53-2.18-1.05c-1.03-0.53-1.85-0.91-2.45-1.14c-0.6-0.23-1.35-0.51-2.25-0.84
				c-0.9-0.32-1.73-0.57-2.52-0.74c-0.78-0.17-1.53-0.29-2.22-0.35c-0.53-0.09-0.94-0.32-1.22-0.69c-0.28-0.37-0.38-0.8-0.3-1.29
				c0.08-0.49,0.3-0.88,0.67-1.16c0.37-0.28,0.78-0.39,1.24-0.32l0.33,0.1c1.71-5.12,4.5-9.16,8.36-12.12
				c3.86-2.96,8.37-4.93,13.55-5.91c4.82-0.85,9.81-0.86,14.97-0.01c5.21,0.94,9.88,2.55,14.02,4.83c2.18,1.17,3.63,2,4.36,2.47
				c0.82,0.18,1.51,0.64,2.07,1.38c2.94,2.05,5.04,4.44,6.33,7.17c3.66,7.79,4.24,15.08,1.76,21.87
				c-2.49,6.79-7.51,12.17-15.08,16.13l-2.65,1.19c-1.14,0.83-2.42,1.58-3.83,2.25c-0.86,0.44-1.75,0.48-2.67,0.11l-6.43,2.14
				c0.51,0.16,1.63,0.46,3.37,0.9c1.74,0.43,3.12,0.78,4.16,1.03c3.59,0.99,6.41,1.81,8.43,2.45c1.35,0.51,2.45,0.94,3.3,1.29
				c1.04,0.49,1.78,0.97,2.24,1.43c0.45,0.46,0.67,1.09,0.66,1.88c0.01,0.48-0.02,1.07-0.09,1.77c-0.18,1.06-0.52,2.39-1.03,3.98
				c-0.35,1.09-0.79,2.46-1.32,4.13l-0.87,2.35c-0.07,0.22-0.52,1.75-1.35,4.6l-0.9,2.82l-0.31,0.98l-0.07,0.22l-0.03,0.11
				l-0.03,0.11l-0.04,0.11l-0.04,0.11c-0.17,0.27-0.4,0.49-0.69,0.68c-0.3,0.18-0.59,0.23-0.88,0.14l-0.14,0.07l-0.22-0.07
				l-0.11-0.04l-0.11-0.03l-0.43-0.14l-0.54-0.17l-0.87-0.28l-5-1.59l-15.64-4.99l-11.08-3.54l-10.1-3.22l-4.89-1.56
				c-0.15-0.05-1.13-0.32-2.97-0.83c-1.83-0.51-3.32-0.98-4.45-1.42c-1.81-0.58-3.22-1.15-4.24-1.71c-0.66-0.45-1.17-0.85-1.53-1.21
				c-0.66-0.69-0.94-1.42-0.86-2.19c0.01-1.27,0.45-2.93,1.34-4.96c0.16-0.27,0.38-0.68,0.63-1.23c0.26-0.56,0.4-0.87,0.42-0.94
				c0.4-0.75,0.67-1.34,0.81-1.78c0.18-0.58,0.44-1.44,0.76-2.57c0.32-1.13,0.51-1.77,0.55-1.92c0.6-2.12,1.31-3.73,2.14-4.82
				c0.21-0.41,0.6-0.77,1.18-1.06l0.29-0.15l0.03-0.11c0.35-0.85,0.94-1.45,1.78-1.83C796.94,622.83,797.78,622.82,798.62,623.17z
				 M851.63,586.1l0.04-0.11l-0.43-0.14L851.63,586.1z"/>
		</g>
		<g class="st18">
			<g>
				<path class="st9" d="M854.78,670.38l24.88-77.96l9.81,3.13c0.97,0.31,1.9,0.79,2.8,1.45c0.9,0.65,1.62,1.46,2.18,2.42
					c0.55,0.96,0.88,2.11,0.99,3.45c0.1,1.34-0.13,2.91-0.7,4.69l-18.9,59.23c-0.57,1.78-1.29,3.2-2.15,4.23
					c-0.86,1.04-1.8,1.78-2.8,2.24c-1.01,0.46-2.07,0.69-3.18,0.71c-1.11,0.01-2.15-0.13-3.12-0.44L854.78,670.38z M882.61,597.05
					l-22.75,71.27l5.46,1.74c1.12,0.36,2.3,0.22,3.57-0.4c1.26-0.62,2.3-2.19,3.11-4.72l18.55-58.11c0.81-2.53,0.87-4.41,0.21-5.65
					c-0.67-1.24-1.56-2.04-2.68-2.39L882.61,597.05z"/>
			</g>
		</g>
	</g>
	<path class="st15" d="M932.26,589.32c0,0-45.15,171.4-89.57,222.77"/>
	<path class="st19" d="M590.1,592.3c0,0,99.06-48.65,123.97-61.05"/>
	<g>
		<g>
			<g>
				<g>
					<g>
						<path class="st20" d="M604.66,592.17c0.15-0.08,0.3-0.16,0.44-0.25c0.06-0.02,0.13-0.04,0.19-0.07c0.4-0.15,0.8-0.32,1.2-0.48
							c0.23,1.02,0.38,2.1,0.39,3.16C606,593.89,605.29,593.05,604.66,592.17z"/>
						<path class="st20" d="M602.38,593.37c1.13,1.28,2.66,2.4,4.34,3.2c-0.26,1.4-0.85,2.69-1.92,3.72c-2.2,2.09-6,1.9-8.86,0.79
							c0.06-0.35,0.12-0.7,0.17-1.05c0.18-1.29-0.07-2.51-0.14-3.77c0.04-0.01,0.08-0.02,0.11-0.03c1.86-0.52,3.51-1.43,5.22-2.31
							C601.66,593.74,602.02,593.55,602.38,593.37z"/>
						<path class="st20" d="M618.49,589.22c-0.22,1.46-0.71,2.87-1.63,4.13c-1.68,2.31-4.64,3.08-7.3,2.43
							c0.1-0.72,0.13-1.48,0.09-2.26c-0.06-1.1-0.26-2.19-0.49-3.26c0.84-0.37,1.67-0.74,2.49-1.13c1.31-0.63,2.62-1.35,3.84-2.18
							C616.42,587.81,617.42,588.57,618.49,589.22z"/>
						<path class="st8" d="M617.55,585.34c-0.21,0.18-0.42,0.36-0.63,0.54c0.51,0.57,1.06,1.09,1.67,1.55l1.74,3.5
							c-1.05,3.26-3.08,6.04-6.74,6.78c-1.39,0.28-2.91,0.17-4.4-0.23c-1.05,3.36-3.8,5.67-7.82,6.06c-2.05,0.2-3.99-0.16-5.79-0.89
							c-0.06,0.23-0.13,0.46-0.2,0.69l-1.74-3.51c0.02,0.01,0.03,0.02,0.04,0.03c0.01-0.95-0.06-1.91-0.19-2.86
							c-0.3,0.23-0.6,0.48-0.89,0.74l-1-2c0.92-0.45,1.83-0.84,2.59-1.07c1.98-1.38,4.27-2.36,6.44-3.41
							c0.22-0.11,0.44-0.21,0.66-0.32c0.19-0.1,0.38-0.2,0.59-0.3c1.49-0.75,2.88-1.34,4.47-1.73c1.84-0.45,3.43-1.57,5-2.58
							c1.17-0.76,3.24-2.02,5.2-2.98L617.55,585.34z M605.29,591.85c-0.06,0.02-0.13,0.05-0.19,0.07c-0.15,0.08-0.3,0.16-0.44,0.25
							c0.64,0.89,1.34,1.72,2.22,2.37c-0.01-1.07-0.16-2.14-0.39-3.16C606.09,591.54,605.69,591.7,605.29,591.85z M596.08,596.23
							c-0.04,0.01-0.08,0.02-0.11,0.03c0.07,1.26,0.32,2.48,0.14,3.77c-0.05,0.35-0.1,0.7-0.17,1.05c2.86,1.11,6.66,1.29,8.86-0.79
							c1.08-1.03,1.66-2.32,1.92-3.72c-1.68-0.81-3.2-1.93-4.34-3.2c-0.36,0.19-0.72,0.37-1.08,0.56
							C599.59,594.8,597.94,595.71,596.08,596.23z M611.65,589.13c-0.82,0.39-1.65,0.77-2.49,1.13c0.24,1.08,0.44,2.16,0.49,3.26
							c0.04,0.79,0.01,1.54-0.09,2.26c2.67,0.65,5.63-0.13,7.3-2.43c0.91-1.26,1.41-2.67,1.63-4.13c-1.07-0.64-2.07-1.41-3-2.27
							C614.27,587.77,612.95,588.5,611.65,589.13z"/>
						
							<rect x="587.73" y="566.8" transform="matrix(0.8955 -0.4451 0.4451 0.8955 -197.3796 328.8759)" class="st20" width="27.82" height="35.9"/>
					</g>
				</g>
				<g>
					<g>
						<path class="st20" d="M629.63,579.75c0.15-0.08,0.3-0.16,0.44-0.25c0.06-0.02,0.13-0.04,0.19-0.07c0.4-0.15,0.8-0.32,1.2-0.48
							c0.23,1.02,0.38,2.1,0.39,3.16C630.98,581.47,630.27,580.64,629.63,579.75z"/>
						<path class="st20" d="M627.36,580.95c1.13,1.28,2.66,2.4,4.34,3.21c-0.26,1.4-0.85,2.69-1.92,3.72c-2.19,2.09-6,1.9-8.86,0.79
							c0.06-0.35,0.12-0.7,0.17-1.05c0.18-1.29-0.07-2.51-0.14-3.77c0.04-0.01,0.08-0.02,0.11-0.03c1.86-0.52,3.51-1.43,5.22-2.31
							C626.64,581.32,626.99,581.14,627.36,580.95z"/>
						<path class="st20" d="M643.47,576.8c-0.22,1.46-0.71,2.87-1.63,4.13c-1.68,2.31-4.64,3.08-7.3,2.43
							c0.1-0.72,0.13-1.48,0.09-2.26c-0.06-1.1-0.26-2.19-0.49-3.26c0.84-0.37,1.67-0.74,2.49-1.13c1.31-0.63,2.62-1.35,3.84-2.18
							C641.4,575.39,642.4,576.16,643.47,576.8z"/>
						<path class="st8" d="M642.53,572.93c-0.21,0.18-0.42,0.36-0.63,0.54c0.51,0.57,1.06,1.09,1.67,1.55l1.74,3.5
							c-1.05,3.26-3.08,6.04-6.74,6.77c-1.39,0.28-2.91,0.17-4.4-0.23c-1.05,3.36-3.8,5.67-7.82,6.06c-2.05,0.2-3.99-0.16-5.79-0.89
							c-0.06,0.23-0.13,0.46-0.2,0.69l-1.74-3.51c0.02,0.01,0.03,0.02,0.04,0.03c0.01-0.95-0.06-1.91-0.19-2.86
							c-0.3,0.23-0.6,0.48-0.89,0.74l-1-2c0.92-0.45,1.83-0.84,2.59-1.07c1.98-1.38,4.27-2.36,6.44-3.41
							c0.22-0.11,0.44-0.21,0.66-0.32c0.19-0.1,0.38-0.2,0.59-0.3c1.49-0.75,2.88-1.34,4.47-1.73c1.84-0.45,3.43-1.57,5-2.58
							c1.17-0.76,3.24-2.02,5.2-2.98L642.53,572.93z M630.27,579.44c-0.06,0.02-0.13,0.05-0.19,0.07c-0.15,0.08-0.3,0.16-0.44,0.25
							c0.64,0.89,1.34,1.72,2.23,2.37c-0.01-1.07-0.16-2.14-0.39-3.16C631.07,579.12,630.67,579.28,630.27,579.44z M621.06,583.82
							c-0.04,0.01-0.08,0.02-0.11,0.03c0.07,1.26,0.32,2.48,0.14,3.77c-0.05,0.35-0.1,0.7-0.17,1.05c2.86,1.11,6.66,1.29,8.86-0.79
							c1.08-1.03,1.66-2.32,1.92-3.72c-1.68-0.81-3.2-1.93-4.34-3.21c-0.36,0.19-0.72,0.37-1.08,0.56
							C624.56,582.39,622.92,583.3,621.06,583.82z M636.63,576.71c-0.82,0.39-1.65,0.77-2.49,1.13c0.24,1.08,0.44,2.16,0.49,3.26
							c0.04,0.79,0.01,1.54-0.09,2.26c2.67,0.65,5.63-0.13,7.3-2.43c0.91-1.26,1.41-2.67,1.63-4.13c-1.07-0.64-2.07-1.41-3-2.27
							C639.25,575.36,637.93,576.08,636.63,576.71z"/>
						
							<rect x="612.71" y="554.39" transform="matrix(0.8955 -0.4451 0.4451 0.8955 -189.2446 338.695)" class="st20" width="27.82" height="35.9"/>
					</g>
				</g>
				<g>
					<g>
						<path class="st20" d="M654.61,567.34c0.15-0.08,0.3-0.16,0.44-0.25c0.06-0.02,0.13-0.04,0.19-0.07c0.4-0.15,0.8-0.32,1.2-0.48
							c0.23,1.02,0.38,2.1,0.39,3.16C655.96,569.06,655.25,568.23,654.61,567.34z"/>
						<path class="st20" d="M652.33,568.54c1.13,1.28,2.66,2.4,4.34,3.21c-0.26,1.4-0.85,2.69-1.92,3.72c-2.19,2.09-6,1.9-8.86,0.79
							c0.06-0.35,0.12-0.7,0.17-1.05c0.18-1.29-0.07-2.51-0.14-3.77c0.04-0.01,0.08-0.02,0.11-0.03c1.86-0.52,3.51-1.43,5.22-2.31
							C651.61,568.91,651.97,568.73,652.33,568.54z"/>
						<path class="st20" d="M668.44,564.39c-0.22,1.46-0.71,2.87-1.63,4.13c-1.68,2.31-4.64,3.09-7.3,2.43
							c0.1-0.72,0.13-1.48,0.09-2.26c-0.06-1.1-0.26-2.19-0.49-3.26c0.84-0.37,1.67-0.74,2.49-1.13c1.31-0.63,2.62-1.35,3.84-2.18
							C666.37,562.98,667.38,563.75,668.44,564.39z"/>
						<path class="st8" d="M667.5,560.51c-0.21,0.18-0.42,0.36-0.63,0.54c0.51,0.57,1.06,1.09,1.67,1.55l1.74,3.5
							c-1.05,3.26-3.08,6.04-6.74,6.78c-1.39,0.28-2.91,0.17-4.4-0.23c-1.05,3.36-3.8,5.67-7.82,6.06c-2.05,0.2-3.99-0.16-5.79-0.89
							c-0.06,0.23-0.13,0.46-0.2,0.69l-1.74-3.51c0.01,0.01,0.03,0.02,0.04,0.03c0.01-0.95-0.06-1.91-0.19-2.86
							c-0.3,0.23-0.6,0.48-0.89,0.74l-1-2c0.92-0.45,1.83-0.84,2.59-1.07c1.98-1.38,4.27-2.36,6.44-3.41
							c0.22-0.11,0.44-0.21,0.66-0.32c0.19-0.1,0.38-0.2,0.59-0.3c1.49-0.75,2.88-1.34,4.47-1.73c1.84-0.45,3.43-1.57,5-2.58
							c1.17-0.76,3.24-2.02,5.2-2.98L667.5,560.51z M655.25,567.02c-0.06,0.02-0.13,0.05-0.19,0.07c-0.15,0.08-0.3,0.16-0.44,0.25
							c0.64,0.89,1.34,1.72,2.23,2.37c-0.01-1.07-0.16-2.14-0.39-3.16C656.05,566.71,655.65,566.87,655.25,567.02z M646.03,571.4
							c-0.04,0.01-0.08,0.02-0.11,0.03c0.07,1.26,0.32,2.48,0.14,3.77c-0.05,0.35-0.1,0.7-0.17,1.05c2.86,1.11,6.66,1.29,8.86-0.79
							c1.08-1.03,1.66-2.32,1.92-3.72c-1.68-0.81-3.2-1.93-4.34-3.21c-0.36,0.19-0.72,0.37-1.08,0.56
							C649.54,569.98,647.9,570.88,646.03,571.4z M661.6,564.3c-0.82,0.39-1.65,0.77-2.49,1.13c0.24,1.08,0.44,2.16,0.49,3.26
							c0.04,0.79,0.01,1.54-0.09,2.26c2.67,0.65,5.63-0.13,7.3-2.43c0.91-1.26,1.41-2.67,1.63-4.13c-1.07-0.64-2.07-1.41-3-2.27
							C664.23,562.94,662.91,563.67,661.6,564.3z"/>
						
							<rect x="637.69" y="541.98" transform="matrix(0.8955 -0.4451 0.4451 0.8955 -181.1097 348.5142)" class="st20" width="27.82" height="35.9"/>
					</g>
				</g>
				<g>
					<g>
						<path class="st20" d="M679.59,554.93c0.15-0.08,0.3-0.16,0.44-0.25c0.06-0.02,0.13-0.04,0.19-0.07c0.4-0.15,0.8-0.32,1.2-0.48
							c0.23,1.02,0.38,2.1,0.39,3.16C680.93,556.64,680.23,555.81,679.59,554.93z"/>
						<path class="st20" d="M677.31,556.13c1.13,1.28,2.66,2.4,4.34,3.2c-0.26,1.4-0.85,2.69-1.92,3.72c-2.19,2.09-6,1.9-8.86,0.79
							c0.06-0.35,0.12-0.7,0.17-1.05c0.18-1.29-0.07-2.51-0.14-3.77c0.04-0.01,0.08-0.02,0.11-0.03c1.86-0.52,3.51-1.43,5.22-2.31
							C676.59,556.5,676.95,556.31,677.31,556.13z"/>
						<path class="st20" d="M693.42,551.98c-0.22,1.46-0.71,2.87-1.63,4.13c-1.68,2.31-4.64,3.08-7.3,2.43
							c0.1-0.72,0.13-1.48,0.09-2.26c-0.06-1.1-0.26-2.19-0.49-3.26c0.84-0.37,1.67-0.74,2.49-1.13c1.31-0.63,2.62-1.35,3.84-2.18
							C691.35,550.56,692.36,551.33,693.42,551.98z"/>
						<path class="st8" d="M692.48,548.1c-0.21,0.18-0.42,0.36-0.63,0.54c0.51,0.57,1.06,1.09,1.67,1.55l1.74,3.5
							c-1.05,3.26-3.08,6.04-6.74,6.78c-1.39,0.28-2.91,0.17-4.4-0.23c-1.05,3.36-3.8,5.67-7.82,6.06c-2.05,0.2-3.99-0.16-5.79-0.89
							c-0.06,0.23-0.13,0.46-0.2,0.69l-1.74-3.51c0.01,0.01,0.03,0.02,0.04,0.03c0.01-0.95-0.06-1.91-0.19-2.86
							c-0.31,0.23-0.6,0.48-0.89,0.74l-1-2c0.92-0.45,1.83-0.84,2.59-1.07c1.98-1.38,4.27-2.36,6.44-3.41
							c0.22-0.11,0.44-0.21,0.66-0.32c0.19-0.1,0.38-0.2,0.59-0.3c1.49-0.75,2.88-1.34,4.47-1.73c1.84-0.45,3.43-1.57,5-2.58
							c1.17-0.76,3.24-2.02,5.2-2.98L692.48,548.1z M680.22,554.61c-0.06,0.02-0.13,0.05-0.19,0.07c-0.15,0.08-0.3,0.16-0.44,0.25
							c0.64,0.89,1.34,1.72,2.23,2.37c-0.01-1.07-0.16-2.14-0.39-3.16C681.02,554.29,680.62,554.46,680.22,554.61z M671.01,558.99
							c-0.04,0.01-0.08,0.02-0.11,0.03c0.07,1.26,0.32,2.48,0.14,3.77c-0.05,0.35-0.1,0.7-0.17,1.05c2.86,1.11,6.66,1.29,8.86-0.79
							c1.08-1.03,1.66-2.32,1.92-3.72c-1.68-0.81-3.2-1.93-4.34-3.2c-0.36,0.19-0.72,0.37-1.08,0.56
							C674.52,557.56,672.88,558.47,671.01,558.99z M686.58,551.88c-0.82,0.39-1.65,0.77-2.49,1.13c0.24,1.08,0.44,2.16,0.49,3.26
							c0.04,0.79,0.01,1.54-0.09,2.26c2.67,0.65,5.63-0.13,7.3-2.43c0.91-1.26,1.41-2.67,1.63-4.13c-1.07-0.64-2.07-1.41-3-2.27
							C689.2,550.53,687.89,551.26,686.58,551.88z"/>
						
							<rect x="662.67" y="529.56" transform="matrix(0.8955 -0.4451 0.4451 0.8955 -172.9748 358.3334)" class="st20" width="27.82" height="35.9"/>
					</g>
				</g>
				<g>
					<g>
						<path class="st20" d="M704.57,542.51c0.15-0.08,0.3-0.16,0.44-0.25c0.06-0.02,0.13-0.04,0.19-0.07c0.4-0.15,0.8-0.32,1.2-0.48
							c0.23,1.02,0.38,2.1,0.39,3.16C705.91,544.23,705.2,543.4,704.57,542.51z"/>
						<path class="st20" d="M702.29,543.71c1.13,1.28,2.66,2.4,4.34,3.21c-0.26,1.4-0.85,2.69-1.92,3.72c-2.19,2.09-6,1.9-8.86,0.79
							c0.06-0.35,0.12-0.7,0.17-1.05c0.18-1.29-0.07-2.51-0.14-3.77c0.04-0.01,0.08-0.02,0.11-0.03c1.86-0.52,3.51-1.43,5.22-2.31
							C701.57,544.08,701.93,543.9,702.29,543.71z"/>
						<path class="st20" d="M718.4,539.56c-0.22,1.46-0.71,2.87-1.63,4.13c-1.68,2.31-4.64,3.08-7.3,2.43
							c0.1-0.72,0.13-1.48,0.09-2.26c-0.06-1.1-0.26-2.19-0.49-3.26c0.84-0.37,1.67-0.74,2.49-1.13c1.31-0.63,2.62-1.35,3.84-2.18
							C716.33,538.15,717.33,538.92,718.4,539.56z"/>
						<path class="st8" d="M717.46,535.69c-0.21,0.18-0.42,0.36-0.63,0.54c0.51,0.57,1.06,1.09,1.67,1.55l1.74,3.5
							c-1.05,3.26-3.08,6.04-6.74,6.77c-1.39,0.28-2.91,0.17-4.4-0.23c-1.05,3.36-3.8,5.67-7.82,6.06c-2.05,0.2-3.99-0.16-5.79-0.89
							c-0.06,0.23-0.13,0.46-0.2,0.69l-1.74-3.51c0.01,0.01,0.03,0.02,0.04,0.03c0.01-0.95-0.06-1.91-0.19-2.86
							c-0.3,0.23-0.6,0.48-0.89,0.74l-1-2c0.92-0.45,1.83-0.84,2.59-1.07c1.98-1.38,4.27-2.36,6.44-3.41
							c0.22-0.11,0.44-0.21,0.66-0.32c0.19-0.1,0.38-0.2,0.59-0.3c1.49-0.75,2.88-1.34,4.47-1.73c1.84-0.45,3.43-1.57,5-2.58
							c1.17-0.76,3.24-2.02,5.2-2.98L717.46,535.69z M705.2,542.2c-0.06,0.02-0.13,0.05-0.19,0.07c-0.15,0.08-0.3,0.16-0.44,0.25
							c0.64,0.89,1.34,1.72,2.23,2.37c-0.01-1.07-0.16-2.14-0.39-3.16C706,541.88,705.6,542.04,705.2,542.2z M695.99,546.58
							c-0.04,0.01-0.08,0.02-0.11,0.03c0.07,1.26,0.32,2.48,0.14,3.77c-0.05,0.35-0.1,0.7-0.17,1.05c2.86,1.11,6.66,1.29,8.86-0.79
							c1.08-1.03,1.66-2.32,1.92-3.72c-1.68-0.81-3.2-1.93-4.34-3.21c-0.36,0.19-0.72,0.37-1.08,0.56
							C699.5,545.15,697.85,546.06,695.99,546.58z M711.56,539.47c-0.82,0.39-1.65,0.77-2.49,1.13c0.24,1.08,0.44,2.16,0.49,3.26
							c0.04,0.79,0.01,1.54-0.09,2.26c2.67,0.65,5.63-0.13,7.3-2.43c0.91-1.26,1.41-2.67,1.63-4.13c-1.07-0.64-2.07-1.41-3-2.27
							C714.18,538.12,712.86,538.84,711.56,539.47z"/>
						
							<rect x="687.64" y="517.15" transform="matrix(0.8955 -0.4451 0.4451 0.8955 -164.8399 368.1526)" class="st20" width="27.82" height="35.9"/>
					</g>
				</g>
			</g>
		</g>
	</g>
	<path class="st13" d="M591.39,561.57c0,0-43.14-52.27-15.35-92.14c1.16-1.67-3.87-50.43,22.45-57.4c0,0,10.45-4.26,10.06,18.19
		s-10.84,48.38,18.19,49.15c29.03,0.77-5.81-59.34,7.35-71.08c13.16-11.74,35.61,7.38,38.7,24.72c3.1,17.34,25.45,82.11,25.45,82.11
		L591.39,561.57z"/>
	<polygon points="585.51,553.42 692.04,496.79 698.25,515.11 591.39,561.57 	"/>
	<g>
		<g>
			<g>
				<path class="st8" d="M311.32,625.49c-1.19,0.79-2.48,1.55-3.87,2.29c-0.57,0.29-1.17,0.52-1.79,0.7
					c-0.62,0.18-1.29,0.31-2.01,0.39c-0.72,0.08-1.32,0.12-1.79,0.11c-0.47-0.01-1.1-0.01-1.89-0.01l-1.6,0.1
					c-7.05,0.02-13.75-2.01-20.09-6.11c-6.35-4.1-11.08-9.26-14.21-15.49c-0.05-0.19-0.39-0.87-1.02-2.04
					c-0.64-1.17-1.21-2.27-1.7-3.28l-1.35-3.07c-1.62-4.53-1.42-7.89,0.61-10.07c0.23-0.25,0.52-0.4,0.85-0.43
					c0.13-0.08,0.27-0.12,0.42-0.1c0.24-0.01,0.53-0.03,0.87-0.07l2.26,0.18c1.78,0.2,3.92,0.51,6.44,0.92
					c2.52,0.41,4.76,0.81,6.74,1.21c2.24,0.48,3.64,0.85,4.2,1.1c0.61,0.29,1.15,0.85,1.6,1.67c0.32,0.51,0.65,1.22,0.97,2.13
					c0.02,0.09,0.28,0.76,0.76,2c0.48,1.24,0.88,2.19,1.19,2.85c0.81,1.67,1.6,2.78,2.38,3.33c0.83,0.58,1.88,0.62,3.14,0.11
					c0.07-0.12,0.25-0.36,0.56-0.73c0.37-0.49,0.61-0.89,0.73-1.22c0.51-1.12,0.5-2.15-0.03-3.1c-0.51-0.86-1.48-1.8-2.92-2.83
					c-0.35-0.21-1.03-0.66-2.04-1.34c-0.84-0.58-1.5-1.06-1.98-1.43c-1.69-1.26-2.49-2.56-2.38-3.92c0.04-0.85,0.58-2.02,1.64-3.52
					c0.17-0.29,0.52-0.79,1.03-1.51c0.41-0.54,0.66-0.9,0.77-1.08c0.1-0.17,0.32-0.6,0.65-1.27c0.46-0.91,0.75-1.52,0.87-1.84
					c0.4-0.79,0.78-1.43,1.15-1.91c0.54-0.78,1.06-1.3,1.54-1.57c0.63-0.25,1.38-0.32,2.25-0.19c0.53,0.16,1.18,0.4,1.95,0.7
					c0.5,0.22,1.24,0.57,2.22,1.04c0.98,0.47,1.72,0.82,2.22,1.04c1.73,0.8,3.11,1.26,4.15,1.37c1.04,0.11,1.78-0.13,2.22-0.74
					c0.54-0.63,0.54-1.42,0-2.37c-0.59-0.99-1.47-1.76-2.64-2.3c-1.96-0.94-3.59-1.13-4.88-0.56c-0.22,0.1-0.46,0.24-0.71,0.4
					l-0.96,0.61c-0.92,0.48-1.78,0.67-2.6,0.57c-0.6-0.05-1.29-0.34-2.07-0.89c-0.55-0.41-1.2-0.96-1.97-1.66
					c-1.02-0.93-2.58-2.54-4.68-4.83c-4.85-5.21-7.48-7.98-7.91-8.32c-0.31-0.27-0.5-0.62-0.56-1.05c-0.06-0.43,0.05-0.8,0.32-1.11
					c0.27-0.31,0.62-0.5,1.05-0.56c0.43-0.06,0.8,0.05,1.11,0.32c0.25,0.23,0.57,0.5,0.94,0.8c4.53-3.59,10.12-5.55,16.75-5.86
					c6.63-0.32,12.97,0.8,19.04,3.34c4.02,1.71,7.51,3.89,10.47,6.54c2.95,2.65,5.17,5.88,6.67,9.7c1.53,3.76,1.88,7.77,1.06,12.02
					c-0.89,4.76-3.33,8.43-7.33,11c-3.98,2.67-8.37,4.05-13.17,4.16l0.87,1.71c1.54,2.82,2.53,5.32,2.97,7.48
					c0.76,3.46,0.42,6.65-1.02,9.58c-1.15,2.31-3.02,4.43-5.6,6.35l-0.38,0.24C311.62,625.24,311.48,625.35,311.32,625.49z"/>
			</g>
			<g>
				<g>
					<path class="st5" d="M316.66,646.42l40.3-66.95l8.43,5.07c0.83,0.5,1.59,1.15,2.28,1.96c0.69,0.81,1.19,1.72,1.49,2.72
						c0.31,1.01,0.36,2.15,0.16,3.42c-0.2,1.27-0.76,2.67-1.68,4.21l-30.62,50.86c-0.92,1.53-1.9,2.69-2.93,3.46
						c-1.03,0.77-2.06,1.26-3.1,1.46c-1.04,0.2-2.07,0.19-3.11-0.04c-1.04-0.23-1.97-0.6-2.8-1.1L316.66,646.42z M358.68,584.41
						l-36.84,61.21l4.69,2.83c0.96,0.58,2.09,0.72,3.4,0.42c1.31-0.3,2.62-1.53,3.93-3.7l30.04-49.9c1.31-2.17,1.78-3.91,1.44-5.2
						c-0.35-1.3-1-2.24-1.96-2.81L358.68,584.41z"/>
				</g>
			</g>
		</g>
	</g>
	<path d="M537.12,326.62l-0.18,1.55c0,0-30.31-4.07-57.99-5.37l-28.83,5.37l-13.88-2.69l3.99-8.43l28.07-13.84l40.38,1.41
		L537.12,326.62z"/>
	<polyline class="st15" points="297.69,695.75 446.81,702.56 443.89,851.43 	"/>
	<polygon points="456.07,337.52 463.85,347.38 467.18,343.54 	"/>
	<path class="st8" d="M547.43,304.23c0,0.36-0.03,0.69-0.03,1.05v0.14c-0.03,0.63-0.06,1.27-0.08,1.9
		c-0.05,1.71-0.16,3.36-0.33,4.95c-0.08,0.88-0.19,1.71-0.3,2.53c-0.16,1.24-0.36,2.42-0.63,3.52c-1.18,5.17-3.49,8.56-8.01,8.36
		c-8.01-0.36-50.74-9.03-77.21-8.34c-14.97,0.41-33.13,8.89-32.28-5.72c0.06-0.91,0.14-1.71,0.3-2.42c0.36-1.9,0.96-3.19,1.65-4.13
		c1.68-2.28,3.93-2.56,4.76-4.9c0.08-0.17,0.11-0.33,0.17-0.5c0.19-0.72,0.25-1.6,0.14-2.75c-0.08-0.8-0.22-1.71-0.47-2.78
		c-1.93-8.36,6.55-7.43,6.55-7.43s60.84-1.27,100.35,5.64C542.01,293.36,547.79,292.26,547.43,304.23z"/>
	<path class="st14" d="M547.32,307.31c-0.05,1.71-0.16,3.36-0.33,4.95c-25.59-2.17-75.53-5.45-116.47-6.19
		c1.68-2.28,3.93-2.56,4.76-4.9C454.96,301.37,491.44,302.55,547.32,307.31z"/>
	<path class="st12" d="M482.21,326.69c0,0-18.12-24.64-28.99-8.7c-11.98,17.57,14.5,25.73,14.5,25.73"/>
	<path class="st12" d="M680.53,489.42c0,0-14.71-4.78-11.61-20c3.1-15.21,8.31-31.71-2.42-50.36c0,0,31.45-0.07,37.26,43.28
		s-18.78,47.61-18.78,47.61S670.47,511.08,680.53,489.42z"/>
	<path class="st7" d="M717.05,292.6c0.83-0.96,4.38,21.76,43.76,28.4c0,0-7.03,27.74,3.72,41.24
		c10.76,13.51,11.61,19.84,11.61,19.84s-10.14,13.05-8.87,21.51c1.27,8.46,5.06,8.46,1.27,21.12c-3.8,12.66-3.8,18.99,0,26.59
		c3.8,7.6,0.42,15.93-2.11,18.73c-2.53,2.8-3.38,17.99,0,26.86c0,0-5.46,0.78-7.09,6.17s1.64,11.01,1.64,11.01l-14.38,25.05
		l1.97,1.4l13.51-20.37l-5.08,22.48h3.51l1.57-3.51l1.71,3.51h2.81l0.94-3.98l2.34,3.98l3.28-1.87l8.43-4.68
		c0,0-9.37-14.05-8.9-20.14s4.92-4.21,3.28-15.69c0,0,10.3-13.83,10.77-30.21s-2.11-17.09,3.04-25.28s11.47-17.8,5.15-35.12
		c0,0-0.59-3.98,2.65-9.51s3.09-24.9,0-35.57c-3.09-10.67,7.58-21.34,6.79-50.19s-6.72-64.81-53.74-70.34
		c-47.03-5.53-75.99,47.41-60.69,63.55C689.94,307.57,707.18,304.04,717.05,292.6z"/>
	<path class="st9" d="M762.39,498.67c0,0,5.25,5.06,13.91,6.1c0,0-1.09-3.46-0.35-4.52c0.74-1.06,3.4-5.33,4.27-7.08
		c0,0-13.3-2.33-15.48-3.14l1.68,6.86C766.43,496.89,764.25,496.75,762.39,498.67z"/>
	<path d="M767.55,341.09c0,0-4.96,6.15-8.39,7.53l-3.31-3.76C755.85,344.86,759.16,340.15,767.55,341.09z"/>
	<path class="st13" d="M752.32,323.23c0,0,17.73-9.53,22.79,3.47c0,0,5.16,13.44-20.21,18.92"/>
	<path d="M755.92,603.12c3.99,9.35,9.93,20.35,16.29,31.72l-13.5-46.94L755.92,603.12z"/>
	<line class="st19" x1="859.3" y1="845.06" x2="1122.85" y2="841.91"/>
</g>
<rect x="1227.13" class="st2" width="692.87" height="1080"/>
<g>
	<path class="st9" d="M1431.7,576.22c0,0-3.93-93.1-3.28-108.18c0.66-15.08-7.87-30.81,25.57-34.75
		c33.44-3.93,251.76-16.39,318.63-13.77c0,0,28.19-5.9,26.88,29.5c-1.31,35.4-4.59,160.63-13.77,201.93c0,0,1.31,20.32-25.57,27.54
		s-295.69,49.17-383.54,36.71c0,0-12.46,1.31-14.42-15.08c-1.97-16.39,0-62.94,0-62.94s0-13.11,9.18-17.7
		c9.18-4.59,53.11-23.6,53.11-23.6S1432.32,591.3,1431.7,576.22z"/>
	<g>
		<path class="st0" d="M1484.17,465.02c2-0.35,7.01-0.65,15.02-0.91c3.66-0.09,6.71-0.09,9.14,0h0.26h1.04
			c0.78,0.09,1.44,0.13,1.96,0.13c1.13,0.18,1.96,0.39,2.48,0.65c0.61,0.44,1.09,1.18,1.44,2.22c0.26,0.7,0.48,1.57,0.65,2.61
			c0.17,1.74,0.35,4.05,0.52,6.92c0.09,2.44,0.13,6.36,0.13,11.76c0,1.31,0.02,3.9,0.06,7.77c0.04,3.88,0.07,7.66,0.07,11.37
			c0,3.7-0.04,7.21-0.13,10.52c-0.52,13.85-2.31,23.38-5.36,28.61c-1.66,2.96-5.09,6.27-10.32,9.93c-2,1.39-5.53,2.57-10.58,3.53
			c-4.7,0.78-9.75,1.22-15.15,1.31c-5.75,0.09-10.67-0.22-14.76-0.91c-5.05-0.96-8.32-2.48-9.8-4.57
			c-2.09-3.05-3.14-7.71-3.14-13.98c0-1.57,0.13-3.96,0.39-7.18c0.09-2.87,0.13-4.92,0.13-6.14v-0.26
			c-0.09-0.43-0.17-0.74-0.26-0.91c0-0.52,0.04-1,0.13-1.44c0.26-0.87,0.87-1.44,1.83-1.7c1.74-0.35,3.31,0.18,4.7,1.57
			c0.26,0.35,0.52,0.65,0.78,0.91c0.26,0.26,0.43,0.46,0.52,0.59c0.08,0.13,0.22,0.24,0.39,0.33c0.43,0.18,1.7,0.35,3.79,0.52
			c2.09,0.18,4.53,0.26,7.32,0.26c2.7,0,5.12-0.09,7.25-0.26c2.13-0.17,3.46-0.39,3.98-0.65l1.44-0.91
			c0.43-0.26,0.78-0.48,1.04-0.65l0.13-0.13v-0.39c0.17-0.43,0.3-1.04,0.39-1.83c0.17-1.57,0.3-3.66,0.39-6.27
			c0.09-4.35,0.13-10.36,0.13-18.03c-0.09-4.88-0.22-10.99-0.39-18.35c-0.18-7.36-0.26-11.6-0.26-12.74c0-0.78,0.35-1.35,1.04-1.7
			C1482.86,465.72,1483.39,465.2,1484.17,465.02z"/>
		<path class="st14" d="M1554.71,466.2c3.05-1.39,6.27-2.44,9.67-3.14c1.48-0.26,3.4-0.39,5.75-0.39h5.09
			c0.7-0.09,1.26,0.18,1.7,0.78c6.97,0.18,14.48,1.72,22.53,4.64c8.05,2.92,14.13,6.68,18.22,11.3c3.31,3.75,6.36,10.19,9.14,19.33
			c3.92,12.89,3.14,24.69-2.35,35.4c-5.49,10.71-14.37,18.64-26.65,23.78c-0.26,0.09-1.39,0.56-3.4,1.44c-2,0.87-3.4,1.44-4.18,1.7
			c-0.78,0.26-1.96,0.61-3.53,1.05c-1.57,0.43-3.05,0.7-4.44,0.78c-9.32,0.52-18.16-0.7-26.52-3.66c-1.04,0.09-1.96-0.18-2.74-0.78
			l-0.78-0.65c-2.18-0.96-4.14-2.05-5.88-3.27c-2-1.31-3.92-2.98-5.75-5.03c-1.83-2.04-3.18-3.68-4.05-4.9l-4.05-6.14
			c-4.09-6.44-6.58-13.35-7.45-20.71c-0.87-7.36-0.26-14.3,1.83-20.84c2.09-6.53,5.53-12.52,10.32-17.96
			c4.79-5.44,10.49-9.64,17.11-12.61C1554.4,466.24,1554.53,466.2,1554.71,466.2z M1577.57,493.5c-4.53,0.26-8.23,2.09-11.1,5.49
			c-2.87,3.4-4.51,7.47-4.9,12.21c-0.39,4.75,0.57,8.95,2.87,12.61c2.31,3.66,5.77,5.92,10.39,6.79c4.35,0.87,8.08-0.17,11.17-3.14
			c3.09-2.96,4.98-6.88,5.68-11.76c0.78-4.96,0.09-9.43-2.09-13.39c-2.18-3.96-5.66-6.42-10.45-7.38c-0.78-0.17-1.26-0.65-1.44-1.44
			H1577.57z"/>
		<path class="st2" d="M1662.09,464.11l4.18-0.26c0.78,0,1.52,0.18,2.22,0.52c1.39,0.09,2.52,0.18,3.4,0.26
			c0.43,0.09,0.83,0.18,1.17,0.26c0.7,0.18,1.22,0.52,1.57,1.05l0.26,0.78v0.26c0.09,0.26,0.13,0.52,0.13,0.78v2.22v7.32
			c0,5.23-0.09,12.72-0.26,22.47c-0.17,7.49-0.26,12.67-0.26,15.55c-0.09,6.18-0.15,11.06-0.2,14.63c-0.04,3.57-0.07,5.88-0.07,6.92
			c0,0.26,0.04,1.63,0.13,4.12c0.09,2.48,0.13,4.55,0.13,6.21c0,2.61-0.04,4.7-0.13,6.27c-0.09,0.96-0.22,1.74-0.39,2.35
			c-0.18,1.04-0.57,1.78-1.18,2.22c-0.26,0.17-0.52,0.3-0.78,0.39h-0.39h-0.52c-0.35,0.09-0.83,0.13-1.44,0.13
			c-0.96-0.09-2.31-0.13-4.05-0.13c-0.78-0.09-1.74-0.13-2.87-0.13c-1.13,0-2.03-0.02-2.68-0.07c-0.65-0.04-1.07-0.06-1.24-0.06
			c-0.7,0-1.7,0.09-3,0.26c-2.09,0.17-3.31,0.26-3.66,0.26c-3.31,0.35-5.83,0.13-7.58-0.65c-1.13-0.52-1.92-1.7-2.35-3.53
			c-0.35-1.31-0.61-3.05-0.78-5.23c-0.35-3.57-0.48-8.4-0.39-14.5c0.09-4,0.26-8.9,0.52-14.7c0.26-5.79,0.39-9.03,0.39-9.73v-7.05
			v-7.45c0-1.48-0.02-3.72-0.07-6.73c-0.04-3-0.11-5.46-0.2-7.38c-0.09-1.91-0.24-4.14-0.46-6.66c-0.22-2.52-0.46-4.92-0.72-7.18
			c-0.09-0.96,0.3-1.65,1.18-2.09c0.35-0.78,0.96-1.18,1.83-1.18h2.87c0.61-0.35,1.22-0.52,1.83-0.52c0.61,0,1.18,0.13,1.7,0.39
			c0.96,0,1.83-0.04,2.61-0.13c0.35-0.09,0.7-0.13,1.04-0.13c0.35,0,0.74,0.04,1.18,0.13c1.57,0,3.05-0.04,4.44-0.13h1.96
			C1661.52,464.15,1661.83,464.11,1662.09,464.11z"/>
		<path class="st0" d="M1687.3,556.2c-0.26-1.65-0.26-3.66,0-6.01c0.35-2.79,0.52-4.53,0.52-5.23c0-2.61,0.26-10.27,0.78-22.99
			c0.43-9.67,0.39-17.2-0.13-22.6c0-0.35-0.09-1.39-0.26-3.14l-0.65-6.27c-0.26-2.44-0.48-4.7-0.65-6.79
			c-0.35-4.18-0.61-7.49-0.78-9.93c-0.09-1.48-0.13-2.66-0.13-3.53v-1.18c0-0.17,0.04-0.35,0.13-0.52c0.08-0.35,0.22-0.7,0.39-1.04
			c0.52-0.61,1.26-0.96,2.22-1.04c0.43-0.09,0.91-0.09,1.44,0c0.35,0,0.78,0.13,1.31,0.39c0.35,0.18,0.83,0.39,1.44,0.65
			c1.04,0.44,2.44,1.13,4.18,2.09l12.15,6.27l12.02,6.66l4.18,2.48c1.31,0.78,2.13,1.31,2.48,1.57l8.62,8.36l5.36,5.09l0.91,0.78
			l0.26-1.31v-1.18c0.17-2.35,0.04-5.92-0.39-10.71c-0.09-1.31-0.26-3.29-0.52-5.94c-0.26-2.66-0.48-4.55-0.65-5.68
			c-0.09-1.91-0.13-3.4-0.13-4.44c0-1.57,0.17-2.66,0.52-3.27c0.26-0.52,0.78-0.91,1.57-1.18c0.26-0.09,0.65-0.17,1.18-0.26
			c0.78-0.17,1.83-0.3,3.13-0.39c2.35-0.09,5.31-0.17,8.88-0.26c3.4,0,6.4,0.04,9.01,0.13c1.39,0.09,2.48,0.18,3.27,0.26
			c0.43,0,0.83,0.04,1.18,0.13c0.52,0.09,0.91,0.22,1.18,0.39c0.87,0.61,1.48,1.7,1.83,3.27c0.61,2.79,0.87,6.71,0.78,11.76
			c-0.09,7.14-0.13,10.93-0.13,11.37c0.09,1.31,0.43,6.75,1.04,16.33c0.61,10.02,1,17.64,1.18,22.86c0.09,2.7,0,6.49-0.26,11.36
			c-0.35,4.7-0.52,7.97-0.52,9.8c1.13,0.61,1.39,1.48,0.78,2.61c-0.61,1.13-1.48,1.39-2.61,0.78h-0.13c-0.78,0-1.35-0.35-1.7-1.05
			c-4.79-2.79-11.41-7.4-19.86-13.85c-9.75-7.4-16.81-12.37-21.16-14.89c-0.18-0.09-0.61-0.37-1.31-0.85
			c-0.7-0.48-1.61-1.07-2.74-1.76l-3-1.83l-4.05-2.35c-0.09,1.05-0.13,2.48-0.13,4.31c0.09,2,0.22,4.7,0.39,8.1
			c0,0.35,0.13,1.98,0.39,4.9c0.26,2.92,0.44,5.38,0.52,7.38c0.17,3.05,0.26,5.49,0.26,7.32c0,1.13-0.04,2.05-0.13,2.74
			c-0.09,1.13-0.31,1.91-0.65,2.35c-0.44,0.52-1.13,0.91-2.09,1.18c-0.52,0.17-1.22,0.3-2.09,0.39c-1.31,0.17-3.05,0.22-5.23,0.13
			c-2.96,0-5.84-0.13-8.62-0.39c-0.96-0.09-2.13-0.13-3.53-0.13c-1.48,0-2.79-0.09-3.92-0.26c-1.13-0.18-2.4-0.57-3.79-1.18
			c-0.35,0.43-0.74,0.7-1.18,0.78c-0.52,0.09-1.02-0.02-1.5-0.33C1687.67,557.14,1687.39,556.73,1687.3,556.2z"/>
	</g>
	<g>
		<path class="st25" d="M1744.72,595.21v27.17c0,6.38-4.72,11.77-11.05,12.6c-48.67,6.37-244.1,31.12-303.73,26.02"/>
		<polyline class="st25" points="1450.08,643.18 1429.93,661 1447.09,680.84 		"/>
	</g>
</g>
</svg>
