<svg width="21" height="21" viewBox="0 0 21 21" fill="none" xmlns="http://www.w3.org/2000/svg">
<mask id="mask0" mask-type="alpha" maskUnits="userSpaceOnUse" x="0" y="0" width="21" height="21">
<path d="M15.079 0H5.74722C2.57821 0 0 2.57833 0 5.74735V15.0791C0 18.2482 2.57821 20.8264 5.74722 20.8264H15.079C18.2482 20.8264 20.8264 18.2481 20.8264 15.0791V5.74735C20.8264 2.57833 18.2482 0 15.079 0ZM15.079 1.84782C17.2292 1.84782 18.9787 3.59722 18.9787 5.74735V15.0791C18.9787 17.2294 17.2294 18.9786 15.0791 18.9786H5.74722C3.5971 18.9786 1.84782 17.2294 1.84782 15.0791V5.74735C1.84782 3.59722 3.5971 1.84782 5.74722 1.84782H15.079ZM10.4132 4.95868C7.40554 4.95868 4.95868 7.4056 4.95868 10.4133C4.95868 13.421 7.40554 15.8678 10.4132 15.8678C13.4209 15.8678 15.8678 13.421 15.8678 10.4133C15.8678 7.4056 13.4209 4.95868 10.4132 4.95868ZM10.4132 6.83675C12.3853 6.83675 13.9896 8.44111 13.9896 10.4132C13.9896 12.3852 12.3852 13.9894 10.4132 13.9894C8.44128 13.9894 6.83684 12.3852 6.83684 10.4132C6.83684 8.44111 8.44116 6.83675 10.4132 6.83675ZM16.3636 2.97521C15.9728 2.97521 15.5889 3.13343 15.3128 3.41067C15.0355 3.68655 14.876 4.07062 14.876 4.46281C14.876 4.85378 15.0356 5.23772 15.3128 5.51495C15.5887 5.79083 15.9728 5.95041 16.3636 5.95041C16.7558 5.95041 17.1385 5.79083 17.4158 5.51495C17.693 5.23772 17.8512 4.85364 17.8512 4.46281C17.8512 4.07062 17.693 3.68655 17.4158 3.41067C17.1399 3.13343 16.7558 2.97521 16.3636 2.97521Z" fill="white"/>
</mask>
<g mask="url(#mask0)">
<path d="M15.079 0H5.74722C2.57821 0 0 2.57833 0 5.74735V15.0791C0 18.2482 2.57821 20.8264 5.74722 20.8264H15.079C18.2482 20.8264 20.8264 18.2481 20.8264 15.0791V5.74735C20.8264 2.57833 18.2482 0 15.079 0ZM15.079 1.84782C17.2292 1.84782 18.9787 3.59722 18.9787 5.74735V15.0791C18.9787 17.2294 17.2294 18.9786 15.0791 18.9786H5.74722C3.5971 18.9786 1.84782 17.2294 1.84782 15.0791V5.74735C1.84782 3.59722 3.5971 1.84782 5.74722 1.84782H15.079ZM10.4132 4.95868C7.40554 4.95868 4.95868 7.4056 4.95868 10.4133C4.95868 13.421 7.40554 15.8678 10.4132 15.8678C13.4209 15.8678 15.8678 13.421 15.8678 10.4133C15.8678 7.4056 13.4209 4.95868 10.4132 4.95868ZM10.4132 6.83675C12.3853 6.83675 13.9896 8.44111 13.9896 10.4132C13.9896 12.3852 12.3852 13.9894 10.4132 13.9894C8.44128 13.9894 6.83684 12.3852 6.83684 10.4132C6.83684 8.44111 8.44116 6.83675 10.4132 6.83675ZM16.3636 2.97521C15.9728 2.97521 15.5889 3.13343 15.3128 3.41067C15.0355 3.68655 14.876 4.07062 14.876 4.46281C14.876 4.85378 15.0356 5.23772 15.3128 5.51495C15.5887 5.79083 15.9728 5.95041 16.3636 5.95041C16.7558 5.95041 17.1385 5.79083 17.4158 5.51495C17.693 5.23772 17.8512 4.85364 17.8512 4.46281C17.8512 4.07062 17.693 3.68655 17.4158 3.41067C17.1399 3.13343 16.7558 2.97521 16.3636 2.97521Z" fill="black"/>
<path d="M23.1405 -2.31445H-2.31409V23.1401H23.1405V-2.31445Z" fill="#2B96AF"/>
</g>
</svg>
