<?xml version="1.0" encoding="utf-8"?>
<!-- Generator: Adobe Illustrator 24.2.1, SVG Export Plug-In . SVG Version: 6.00 Build 0)  -->
<svg version="1.1" id="Layer_1" xmlns="http://www.w3.org/2000/svg" xmlns:xlink="http://www.w3.org/1999/xlink" x="0px" y="0px"
	 viewBox="0 0 1920 1080" style="enable-background:new 0 0 1920 1080;" xml:space="preserve">
<style type="text/css">
	.st0{fill:#F9D482;}
	.st1{fill:#211B18;}
	.st2{fill:#B46D48;}
	.st3{fill:#13375B;}
	.st4{clip-path:url(#SVGID_2_);fill:#B46D48;}
	.st5{fill:none;stroke:#442317;stroke-width:1.3473;stroke-miterlimit:10;}
	.st6{fill:#442317;}
	.st7{fill:#331407;}
	.st8{clip-path:url(#SVGID_4_);fill:#B46D48;}
	.st9{fill:none;stroke:#331407;stroke-width:1.3473;stroke-miterlimit:10;}
	.st10{fill:#EAA78C;}
	.st11{fill:#3D2C25;}
	.st12{fill:none;}
	.st13{fill:#FCD0C0;}
	.st14{fill:#AA5E36;}
	.st15{clip-path:url(#SVGID_6_);fill:#B46D48;}
	.st16{fill:#EDB39A;}
	.st17{clip-path:url(#SVGID_8_);fill:#13375B;}
	.st18{fill:#F2CF6D;}
	.st19{fill:#F47458;}
	.st20{fill:#FFEECC;}
	.st21{fill:#3C8F7C;}
	.st22{fill:#50BFA5;}
</style>
<g>
	<g>
		<path class="st0" d="M536.7,980.1c-75.5,0-148.1-31.3-200.8-87.6c-42.1-45-65.6-99.9-20.9-153.8c54-65.2,141.7-98,206.2-149.7
			c33.8-27.1,56.5-64.6,68.9-108.3c11.6-40.7,12.1-83.4,28.5-124.4C649.3,280.1,729,263,832,299.7
			c122.9,43.8,271.6-287.5,471.8-82.4c73.6,75.4,84,245.7,127.9,333.8c42,84.3,128.6,134.7,165,222.5c13.3,31.9,13.9,65-1,96.4
			c-9.7,20.4-24.5,37.6-40,52.8c-1.5,1.4-3.4,3.2-5.7,5.1c-39.5,33.8-89.1,52.1-140.2,52.1C1225.3,980.1,732.7,980.1,536.7,980.1z"
			/>
	</g>
	<g>
		<g>
			<path class="st1" d="M1064.8,209.8c0,0-2.2-30.9-60.7-25.4c-35.5,3.3-49.3,21.4-54.7,35.1c-3.8,9.6-11.5,17.2-21.2,21
				c-17.1,6.5-41.7,20.7-52,49.7c-11.1,31-11.5,39.9-50,65c-77.5,50.4-48.1,109.8-29.9,141.5c88.6,153.9,387.5-58,387.5-58
				s11.9-62.4-22.2-107.6c-27.6-36.5-53.4-45.6-61.9-72.7C1091.2,231.2,1087.2,209.6,1064.8,209.8z"/>
		</g>
		<g>
			<path d="M1075.2,259.7c-0.4,2.3-0.3,4.8,0,7.1c0.1,1.2,0.4,2.4,0.6,3.5c0.2,1.2,0.6,2.3,0.9,3.5c1.4,4.6,3.6,8.9,6.2,12.8
				c1.2,2,2.8,3.8,4.3,5.7c0.8,0.9,1.6,1.8,2.4,2.6c0.8,0.9,1.6,1.8,2.5,2.6c1.8,1.6,3.4,3.3,5.3,4.7l5.6,4.5
				c7.6,6,14.7,13,19.6,21.6c2.5,4.2,4.5,8.7,5.9,13.4c1.4,4.7,2.3,9.5,2.1,14.4l-0.3,0c-0.5-4.8-1.9-9.4-3.6-13.8
				c-0.9-2.2-1.8-4.4-2.9-6.5l-1.7-3.1l-1.9-3c-2.6-4-5.3-7.8-8.5-11.3l-2.3-2.7l-2.5-2.5c-0.9-0.8-1.7-1.7-2.6-2.5l-2.7-2.3
				l-5.5-4.7c-1.9-1.5-3.6-3.3-5.3-5c-0.9-0.8-1.7-1.8-2.5-2.7c-0.8-0.9-1.6-1.8-2.4-2.8c-1.4-2-3-3.9-4.2-6
				c-2.6-4.1-4.7-8.6-5.9-13.3c-0.3-1.2-0.6-2.4-0.8-3.6c-0.2-1.2-0.4-2.4-0.4-3.6c-0.2-2.4-0.2-4.9,0.3-7.2L1075.2,259.7z"/>
		</g>
		<g>
			<path d="M1061.2,216.1c-1.4-1.4-3-2.7-4.7-3.9c-0.8-0.6-1.6-1.2-2.5-1.7c-0.9-0.5-1.7-1.1-2.6-1.6c-0.9-0.5-1.8-1-2.7-1.4
				l-2.8-1.3c-0.9-0.4-1.9-0.7-2.8-1.1c-0.9-0.4-1.9-0.7-2.9-1c-7.8-2.4-16-3.2-24-2.5c-2,0-4,0.5-6,0.7c-1,0.2-2,0.3-3,0.5l-3,0.7
				c-4,0.9-7.8,2.1-11.6,3.6c-7.5,3-14.4,7.5-19.5,13.7c-5.2,6.1-9.2,13.4-14.9,19.4c-5.6,6.1-12.6,10.8-20,14.3
				c-3.8,1.7-7.4,3.3-10.9,5.4c-3.4,2-6.7,4.5-9.5,7.3c-2.8,2.8-5.3,6-7.4,9.4c-2.1,3.4-3.9,7-5.4,10.7c-3.2,7.4-5.7,15.2-9.3,22.6
				c-1.8,3.7-3.8,7.4-6.1,10.8c-2.3,3.4-4.9,6.7-7.8,9.7c-11.7,11.7-25.3,21-38.9,30c-6.8,4.5-13.7,8.8-20.3,13.5
				c-3.3,2.3-6.6,4.7-9.8,7.2c-3.1,2.5-6.2,5.2-9,8c-2.8,2.9-5.4,6-7.4,9.4c-2.1,3.4-3.7,7.1-4.4,11.1c-0.8,3.9-0.8,8-0.2,12l0.5,3
				c0.2,1,0.5,2,0.8,2.9l0.4,1.5l0.5,1.4l1,2.9l-0.2,0.1c-1.6-3.7-3.1-7.6-3.8-11.6c-0.7-4-0.9-8.2-0.2-12.3c0.7-4.1,2.2-8,4.3-11.6
				c2.1-3.6,4.6-6.9,7.4-9.9c2.8-3,5.9-5.8,9-8.4c3.2-2.6,6.4-5.1,9.8-7.5c6.6-4.8,13.5-9.3,20.2-13.8c6.8-4.5,13.5-9.1,19.9-14
				c3.3-2.4,6.4-4.9,9.5-7.5c1.6-1.3,3.1-2.6,4.6-3.9c0.8-0.7,1.5-1.4,2.2-2c0.7-0.7,1.4-1.4,2.1-2.1c2.8-2.9,5.3-6,7.6-9.3
				c2.3-3.3,4.2-6.8,6-10.4c3.6-7.2,6.2-14.9,9.5-22.5c1.6-3.8,3.5-7.5,5.7-11c2.2-3.5,4.8-6.8,7.8-9.7c3-2.9,6.4-5.4,9.9-7.4
				c3.6-2.1,7.4-3.7,11.1-5.3c7.3-3.4,14.1-7.9,19.6-13.8c2.8-2.9,5.2-6.1,7.6-9.4c2.4-3.3,4.7-6.7,7.4-9.8c1.3-1.6,2.8-3,4.3-4.4
				c1.6-1.3,3.2-2.7,4.9-3.8c3.4-2.3,7.1-4.2,10.9-5.7c3.8-1.5,7.8-2.7,11.8-3.5l3-0.7c1-0.2,2-0.3,3-0.5c2-0.3,4-0.7,6.1-0.7
				c8.2-0.6,16.5,0.3,24.2,2.8c1,0.3,1.9,0.6,2.9,1c0.9,0.4,1.9,0.7,2.8,1.1l2.8,1.3c0.9,0.4,1.8,1,2.7,1.5c0.9,0.5,1.7,1.1,2.6,1.6
				c0.9,0.5,1.7,1.1,2.5,1.7c1.6,1.2,3.2,2.5,4.7,4L1061.2,216.1z"/>
		</g>
		<path d="M1067.4,233.6c0,0,3.1-7,3.9-9.2c0,0,10.3,13.4-3.3,22.9C1068,247.3,1067.7,236.5,1067.4,233.6z"/>
		<g>
			<path class="st2" d="M918.7,773c0,0,113.5,19.3,188.9,43.3c75.3,24.1,127.6,21.3,127.6,21.3l17.3,0.1c0,0,8.1-2.9,18.6,5.3
				c10.5,8.3,83.2,83.5,145.2,111c62,27.5,13.4,26.3,13.4,26.3H741.4C741.4,980.3,737.2,782.4,918.7,773z"/>
		</g>
		<g>
			<path class="st3" d="M741.4,980.3c0,0,43.6-220.7,190.1-205.3c0,0,103.9,25.4,150.8,38.9c60.2,17.4,120.9,24,152.9,23.6
				c0,0,40.5-177.1-186-292.7H912.1c0,0-53.7,73.1-223.9,138.8c0,0-67.6,15.3-132.2,52.7c0,0-106.2,26.2-105.9,119.9
				c0.1,27.3,12.7,49.3,26.3,66.8c26.9,35,68.8,55.2,113,55.6L741.4,980.3z"/>
		</g>
		<g>
			<defs>
				<path id="SVGID_1_" d="M1140.6,457.7c10.1-35.7-11.5-63.3-16.2-64c-4.7-0.7-2.8,3.4-2.8,3.4c12.7,36.4-18,74.7-32.2,63.9
					c-14.1-10.8-2-35.7-2-35.7s3.4-5.4,3.4-7.4s-12.8-1.3-22.2,10.1c-9.4,11.5-10.3,37.5-39.5,54.1c-29.2,16.6-156.9,73-204.9,85.9
					l62.7-62.5l47.6-119.3l2-32.3l-1.3-8.8c-27.7-2.8-49.8-4.5-74.3,8.7c-16,8.6-27.9,23-39.5,37.1
					c-36.4,44.4-72.8,88.7-109.3,133.1c-19.2,23.4-36.3,45.4-51,75.5c-13.8,28.3-23,65.9-0.3,92.5c28.5,33.3,77.7,28,116,21
					c41.2-7.6,81.6-20.1,120.5-35.6c57.8-22.9,113.9-53,161.7-93.1c0,0,86.9-66.7,89.6-146.9c0,0-1.3-22.9-12.3-28.8"/>
			</defs>
			<clipPath id="SVGID_2_">
				<use xlink:href="#SVGID_1_"  style="overflow:visible;"/>
			</clipPath>
			<path class="st4" d="M1140.6,457.7c10.1-35.7-11.5-63.3-16.2-64c-4.7-0.7-2.8,3.4-2.8,3.4c12.7,36.4-18,74.7-32.2,63.9
				c-14.1-10.8-2-35.7-2-35.7s3.4-5.4,3.4-7.4s-12.8-1.3-22.2,10.1c-9.4,11.5-10.3,37.5-39.5,54.1c-29.2,16.6-156.9,73-204.9,85.9
				l62.7-62.5l47.6-119.3l2-32.3l-1.3-8.8c-27.7-2.8-49.8-4.5-74.3,8.7c-16,8.6-27.9,23-39.5,37.1c-36.4,44.4-72.8,88.7-109.3,133.1
				c-19.2,23.4-36.3,45.4-51,75.5c-13.8,28.3-23,65.9-0.3,92.5c28.5,33.3,77.7,28,116,21c41.2-7.6,81.6-20.1,120.5-35.6
				c57.8-22.9,113.9-53,161.7-93.1c0,0,86.9-66.7,89.6-146.9c0,0-1.3-22.9-12.3-28.8"/>
		</g>
		<path class="st2" d="M1049.2,544.9l-137.1,5c0,0-0.1-12.3-1.3-18.5c0,0-6.9-0.4-14.4-5.3c-7.5-4.9-15.6-14.3-18.2-32.4
			c-3-21.4,6.5-42,16.3-60.4c10.4-19.3,17.8-40,27-59.8c4.4-9.5,8.9-18.9,13.6-28.3l76.3,6.4L1049.2,544.9z"/>
		<path class="st5" d="M887.2,517.4c0,0,27.7-21.1,51.8,0"/>
		<path class="st6" d="M910.8,531.4c0.6,1-9.1-1-17.6-7.7c3-2.8,12.9-8,25.6-6.3C938.1,519.8,921.1,530.5,910.8,531.4z"/>
		<g>
			<path class="st7" d="M984.3,493.7c1.3-2.5,2.5-5,3.7-7.6c0.6-1.3,1.2-2.5,1.8-3.8l0.8-1.9l1-1.9c2.8-5.1,7.9-8.8,13.5-10.1
				c2.8-0.7,5.8-0.7,8.7-0.2c0.7,0.1,1.4,0.3,2.1,0.5c0.7,0.2,1.4,0.5,2,0.7c1.4,0.5,2.6,1.2,3.9,1.7c2.6,1.1,5.2,2.2,7.8,3
				c2.7,0.9,5.4,1.6,8.1,2.2c-2.8-0.2-5.6-0.8-8.3-1.5c-2.7-0.8-5.4-1.7-8-2.7l-2-0.8c-0.7-0.3-1.3-0.6-1.9-0.8
				c-0.6-0.2-1.3-0.5-1.9-0.7c-0.7-0.2-1.3-0.4-2-0.4c-2.7-0.5-5.5-0.4-8.1,0.2c-5.3,1.2-10.1,4.6-13,9.3l-1,1.8l-0.9,1.9
				c-0.6,1.3-1.3,2.5-1.9,3.8C987.2,488.9,985.8,491.3,984.3,493.7z"/>
		</g>
		<g>
			<defs>
				<path id="SVGID_3_" d="M988.8,339.1c0,0,8.9,3,39.7-6.4c30.9-9.4,79.4-46.8,128.9,26.3c49.5,73,80.4,154.8,83.1,165.6
					s2.7,10.8,2.7,10.8s24.5,75.4-61.2,95c-85.7,19.5-362.6-10.1-362.6-10.1L1022.9,497L988.8,339.1z"/>
			</defs>
			<clipPath id="SVGID_4_">
				<use xlink:href="#SVGID_3_"  style="overflow:visible;"/>
			</clipPath>
			<path class="st8" d="M988.8,339.1c0,0,8.9,3,39.7-6.4c30.9-9.4,79.4-46.8,128.9,26.3c49.5,73,80.4,154.8,83.1,165.6
				s2.7,10.8,2.7,10.8s24.5,75.4-61.2,95c-85.7,19.5-362.6-10.1-362.6-10.1L1022.9,497L988.8,339.1z"/>
		</g>
		<line class="st9" x1="1140.6" y1="522.7" x2="1120.2" y2="486.6"/>
		<g>
			<path class="st7" d="M1072.5,526.3c14.5-1.4,29.1-2.5,43.7-3.3c7.3-0.4,14.6-0.8,21.9-0.8c7.3,0,14.6,0.1,21.9,1l0,0.1
				c-7.3-0.1-14.6,0-21.9,0.3c-7.3,0.2-14.6,0.3-21.9,0.6c-7.3,0.3-14.6,0.6-21.9,1c-7.3,0.4-14.6,0.8-21.9,1.3L1072.5,526.3z"/>
		</g>
		<g>
			<path class="st7" d="M1065.3,391.4c1.1,2.9,2.4,5.7,4,8.3c1.6,2.6,3.7,4.8,6.1,6.7c2.4,1.9,5,3.4,7.7,4.9
				c2.7,1.4,5.5,2.8,8.3,4.2c-3-0.9-5.9-1.9-8.8-3.2c-2.8-1.3-5.6-2.8-8.1-4.8c-2.5-1.9-4.6-4.4-6.2-7.2
				C1066.8,397.5,1065.9,394.5,1065.3,391.4z"/>
		</g>
		<g>
			<g>
				<path d="M586.7,963.2C586.7,963.2,586.7,963.1,586.7,963.2C586.7,963.1,586.7,963.2,586.7,963.2L586.7,963.2z"/>
			</g>
		</g>
		<g>
			<path class="st10" d="M1132.7,442.9c-3.4,6.2-10.6,16.1-19.4,23.2c-10.1,8-22.4,12.3-34,3.1c-21.8-17.3-8.5-49.4-8.5-49.4
				c2.2-8.4,8.2-15.9,15.6-20.9c9-6,20-8.5,29.2-4.9C1133.9,401.4,1142.3,425.7,1132.7,442.9z"/>
		</g>
		<g>
			<path class="st11" d="M1132.7,442.9c-3.4,6.2-10.6,16.1-19.4,23.2c-7.9,1.2-15.9,0.6-21.9-3.9c-16.7-12.7-10-24-10-24
				s11.9,0.5,12.7-7.3c1.1-10.2-12.3-5.3-12.3-5.3c-2.8-9.2,1.1-22.9,4.6-26.6c9-6,20-8.5,29.2-4.9
				C1133.9,401.4,1142.3,425.7,1132.7,442.9z"/>
		</g>
		<g>
			<g>
				<path class="st10" d="M966,534.7c-13.4-3.5-27.5-0.5-41.2,1.6c-3.9,0.6-8.3,1.1-11.4-1.3c-3.5-2.7-3.9-7.7-3.9-12.1
					c0-10.5-0.9-31.2,2.7-31.5l-0.2,0.1c3.7,5,7.6,9.8,11.7,14.4c0.9,1,1.9,2,3.2,2.2c0.6,0.1,1.2,0,1.9-0.1
					c5.3-1,10.1-3.6,14.7-6.2c15.1-8.8,31.1-16.6,48.9-16.6c5.5,0,11.1,0.7,16,3.1s9,7,9.9,12.4L966,534.7z"/>
			</g>
		</g>
		<g>
			<path class="st10" d="M960.3,499.2c-3.8-1.7-10.4-6.8-12.9-10.1c-1.9-2.5-0.1-8.3,0.3-11.2c0.8-6.3,1.6-12.6,3.1-18.8
				c0.4-1.7,3.2-13.2,5.8-7.6c1.4,3.1,2.8,6.2,4.2,9.2c1.3,2.8,2.4,6.5,4.5,8.8c1.2,1.3,2.7,2.1,4.2,2.9
				c12.1,6.5,24.2,13.4,33.6,23.3L960.3,499.2z"/>
		</g>
		<g>
			<path class="st12" d="M1078.1,405.4"/>
		</g>
		<g>
			<path class="st12" d="M1067.4,391.4"/>
		</g>
		<g>
			<g>
				<path class="st10" d="M1007.4,495.8c1.8-5.9,4.8-15.8,6.6-21.7c1.5-5,3-10.1,3.3-15.3c0.3-4.7-0.4-9.4-0.5-14.1s0.5-9.6,3-13.5
					c1.7-0.5,0.8,8.5,2.8,11.7c3.4-3.8,1.6-11.8,6.3-15.5c2.1-0.5,1.8-0.4,1,6c-0.2,1.2-0.9,9.2,0.3,9.6c1.3-3.1,5.2-11.7,6.2-10.9
					c1.4,3.3-0.3,7-1.2,10.4c-1,3.4-0.6,8.1,2.7,9.4c3.1,1.2,6.6-1.4,9.9-0.8c0.7,0.1,1.4,0.4,1.7,1c0.7,1.2-0.4,2.7-1.4,3.7
					c-2.9,2.8-5.3,6.9-10.1,8.5c0,0-0.6,16.9-1.6,25.7L1007.4,495.8z"/>
			</g>
		</g>
		<g>
			<path class="st13" d="M1017.4,455.3c0.5,3.6,0.1,7.4-0.6,11c-0.4,1.8-1,3.6-1.6,5.3c-0.6,1.7-1.2,3.5-1.7,5.2
				c-1.1,3.5-2.1,7-3.4,10.4c-1.2,3.4-2.5,6.9-3.9,10.3l-0.1,0c0.7-3.6,1.7-7.1,2.8-10.6c1.1-3.5,2.4-6.9,3.6-10.4
				c0.6-1.7,1.3-3.4,1.9-5.1c0.7-1.7,1.3-3.4,1.7-5.1c0.9-3.5,1.5-7.2,1.2-10.8L1017.4,455.3z"/>
		</g>
		<path class="st2" d="M1027.4,300.5c0.3,0.9-21.6,19.6-3.3,51.5l-72-2.8c0,0,24.1-58,32.1-100.3L1027.4,300.5z"/>
		<g>
			<path class="st2" d="M1065.1,278.5c-2.2,10.3-5.8,20.2-11.7,27.5c-2.9,3.7-6.4,6.7-10.5,8.9c-32.7,17.2-54.5-10.3-54.5-10.3
				c-16-21.8-3.7-47.2-3.7-47.2c23.8-48.9,78.9-38,81-34.8C1067,224.4,1070.5,253,1065.1,278.5z"/>
		</g>
		<path class="st1" d="M984.8,264.1c0,0,28.6,56.9-31.7,82.6C953.1,346.7,971.9,242.7,984.8,264.1z"/>
		<path class="st1" d="M991.5,248.9c0,0,20.2,5.9,58.4-4.8c5.8-1.6,11.2-4.5,15.6-8.5c2.7-2.4,5.4-6.5,5.8-11.1
			c0,0-9.9-19.4-22.5-16.7S959.9,231.9,991.5,248.9z"/>
		<g>
			<path class="st14" d="M1035.8,282.2c-3.5,9.4-13.5,17.5-22.9,14.1c-9.4-3.5-12.1-15.2-8.6-24.6c3.5-9.4,13.7-14.4,23.1-10.9
				C1036.7,264.3,1039.2,272.8,1035.8,282.2z"/>
		</g>
		<path class="st14" d="M1065.1,278.5c-2.2,10.3-5.8,20.2-11.7,27.5C1049.3,304.4,1049.1,282.2,1065.1,278.5z"/>
		<g>
			<path class="st12" d="M1140.6,457.7"/>
		</g>
		<g>
			<g>
				<defs>
					<path id="SVGID_5_" d="M1136.3,408.7c-4.5-9.2-9.8-14.7-11.9-15c-4.7-0.7-2.8,3.4-2.8,3.4c2.5,7.3,3.3,14.6,2.9,21.6
						c-3.3,35.7-30.6,58.3-40.7,34.5c-4.1-11.9,3.6-27.8,3.6-27.8s3.4-5.4,3.4-7.4s-12.8-1.3-22.2,10.1
						c-9.4,11.5-10.3,37.5-39.5,54.1c-21,12-93.2,44.6-149.9,66.7l-46.4,55.2L776.8,713c41.2-7.6,81.6-20.1,120.5-35.6
						c57.8-22.9,113.9-53,161.7-93.1c0,0,86.9-66.7,89.6-146.9C1148.6,437.5,1147.3,414.6,1136.3,408.7z"/>
				</defs>
				<clipPath id="SVGID_6_">
					<use xlink:href="#SVGID_5_"  style="overflow:visible;"/>
				</clipPath>
				<path class="st15" d="M1136.3,408.7c-4.5-9.2-9.8-14.7-11.9-15c-4.7-0.7-2.8,3.4-2.8,3.4c2.5,7.3,3.3,14.6,2.9,21.6
					c-3.3,35.7-30.6,58.3-40.7,34.5c-4.1-11.9,3.6-27.8,3.6-27.8s3.4-5.4,3.4-7.4s-12.8-1.3-22.2,10.1
					c-9.4,11.5-10.3,37.5-39.5,54.1c-21,12-93.2,44.6-149.9,66.7l-46.4,55.2L776.8,713c41.2-7.6,81.6-20.1,120.5-35.6
					c57.8-22.9,113.9-53,161.7-93.1c0,0,86.9-66.7,89.6-146.9C1148.6,437.5,1147.3,414.6,1136.3,408.7z"/>
				<path class="st15" d="M879.1,548.9l-55,19.2C837.5,564.5,857.1,557.5,879.1,548.9z"/>
			</g>
			<g>
				<path class="st7" d="M826.2,567.6c-2.7,1-5.5,1.7-8.3,2.4c-2.8,0.7-5.7,1.2-8.5,1.7l-8.5,1.7l-8.5,1.6l0-0.1l8.4-2.1l8.4-2.1
					c2.8-0.7,5.6-1.5,8.4-2c2.8-0.5,5.7-1,8.6-1.3L826.2,567.6z"/>
			</g>
			<g>
				<path class="st16" d="M988.6,633.6c9.4-5.6,18.7-11.5,27.7-17.6c9.1-6.2,18-12.5,26.6-19.2c4.3-3.3,8.6-6.8,12.8-10.3l3.2-2.6
					c1.1-0.8,2.1-1.7,3.2-2.6c2.1-1.8,4.2-3.5,6.2-5.3c8.2-7.3,16-14.9,23.4-23c7.4-8.1,14.4-16.5,20.8-25.3
					c6.4-8.8,12.4-18,17.5-27.7c5.1-9.7,9.4-19.7,12.7-30.2c3.2-10.4,5.2-21.3,5.7-32.2l0,0c-0.2-2.7-0.5-5.4-1-8
					c-0.5-2.6-1.1-5.3-2-7.8c-0.9-2.5-1.9-5-3.4-7.3c-1.4-2.3-3.3-4.3-5.7-5.6c2.4,1.3,4.3,3.3,5.8,5.6c1.5,2.3,2.6,4.8,3.5,7.3
					c0.9,2.6,1.6,5.2,2.1,7.8c0.5,2.7,1,5.3,1.2,8.1l0,0l0,0c-0.3,11-2.3,21.9-5.4,32.4c-3.1,10.5-7.4,20.7-12.5,30.4
					c-5.1,9.7-11.1,19-17.5,27.9c-3.2,4.5-6.6,8.8-10.1,13c-3.5,4.2-7.1,8.4-10.9,12.4c-7.4,8.1-15.3,15.8-23.5,23
					c-2.1,1.8-4.1,3.6-6.3,5.4c-1.1,0.9-2.1,1.7-3.2,2.6l-3.2,2.6c-4.3,3.5-8.6,6.9-12.9,10.2c-8.7,6.6-17.7,13-26.9,19
					C1007.4,622.4,998.1,628.1,988.6,633.6z"/>
			</g>
			<g>
				<path class="st12" d="M776.8,713"/>
			</g>
			<g>
				<path class="st16" d="M1136.3,408.9c-1.9-3.8-4.1-7.4-6.8-10.7c-0.7-0.8-1.4-1.6-2.2-2.3c-0.8-0.7-1.6-1.4-2.6-1.8l-0.4-0.1
					l-0.4,0c-0.3,0-0.5,0-0.8,0c-0.5,0-1,0.1-1.4,0.5c-0.4,0.3-0.5,0.8-0.5,1.4c0,0.5,0.2,1,0.4,1.5l0,0l0,0
					c3.4,9.7,3.9,20.4,1.8,30.5c-2.2,10.1-6.7,19.8-13.7,27.4c-1.8,1.9-3.7,3.6-5.9,5.1c-2.2,1.5-4.6,2.7-7.2,3.1
					c-2.6,0.4-5.5-0.1-7.7-1.8c-2.1-1.6-3.8-3.7-5-6.1c-1.1-2.4-1.8-5-2-7.6c-0.2-2.6-0.1-5.2,0.3-7.8c0.8-5.2,2.3-10.1,4.5-14.9
					l0,0l0,0c0.9-1.4,1.7-2.9,2.4-4.4c0.3-0.7,0.7-1.5,0.8-2.3c0-0.1,0-0.2,0-0.3l0-0.1c0,0,0-0.1,0-0.1c0,0,0,0,0,0
					c0,0,0,0-0.1-0.1c-0.2-0.1-0.6-0.2-1-0.2c-1.6-0.1-3.2,0.2-4.8,0.6c-1.6,0.4-3.2,1-4.6,1.7c-6,2.9-11,7.8-14,13.7
					c-3,6-5.3,12.4-8.3,18.5c-0.7,1.6-1.6,3-2.3,4.5c-0.8,1.5-1.7,2.9-2.6,4.4c-1,1.4-1.9,2.8-3,4.2c-1.1,1.3-2.1,2.7-3.3,4
					c-4.6,5.1-9.9,9.5-15.9,12.9c-5.9,3.4-12,6.4-18,9.5c-12.2,6-24.5,11.7-36.8,17.2c-24.7,11.2-49.7,21.7-74.8,31.7
					c-25.2,10.1-50.6,19.5-76.5,27.5c12.9-4.1,25.7-8.6,38.4-13.4c12.7-4.8,25.3-9.7,37.8-14.8c25.1-10.2,50-20.9,74.6-32.1
					c12.3-5.6,24.6-11.3,36.7-17.3c6.1-3,12.1-6.1,17.9-9.4c5.8-3.3,11.1-7.6,15.6-12.6c1.1-1.2,2.1-2.6,3.2-3.9
					c1-1.3,1.9-2.7,2.9-4.1c0.9-1.4,1.8-2.9,2.6-4.3c0.8-1.5,1.6-2.9,2.3-4.5c1.5-3,2.8-6.1,4.1-9.2c1.3-3.1,2.6-6.3,4.2-9.3
					c3.1-6.2,8.3-11.2,14.6-14.2c1.6-0.8,3.2-1.4,4.9-1.8c1.7-0.4,3.4-0.7,5.2-0.6c0.5,0.1,0.9,0.1,1.5,0.4c0.1,0.1,0.3,0.2,0.4,0.3
					c0.1,0.2,0.3,0.4,0.3,0.6c0,0.1,0,0.2,0,0.3l0,0.2c0,0.1,0,0.3-0.1,0.4c-0.2,0.9-0.6,1.7-0.9,2.5c-0.7,1.6-1.6,3.1-2.5,4.5
					l0-0.1c-2.1,4.6-3.6,9.5-4.4,14.5c-0.7,5-0.6,10.2,1.5,14.8c1.1,2.2,2.7,4.2,4.7,5.7c1.9,1.5,4.5,2,6.9,1.6
					c2.5-0.4,4.8-1.5,6.9-2.9c2.1-1.4,4-3.1,5.7-5c6.9-7.5,11.4-17.1,13.7-27c2.2-10,1.8-20.6-1.5-30.3l0,0c-0.2-0.5-0.3-1-0.4-1.6
					c0-0.5,0.1-1.2,0.6-1.5c0.4-0.4,1-0.5,1.6-0.5c0.3,0,0.5,0,0.8,0l0.4,0l0.4,0.1c1,0.4,1.8,1.1,2.6,1.9c0.8,0.7,1.5,1.5,2.2,2.3
					C1132.3,401.4,1134.4,405.1,1136.3,408.9z"/>
			</g>
			<g>
				<path class="st7" d="M1140.6,457.7c0.9-4.1,1.5-8.2,1.8-12.4c0.3-4.1,0.3-8.3-0.1-12.4c-0.3-4.1-1.1-8.2-2.1-12.3
					c-1-4-2.3-8-3.9-11.9c2.1,3.7,3.7,7.6,4.9,11.6c1.2,4,2,8.2,2.4,12.4c0.2,2.1,0.2,4.2,0.2,6.3c-0.1,2.1-0.2,4.2-0.4,6.3
					C1142.9,449.6,1141.9,453.8,1140.6,457.7z"/>
			</g>
		</g>
		<g>
			<path class="st7" d="M996.4,311.9c2.8,1.5,5.8,2.7,8.7,3.8c3,1.1,6,2,9.1,2.6c3.1,0.7,6.2,1,9.4,1.1l2.4,0l2.4-0.1l1.2-0.1
				l1.2-0.2c0.8-0.1,1.6-0.2,2.4-0.3c-3,0.9-6.2,1.7-9.5,1.7c-0.8,0.1-1.6,0-2.4,0c-0.8,0-1.6,0-2.4-0.1l-2.4-0.3
				c-0.8-0.1-1.6-0.3-2.4-0.4c-3.2-0.7-6.2-1.6-9.2-2.9C1001.8,315.4,998.9,313.9,996.4,311.9z"/>
		</g>
		<g>
			<g>
				<path class="st2" d="M1001.4,251.2c0.6-7-4.9-14-11.9-15.1s-14.3,3.9-16,10.7c-2,8.3,5.7,16.7,13.3,20.6"/>
			</g>
			<g>
				<path class="st7" d="M990.1,243.6c0.9,1.4,1.6,2.8,2.2,4.3c0.5,1.5,0.9,3.2,0.9,4.8c0,0.8,0,1.7-0.2,2.5c-0.2,0.8-0.5,1.7-1,2.4
					c-1,1.4-2.5,2.4-4.1,2.9l-0.1-0.1c1.2-1.1,2.3-2.2,3-3.5c0.7-1.3,1.2-2.7,1.3-4.2c0.1-1.5-0.1-3.1-0.5-4.6
					c-0.4-1.5-0.9-3-1.6-4.5L990.1,243.6z"/>
			</g>
			<g>
				<path class="st7" d="M984.8,250.6c0.8-0.1,1.6-0.1,2.4,0c0.8,0.1,1.6,0.3,2.4,0.7c0.8,0.3,1.6,0.8,2.1,1.5
					c0.5,0.7,0.7,1.7,0.6,2.5l-0.1,0c-0.6-0.7-1-1.2-1.5-1.7c-0.5-0.5-0.9-1-1.6-1.4c-1.2-0.8-2.8-1.3-4.3-1.5L984.8,250.6z"/>
			</g>
		</g>
		<g>
			<defs>
				<path id="SVGID_7_" d="M579.3,955.7c0,0-104.4-37.8-92.8-132.6C499.1,721.7,644.7,649.8,941,706.4"/>
			</defs>
			<clipPath id="SVGID_8_">
				<use xlink:href="#SVGID_7_"  style="overflow:visible;"/>
			</clipPath>
			<path class="st17" d="M579.3,955.7c0,0-104.4-37.8-92.8-132.6C499.1,721.7,644.7,649.8,941,706.4"/>
		</g>
		<g>
			<path d="M762.5,758.5c28.3,0.7,56.7,1.5,84.9,3.7c7.1,0.5,14.1,1.2,21.2,1.9c3.5,0.4,7,0.8,10.6,1.3c3.5,0.5,7,0.9,10.5,1.5
				c14,2.2,27.9,5,41.7,8.2l0,0.1c-14-2.5-27.9-5-41.9-7c-3.5-0.6-7-1-10.5-1.5c-3.5-0.4-7-0.9-10.5-1.3c-7-0.8-14.1-1.6-21.1-2.1
				c-14.1-1.2-28.3-2-42.4-2.8c-14.1-0.7-28.3-1.3-42.5-1.8L762.5,758.5z"/>
		</g>
		<g>
			<path class="st13" d="M953.1,496.4c3.1-1.8,6.4-3.3,9.7-4.8c3.3-1.4,6.7-2.8,10.1-3.9c3.4-1.1,6.9-2.2,10.5-2.7
				c3.6-0.5,7.3-0.6,10.9,0.1l0,0.1c-3.6,0.1-7.1,0.5-10.6,1.1c-3.5,0.6-7,1.4-10.4,2.4c-3.4,1-6.8,2.2-10.2,3.5
				c-3.3,1.3-6.6,2.7-9.9,4.3L953.1,496.4z"/>
		</g>
		<g>
			<path class="st7" d="M1016.8,325.8c0.2,1.2,0.2,2.3,0.3,3.5c0.1,1.1,0.1,2.3,0.2,3.4c0.2,2.3,0.5,4.6,1,6.8
				c0.5,2.2,1.3,4.3,2.1,6.4c0.8,2.1,1.8,4.1,3,6.1l-0.1,0.1c-1.7-1.6-3.1-3.6-4.1-5.7c-1-2.1-1.5-4.5-1.9-6.8
				c-0.4-2.3-0.5-4.6-0.6-6.9c0-1.2,0-2.3,0.1-3.5c0-1.1,0.1-2.3,0-3.4L1016.8,325.8z"/>
		</g>
		<g>
			<path class="st7" d="M1146.1,423.3c0.9,1.6,1.5,3.3,1.9,5.1c0.2,0.9,0.4,1.8,0.6,2.7c0.1,0.9,0.3,1.8,0.4,2.7
				c0.4,3.6,0.2,7.3-0.2,10.9c-0.3,3.6-1,7.2-1.7,10.7l-1.3,5.3l-1.5,5.2l-0.1,0l1.2-5.3l1-5.3c0.6-3.6,1.1-7.1,1.3-10.7
				c0.2-3.6,0.1-7.2,0-10.7c-0.2-3.5-0.6-7.1-1.7-10.6L1146.1,423.3z"/>
		</g>
		<g>
			<path d="M855.4,693c1.8,0.1,3.6,0.2,5.4,0.3l5.4,0.4c3.6,0.3,7.2,0.7,10.8,1.1c7.2,0.9,14.3,2.1,21.4,3.4
				c7.1,1.2,14.2,2.5,21.3,3.8c7.1,1.4,14.2,2.8,21.2,4.3l0,0.2c-7.1-1.2-14.2-2.4-21.4-3.5c-7.1-1.1-14.3-2.2-21.4-3.2
				c-7.1-1-14.3-1.8-21.4-3c-3.6-0.6-7.1-1.1-10.7-1.7c-3.6-0.6-7.1-1.2-10.7-1.9L855.4,693z"/>
		</g>
		<g>
			<path d="M579.3,955.8c-10.3-4-20.2-9.1-29.6-14.9c-9.4-5.8-18.3-12.5-26.4-20.1c-8.1-7.6-15.4-16-21.4-25.4
				c-6-9.4-10.6-19.6-13.5-30.4c-2.9-10.8-4.1-22-3.5-33.1c0.6-11.1,2.6-22.2,6.4-32.7c0.9-2.6,2-5.2,3.1-7.8
				c1.2-2.5,2.3-5.1,3.7-7.5c1.3-2.5,2.8-4.8,4.2-7.2c1.6-2.3,3-4.7,4.7-6.9c1.6-2.3,3.4-4.4,5.2-6.5c0.9-1.1,1.8-2.1,2.8-3.1
				c0.9-1,1.8-2.1,2.8-3l2.9-3l3-2.8l1.5-1.4l1.6-1.3l3.2-2.7l0.1,0.2l-3,2.8l-1.5,1.4l-1.5,1.5l-2.9,2.9l-2.8,3.1
				c-0.9,1-1.8,2-2.7,3.1c-0.9,1.1-1.8,2.1-2.6,3.2c-1.7,2.2-3.4,4.3-4.9,6.6c-1.6,2.2-3,4.6-4.5,6.9c-1.4,2.4-2.8,4.7-4,7.2
				c-1.3,2.4-2.4,4.9-3.5,7.4c-1,2.6-2.1,5.1-2.9,7.7c-1,2.6-1.7,5.2-2.4,7.8c-0.7,2.7-1.3,5.3-1.8,8l-0.4,2c-0.1,0.7-0.2,1.4-0.3,2
				c-0.2,1.4-0.4,2.7-0.6,4.1l-0.7,8.2c-0.6,10.9,0.4,22,3.1,32.6c2.7,10.6,7.2,20.8,13,30.1c5.8,9.3,13,17.8,21,25.4
				c8,7.6,16.8,14.4,26.1,20.3c9.3,5.9,19.1,11.2,29.4,15.2L579.3,955.8z"/>
		</g>
		<g>
			<path class="st7" d="M910.8,531.4c-2.4-0.1-4.9-0.7-7.2-1.5c-2.3-0.8-4.6-1.8-6.7-3.1c-4.2-2.5-7.9-6-10.8-10.1
				c-2.9-4-4.9-8.6-6.4-13.3c-1.4-4.7-2.3-9.6-2.6-14.6c-0.5-9.9,1.5-19.8,4.8-29c1.7-4.6,3.6-9.1,5.8-13.5c2.2-4.4,4.5-8.7,6.9-13
				c-2.2,4.4-4.4,8.8-6.3,13.2c-2,4.5-3.8,9-5.4,13.6c-1.5,4.6-2.8,9.3-3.6,14.1c-0.8,4.8-1.1,9.7-0.8,14.5
				c0.6,9.6,3.1,19.4,8.5,27.4c2.7,4,6.2,7.5,10.3,10.1C901.3,528.9,905.9,530.8,910.8,531.4z"/>
		</g>
		<g>
			<path d="M980.9,264.1c-0.2,4.4-0.9,8.8-1.9,13.2c-1,4.3-2.3,8.6-3.9,12.8c-3.2,8.3-7.6,16.2-13.1,23.3c-1.3,1.8-2.8,3.5-4.3,5.2
				c-1.5,1.6-3,3.3-4.6,4.9c-1.6,1.6-3.3,3-5,4.5c-0.9,0.7-1.8,1.4-2.7,2.1c-0.9,0.7-1.8,1.4-2.7,2c-7.4,5-15.6,9-24.1,11.5
				l-0.1-0.3c8-3.9,15.6-8.3,22.6-13.4c3.5-2.6,6.9-5.3,10.1-8.3c1.7-1.4,3.2-3,4.7-4.5c1.5-1.6,3-3.2,4.3-4.9
				c5.6-6.7,10.1-14.4,13.5-22.5c1.7-4,3.2-8.2,4.3-12.5c1.1-4.3,2-8.6,2.4-13L980.9,264.1z"/>
		</g>
		<g>
			<path d="M900.5,343.3c0.4-5,1.4-9.8,3-14.6c1.5-4.7,3.6-9.3,6.5-13.5c2.9-4.1,6.6-7.7,11.2-10.1c2.2-1.2,4.7-2,6.9-2.9l1.7-0.7
				c0.6-0.2,1.1-0.5,1.7-0.8c1.1-0.5,2.2-1,3.3-1.6c4.4-2.2,8.5-4.9,12.4-7.8l2.9-2.2l2.8-2.3c1-0.7,1.9-1.6,2.8-2.4l1.4-1.2
				l1.3-1.2c3.6-3.3,7.1-6.8,10.3-10.5c3.2-3.7,6.1-7.6,8.4-12l0.2,0.1c-1.6,4.7-4.3,9.1-7.2,13.1c-0.8,1-1.5,2-2.3,3l-2.4,2.9
				c-1.7,1.8-3.4,3.7-5.2,5.4c-7.2,7-15.6,12.7-24.6,17c-1.1,0.6-2.3,1-3.4,1.5c-0.6,0.2-1.1,0.5-1.7,0.7l-1.8,0.6
				c-2.4,0.9-4.7,1.5-6.8,2.6c-4.3,2.1-8,5.5-10.9,9.4c-2.9,3.9-5.2,8.3-6.8,12.9c-1.7,4.6-2.9,9.4-3.5,14.3L900.5,343.3z"/>
		</g>
	</g>
	<g>
		<path class="st18" d="M1458.5,507.5c0.1,1,0.2,2,0.3,3l0.5,3l0.7,2.9c0.2,1,0.4,2,0.7,2.9c0.6,1.9,1,3.9,1.7,5.8l1.9,5.7l2.2,5.6
			l1.1,2.8l1.3,2.7l2.5,5.5c0.8,1.8,1.8,3.6,2.7,5.3l2.8,5.3c1,1.7,2,3.5,3,5.2l3,5.2l0.8,1.3l0.8,1.3l1.7,2.5l3.3,5
			c1.1,1.7,2.2,3.4,3.4,5l7.1,9.7c9.8,12.7,20.1,24.9,31.3,36.4l8.3,8.7c2.9,2.8,5.8,5.5,8.7,8.3l8.7,8.3l8.8,8.3
			c11.5,11.2,22.4,23.1,32.4,35.7l3.7,4.7l3.6,4.8c2.4,3.2,4.7,6.5,7,9.8c4.5,6.7,8.8,13.5,12.8,20.5c4,7,7.7,14.2,11,21.5
			c3.4,7.3,6.5,14.8,9.1,22.4c2.7,7.6,5,15.3,6.8,23.1c0.9,3.9,1.7,7.9,2.4,11.8c0.6,4,1.2,8,1.4,12l-0.3,0
			c-0.8-8-2.6-15.8-4.6-23.5c-2.1-7.7-4.5-15.3-7.4-22.8c-5.7-14.9-12.6-29.4-20.7-43.2c-8-13.8-17-27-26.9-39.6
			c-9.8-12.6-20.5-24.6-31.8-35.8l-8.7-8.3l-8.6-8.4c-2.9-2.8-5.8-5.6-8.6-8.4l-8.3-8.8c-11.1-11.6-21.4-24-31.1-36.8l-7-9.8
			c-1.2-1.6-2.2-3.3-3.3-5l-3.3-5.1l-1.6-2.5l-0.8-1.3l-0.8-1.3l-3-5.2c-1-1.7-2-3.5-3-5.2l-2.7-5.4c-0.9-1.8-1.9-3.6-2.7-5.4
			l-2.4-5.5l-1.2-2.8l-1.1-2.8l-2.1-5.6l-1.9-5.7c-0.6-1.9-1.1-3.9-1.6-5.8c-1-3.9-1.8-7.8-2.1-11.9L1458.5,507.5z"/>
	</g>
	<circle class="st19" cx="446" cy="514.4" r="4.9"/>
	<circle class="st0" cx="1514.1" cy="301.4" r="4.9"/>
	<circle class="st0" cx="1622.8" cy="932.3" r="4.9"/>
	<circle class="st0" cx="353.6" cy="667" r="3.3"/>
	<circle class="st0" cx="431.1" cy="423.3" r="3.3"/>
	<circle class="st19" cx="1187.1" cy="102.9" r="3.3"/>
	<circle class="st20" cx="1332.1" cy="637" r="3.3"/>
	<circle class="st20" cx="1375.7" cy="762.6" r="7.3"/>
	<circle class="st20" cx="402.1" cy="850.8" r="3.3"/>
	<circle class="st0" cx="765.4" cy="212.7" r="3.3"/>
	<g>
		<g>
			<path class="st21" d="M643.8,212.8c0,0-70.9,16-105.7,95.3C538.1,308,606.3,286.1,643.8,212.8z"/>
		</g>
		<g>
			<path class="st22" d="M542.3,297.1c8-6.2,16-12.4,23.8-18.8c7.9-6.4,15.7-12.7,23.3-19.3c1.9-1.7,3.8-3.3,5.6-5.1l2.8-2.6
				l2.7-2.7l5.4-5.4c1.8-1.8,3.6-3.5,5.5-5.2c3.7-3.4,7.5-6.8,11.5-9.9c4-3.1,8-6.2,12.4-8.8l0.1,0.1c-4.3,2.7-8.3,5.8-12.2,9
				c-3.9,3.2-7.6,6.6-11.3,10.1c-1.8,1.7-3.6,3.5-5.4,5.3l-5.3,5.4l-2.7,2.7l-2.7,2.6c-1.8,1.8-3.7,3.5-5.6,5.2
				c-7.5,6.8-15.3,13.3-23.3,19.5c-8,6.2-16.2,12.2-24.5,17.9L542.3,297.1z"/>
		</g>
		<g>
			<path class="st21" d="M536.6,319.6c0,0-4-57.4,22.3-101.8c0,0,2.6-6.8,3.9-7S569.6,280.8,536.6,319.6z"/>
		</g>
		<g>
			<path class="st21" d="M508.7,437.2c0,0,0.9-62.5,44.1-99.7s40.6-28.7,38.5-23.3c-2.1,5.4-31.9,44.7-51.8,69.7
				C519.5,408.8,509.5,430.7,508.7,437.2z"/>
		</g>
		<g>
			<path class="st21" d="M508.3,433.7c0,0-16.9-30.9-20.7-38.8s-17.2-34.7-7.8-84.2c0,0,1.6-8.4,2.8-9.2c1.2-0.8,4.9,6.6,6.4,15.4
				c1.5,8.8,17.3,60.4,18.5,90.3"/>
		</g>
		<g>
			<path class="st22" d="M515.6,469.9c-3.8-10.5-6.2-21.4-7.7-32.4c-0.7-5.5-1.2-11.1-1.3-16.7c-0.1-5.6-0.1-11.2,0.5-16.8
				c0.5-5.6,1.5-11.2,2.7-16.6c1.2-5.5,2.8-10.9,4.6-16.2c3.7-10.6,8.7-20.6,13.3-30.6c2.3-5,4.6-10.1,6.7-15.2
				c1-2.5,2.1-5.1,3.1-7.7c1-2.6,1.9-5.2,2.7-7.8c3.4-10.5,6.3-21.2,9.1-31.9c2.8-10.7,5.4-21.5,7.8-32.3c1.2-5.4,2.3-10.8,3.3-16.3
				c0.5-2.7,0.9-5.5,1.3-8.2c0.3-2.7,0.7-5.5,0.6-8.2l0.3,0c0.1,2.8-0.2,5.6-0.5,8.3c-0.3,2.8-0.7,5.5-1.1,8.2
				c-0.9,5.5-1.9,10.9-2.9,16.4c-2.1,10.9-4.5,21.7-7.1,32.5c-2.6,10.8-5.4,21.5-8.6,32.2c-0.8,2.7-1.7,5.3-2.6,7.9
				c-1,2.6-2,5.2-3,7.8c-2.1,5.2-4.3,10.3-6.5,15.3c-4.5,10.2-9.3,20.1-12.7,30.6c-1.7,5.2-3.2,10.5-4.3,15.9
				c-0.3,1.3-0.5,2.7-0.8,4l-0.4,2l-0.4,2c-0.5,2.7-0.8,5.4-1.1,8.1c-1.2,10.9-1.1,21.9-0.1,32.9c0.5,5.5,1.2,11,2.1,16.4
				c0.9,5.4,2,10.9,3.5,16.2L515.6,469.9z"/>
		</g>
		<g>
			<path class="st22" d="M508.3,433.7c1.7-12.2,5.7-24,10.8-35.2c5.3-11.1,12-21.7,20-31c4-4.7,8.3-9.1,12.5-13.6l12.5-13.5
				c8.3-9,16.6-18.1,24.7-27.3l0.1,0.1c-8,9.3-16.2,18.5-24.3,27.6l-12.3,13.7c-4.1,4.5-8.4,9-12.3,13.7
				c-7.9,9.3-14.3,19.9-19.6,30.8c-5.3,11-9.5,22.6-11.9,34.6L508.3,433.7z"/>
		</g>
		<g>
			<path class="st22" d="M483.6,315.5c1,9.6,2.3,19.2,3.9,28.8c1.6,9.5,3.5,19,6,28.4l1,3.5l1.1,3.4c0.7,2.3,1.5,4.6,2.3,6.9
				c1.5,4.6,2.8,9.3,4,14c2.4,9.4,4.4,18.9,5.7,28.5l-0.1,0c-2-9.5-4.2-18.9-6.8-28.2c-1.3-4.7-2.6-9.3-4-13.9
				c-0.7-2.3-1.4-4.6-2.1-6.9l-1-3.5l-0.9-3.5c-2.5-9.4-4.2-19-5.7-28.5c-1.4-9.6-2.6-19.2-3.4-28.9L483.6,315.5z"/>
		</g>
	</g>
	<g>
		<path class="st19" d="M847.5,236.8c0,0-25.6-33.8-11.9-39.8c0,0,5.9-1.5,8.2,4.3c0,0,3.2-7.3,10.2-6s6.7,8,6.7,8s5.1-4.4,10.1,0
			S865,223.1,847.5,236.8z"/>
	</g>
	<g>
		<g>
			<path class="st21" d="M846.4,239.9c0,0,13.4-25.6,39-32c25.6-6.4,22.8-3.4,20.7-1.6c-2,1.8-22.5,11.8-36,18
				S848.1,237.4,846.4,239.9z"/>
		</g>
		<g>
			<path class="st21" d="M850.2,242.4c0,0-17.3-14.9-21.5-18.9c-4.2-3.9-18.4-17.1-24-49.4c0,0-0.9-5.5-0.4-6.2s4.5,2.9,7.4,7.9
				c2.9,5,24.3,32.7,31.9,50.7"/>
		</g>
		<g>
			<path class="st22" d="M850.2,264.1c-0.5-2.4-0.9-4.9-1.4-7.3c-0.4-2.4-0.8-4.9-1.2-7.4c-0.4-2.5-1-4.9-0.9-7.4
				c0-1.2,0.1-2.5,0.2-3.7c0.1-1.3,0.4-2.5,0.8-3.8l0.3,0c0.6,1.2,0.9,2.4,1.3,3.6c0.3,1.2,0.6,2.4,0.8,3.7c0.4,2.4,0.2,4.9,0.3,7.4
				c0.1,2.5,0.1,4.9,0.2,7.4c0,2.5,0.1,5,0.1,7.4L850.2,264.1z"/>
		</g>
		<g>
			<path class="st22" d="M846.9,238.4c3.1-4.8,7.2-8.9,11.6-12.6c4.5-3.6,9.5-6.5,14.8-8.6c5.3-2.1,10.7-4,16-6l16-5.9l0.1,0.1
				l-15.8,6.4c-5.3,2.1-10.6,4.2-15.8,6.4c-5.2,2.2-9.9,5.3-14.4,8.7c-4.5,3.4-8.7,7.2-12.3,11.6L846.9,238.4z"/>
		</g>
		<g>
			<path class="st22" d="M808,176.2c2.8,5.6,5.9,11.1,9,16.5c3.2,5.4,6.5,10.7,10.2,15.8c1.8,2.5,3.9,4.9,5.8,7.4
				c2,2.5,3.8,5,5.7,7.6c3.6,5.2,7,10.5,9.8,16.2l-0.1,0.1c-3.5-5.2-7-10.4-10.8-15.4c-1.8-2.5-3.7-5-5.6-7.5
				c-1.9-2.5-3.9-5-5.7-7.6c-3.6-5.2-6.8-10.6-9.9-16.1c-3-5.5-5.9-11.1-8.6-16.8L808,176.2z"/>
		</g>
	</g>
	<g>
		<g>
			<path class="st21" d="M1590.2,622.7c0,0-22.5-6.1-28.1-7.9c-5.6-1.8-24.4-7.7-43.8-34.9c0,0-3.3-4.6-3.1-5.6
				c0.2-0.9,5.4,0.7,10.3,4c4.9,3.4,36.8,19.5,51.6,32.6"/>
		</g>
		<g>
			<path class="st22" d="M1522.3,580.2c5.1,3.9,10.3,7.7,15.6,11.3c5.3,3.6,10.7,7,16.3,10.1c2.8,1.5,5.7,2.8,8.6,4.2
				c2.9,1.4,5.7,2.9,8.5,4.5c5.6,3.2,11,6.6,16.1,10.6l-0.1,0.1c-5.5-3.3-11-6.5-16.7-9.5c-2.8-1.5-5.6-3-8.5-4.5
				c-2.8-1.5-5.8-2.9-8.5-4.5c-5.6-3.2-11-6.8-16.2-10.5c-5.2-3.7-10.3-7.6-15.3-11.7L1522.3,580.2z"/>
		</g>
		<g>
			<path class="st21" d="M1504,378.6c0,0,38.8,22.1,45.1,74.9C1549.1,453.5,1512.9,428.4,1504,378.6z"/>
		</g>
		<g>
			<path class="st22" d="M1548.4,446.4c-4-4.7-7.8-9.7-11.4-14.8c-3.6-5-7-10.3-10.2-15.6c-1.6-2.7-3.1-5.4-4.5-8.2
				c-1.4-2.8-2.8-5.5-4.3-8.2c-3-5.4-6.2-10.7-10.3-15.5l0.1-0.1c2.1,2.3,4,4.8,5.8,7.3c1.8,2.6,3.5,5.2,5,7.9
				c1.6,2.7,3.1,5.4,4.5,8.2c1.4,2.7,3.1,5.4,4.7,8c3.3,5.2,6.8,10.4,10.2,15.5l10.5,15.4L1548.4,446.4z"/>
		</g>
		<g>
			<path class="st21" d="M1548.4,453.5c0,0,23.6-58.6,11-113.8c0,0-0.4-7.9-1.7-8.6S1527,401.8,1548.4,453.5z"/>
		</g>
		<g>
			<path class="st21" d="M1562,568.4c0,0,0.8-62.5-41.4-100.8s-39.8-29.8-37.8-24.3s30.8,45.6,50,71
				C1551.9,539.8,1561.4,561.9,1562,568.4z"/>
		</g>
		<g>
			<path class="st21" d="M1562.5,564.9c0,0,17.7-30.4,21.7-38.3s18.1-34.2,10-84c0,0-1.4-8.4-2.6-9.2c-1.2-0.8-5.1,6.5-6.8,15.3
				c-1.7,8.8-18.9,59.9-20.9,89.8"/>
		</g>
		<g>
			<path class="st22" d="M1622.6,650.5c-6.4-2.9-12.3-6.8-17.8-11.2c-5.5-4.3-10.6-9.3-15.2-14.6c-4.6-5.3-8.8-11-12.5-17.1
				c-3.6-6.1-6.7-12.4-9.3-19c-2.6-6.6-4.7-13.4-6.3-20.2c-1.6-6.9-2.6-13.9-3.3-20.9c-0.2-1.8-0.3-3.5-0.4-5.3l-0.3-5.3
				c-0.1-1.7-0.1-3.5-0.3-5.2c-0.2-1.7-0.3-3.4-0.5-5.2c-0.7-6.9-2.1-13.6-3.6-20.5c-1.4-6.9-2.7-13.8-3.5-20.8
				c-0.9-7-1.3-14-1.7-21c-0.1-3.5-0.3-7-0.3-10.5c-0.1-3.5-0.1-7-0.1-10.5c0.1-7,0.3-14,0.6-21c0.6-14,1.4-28,2.5-41.9
				c0.6-7,1.2-13.9,2-20.9c0.4-3.5,0.8-6.9,1.4-10.4c0.6-3.5,1.2-6.9,2.3-10.3l0.3,0.1c-1.1,3.3-1.6,6.8-2.1,10.2
				c-0.5,3.5-0.8,6.9-1.2,10.4c-0.7,7-1.1,13.9-1.6,20.9c-0.8,14-1.3,27.9-1.7,41.9c-0.2,7-0.3,14-0.3,20.9c0,3.5,0.1,7,0.2,10.5
				c0.1,3.5,0.3,7,0.4,10.4c0.4,7,1,13.9,1.9,20.8c0.9,6.9,2.2,13.7,3.8,20.5c1.5,6.8,3,13.7,3.9,20.8c0.2,1.8,0.3,3.5,0.5,5.3
				c0.1,1.8,0.2,3.5,0.3,5.3l0.2,5.2c0.1,1.7,0.2,3.5,0.4,5.2c1.2,13.8,4,27.5,8.8,40.4c2.4,6.5,5.4,12.8,8.8,18.8
				c3.4,6,7.3,11.8,11.7,17.1c4.4,5.4,9.3,10.3,14.5,14.9c2.6,2.3,5.4,4.4,8.2,6.4c2.9,2,5.8,3.9,8.9,5.4L1622.6,650.5z"/>
		</g>
		<g>
			<path class="st22" d="M1562.4,564.9c-2.1-12.1-6-23.8-11-34.9c-5.1-11.1-11.2-21.8-18.8-31.3c-3.8-4.8-7.9-9.3-11.9-14l-12-14
				c-7.9-9.4-15.8-18.8-23.6-28.3l0.1-0.1c7.9,9.4,16,18.7,24,27.9l12.1,13.9c4.1,4.6,8.2,9.1,12.1,13.9
				c7.8,9.5,14.3,20.2,19.2,31.5c4.8,11.3,8.5,23.2,9.9,35.5L1562.4,564.9z"/>
		</g>
		<g>
			<path class="st21" d="M1587,620.8c0,0-9.3-19.4-1.7-37.5s8.1-15.1,8.3-13.1c0.2,2-3,18.7-5.3,29.4S1586.3,618.7,1587,620.8z"/>
		</g>
		<g>
			<path class="st22" d="M1586.3,619.9c-1.6-4-2.2-8.2-2.5-12.5c-0.1-4.3,0.4-8.6,1.5-12.7c1.2-4.1,2.4-8.1,3.6-12.2l3.7-12.1l0.1,0
				l-3.2,12.3c-1.1,4.1-2.2,8.2-3.2,12.3c-1,4.1-1.2,8.3-1.2,12.4c0,4.2,0.4,8.4,1.2,12.5L1586.3,619.9z"/>
		</g>
		<g>
			<path class="st22" d="M1590.4,447.4c-1.1,9.6-2.5,19.2-4.1,28.8c-1.7,9.5-3.7,19-6.4,28.4l-1,3.5l-1.1,3.5
				c-0.7,2.3-1.6,4.6-2.3,6.9c-1.5,4.6-3,9.2-4.4,13.8c-2.8,9.2-5.3,18.6-7.6,28l-0.1,0c1.5-9.6,3.8-19,6.4-28.4
				c1.3-4.7,2.8-9.3,4.4-13.9c0.8-2.3,1.7-4.6,2.4-6.8l1.2-3.4l1.1-3.5c2.8-9.2,4.9-18.7,6.8-28.2c1.8-9.5,3.4-19,4.7-28.6
				L1590.4,447.4z"/>
		</g>
	</g>
	<g>
		<path class="st18" d="M342.2,939.2c-7.8-5.4-15-11.4-22-17.8c-6.9-6.4-13.5-13.3-19.6-20.5c-12.2-14.5-22.4-30.7-29.3-48.5
			c-1.7-4.4-3.2-8.9-4.4-13.5c-1.2-4.6-2.1-9.3-2.7-14c-0.6-4.7-0.9-9.5-0.8-14.2c0.1-4.7,0.4-9.5,1.2-14.2
			c0.8-4.7,1.9-9.3,3.3-13.8c1.5-4.5,3.1-8.9,5.2-13.2c4-8.6,9.2-16.5,15-23.9l0.2,0.2c-5.6,7.5-10.6,15.6-14.4,24.1
			c-1.9,4.3-3.5,8.7-4.9,13.2c-1.3,4.5-2.3,9.1-3,13.7c-0.7,4.6-1,9.3-1,14c0,4.7,0.3,9.3,1,14c0.7,4.6,1.6,9.2,2.9,13.7
			c1.2,4.5,2.8,8.9,4.5,13.2c3.5,8.7,7.9,16.9,12.9,24.8c2.5,4,5.1,7.8,7.9,11.6c2.7,3.8,5.6,7.5,8.6,11.1
			c5.9,7.3,12.2,14.2,18.8,20.9c3.3,3.3,6.7,6.6,10.2,9.7c3.4,3.2,7,6.3,10.6,9.2L342.2,939.2z"/>
	</g>
	<g>
		<path class="st7" d="M781.8,980.2l390.8-1.2c65.1-0.2,130.3-0.6,195.4-0.3c65.1,0.3,130.3,0.6,195.4,1.5v0.3
			c-65.1,1-130.3,1.2-195.4,1.5c-65.1,0.2-130.3-0.2-195.4-0.3l-390.8-1.2V980.2z"/>
	</g>
</g>
</svg>
