<?xml version="1.0" encoding="utf-8"?>
<!-- Generator: Adobe Illustrator 24.2.1, SVG Export Plug-In . SVG Version: 6.00 Build 0)  -->
<svg version="1.1" xmlns="http://www.w3.org/2000/svg" xmlns:xlink="http://www.w3.org/1999/xlink" x="0px" y="0px"
	 viewBox="0 0 1920 1080" style="enable-background:new 0 0 1920 1080;" xml:space="preserve">
<style type="text/css">
	.st0{clip-path:url(#SVGID_8_);fill:#FFFFFF;}
	.st1{clip-path:url(#SVGID_8_);}
	.st2{fill:#F2F7FA;}
	.st3{opacity:0.7;fill:#D7E3F1;}
	.st4{fill:#D7E3F1;}
	.st5{fill:#E1EAEF;}
	.st6{fill:none;stroke:#39526D;stroke-width:2.4531;stroke-miterlimit:10;}
	.st7{fill:#6FFFFF;}
	.st8{fill:none;stroke:#00B4CC;stroke-width:2.9003;stroke-miterlimit:10;}
	.st9{fill:none;stroke:#00B4CC;stroke-width:2.0505;stroke-miterlimit:10;}
	.st10{fill:none;stroke:#00B4CC;stroke-width:2.4531;stroke-miterlimit:10;}
	.st11{fill:#39526D;}
	.st12{fill:none;stroke:#4621B8;stroke-width:6;stroke-miterlimit:10;}
	.st13{fill:#FFCC3D;}
	.st14{fill:#4621B8;}
	.st15{fill:#6B1AFF;}
	.st16{fill:none;stroke:#000000;stroke-width:2.0117;stroke-miterlimit:10;}
	.st17{fill:none;stroke:#1F2D3D;stroke-width:4.1095;stroke-miterlimit:10;}
	.st18{fill:none;stroke:#4621B8;stroke-width:7.6902;stroke-miterlimit:10;}
	.st19{fill:#1A00CA;}
	.st20{fill:url(#SVGID_9_);}
	.st21{clip-path:url(#SVGID_8_);fill:#D7E3F1;}
	.st22{fill:#A753FF;}
	.st23{fill:none;stroke:#1F2D3D;stroke-width:3.0083;stroke-miterlimit:10;}
	.st24{fill:none;stroke:#000000;stroke-width:1.8486;stroke-miterlimit:10;}
	.st25{fill:none;stroke:#4621B8;stroke-width:7.3942;stroke-miterlimit:10;}
	.st26{fill:none;stroke:#000000;stroke-width:4.1095;stroke-miterlimit:10;}
	.st27{fill:none;stroke:#1F2D3D;stroke-width:3.7229;stroke-miterlimit:10;}
	.st28{fill:#04E7FF;}
	.st29{clip-path:url(#SVGID_8_);fill:#F2F7FA;}
	.st30{clip-path:url(#SVGID_8_);fill:#A753FF;}
	.st31{clip-path:url(#SVGID_8_);fill:none;stroke:#1F2D3D;stroke-width:4.1095;stroke-miterlimit:10;}
	.st32{clip-path:url(#SVGID_8_);fill:#6B1AFF;}
	.st33{clip-path:url(#SVGID_8_);fill:#00B4CC;}
	.st34{clip-path:url(#SVGID_10_);fill:#FFFFFF;}
	.st35{clip-path:url(#SVGID_10_);fill:#F2F7FA;}
	.st36{clip-path:url(#SVGID_10_);}
	.st37{fill:none;stroke:#39526D;stroke-width:1.1596;stroke-miterlimit:10;}
	.st38{fill:none;stroke:#00B4CC;stroke-width:1.1596;stroke-miterlimit:10;}
	.st39{clip-path:url(#SVGID_10_);fill:#39526D;}
	.st40{fill:none;stroke:#D7E3F1;stroke-width:1.2455;stroke-miterlimit:10;}
	.st41{fill:#00B4CC;}
	.st42{fill:none;stroke:#39526D;stroke-width:1.2371;stroke-miterlimit:10;}
	.st43{fill:none;stroke:#A753FF;stroke-width:2.4743;stroke-miterlimit:10;}
	.st44{fill:#1F2D3D;}
	.st45{fill:none;stroke:#000000;stroke-width:0.8957;stroke-miterlimit:10;}
	.st46{fill:none;stroke:#4621B8;stroke-width:3.5828;stroke-miterlimit:10;}
	.st47{fill:none;stroke:#39526D;stroke-width:1.0794;stroke-miterlimit:10;}
	.st48{fill:none;stroke:#1F2D3D;stroke-width:1.0794;stroke-miterlimit:10;}
	.st49{fill:none;stroke:#1F2D3D;stroke-width:1.7394;stroke-miterlimit:10;}
	.st50{fill:none;stroke:#000000;stroke-width:1.7394;stroke-miterlimit:10;}
	.st51{fill:url(#SVGID_11_);}
	.st52{fill:#FFFFFF;}
	.st53{fill:#C7D5E2;}
	.st54{clip-path:url(#SVGID_10_);fill:#D7E3F1;}
	.st55{clip-path:url(#SVGID_10_);fill:none;stroke:#D7E3F1;stroke-width:1.7394;stroke-miterlimit:10;}
	.st56{clip-path:url(#SVGID_10_);fill:none;stroke:#FFFFFF;stroke-width:1.7394;stroke-miterlimit:10;}
	.st57{clip-path:url(#SVGID_12_);fill:#FFFFFF;}
	.st58{clip-path:url(#SVGID_12_);fill:#F2F7FA;}
	.st59{clip-path:url(#SVGID_12_);}
	.st60{fill:none;stroke:#39526D;stroke-width:1.2599;stroke-miterlimit:10;}
	.st61{fill:none;stroke:#00B4CC;stroke-width:1.4896;stroke-miterlimit:10;}
	.st62{fill:none;stroke:#00B4CC;stroke-width:1.0531;stroke-miterlimit:10;}
	.st63{fill:none;stroke:#00B4CC;stroke-width:1.2599;stroke-miterlimit:10;}
	.st64{fill:none;stroke:#D7E3F1;stroke-width:1.7394;stroke-miterlimit:10;}
	.st65{fill:none;stroke:#39526D;stroke-width:1.1488;stroke-miterlimit:10;}
	.st66{fill:none;stroke:#4621B8;stroke-width:2.2976;stroke-miterlimit:10;}
	.st67{fill:none;stroke:#4621B8;stroke-width:3.4789;stroke-miterlimit:10;}
	.st68{fill:url(#SVGID_13_);}
	.st69{fill:none;stroke:#1F2D3D;stroke-width:1.7442;stroke-miterlimit:10;}
	.st70{fill:none;stroke:#000000;stroke-width:1.7442;stroke-miterlimit:10;}
	.st71{clip-path:url(#SVGID_14_);fill:#F2F7FA;}
	.st72{clip-path:url(#SVGID_14_);}
	.st73{clip-path:url(#SVGID_15_);fill:#F2F7FA;}
	.st74{clip-path:url(#SVGID_15_);}
	.st75{fill:none;stroke:#1F2D3D;stroke-width:2.899;stroke-linecap:round;stroke-miterlimit:10;}
	.st76{fill:#05E7FF;}
	.st77{clip-path:url(#SVGID_12_);fill:#00B4CC;}
	.st78{clip-path:url(#SVGID_16_);fill:#FFFFFF;}
	.st79{clip-path:url(#SVGID_16_);fill:#F2F7FA;}
	.st80{clip-path:url(#SVGID_16_);}
	.st81{fill:url(#SVGID_17_);}
	.st82{fill:none;stroke:#000000;stroke-width:0.7846;stroke-miterlimit:10;}
	.st83{fill:none;stroke:#4621B8;stroke-width:3.1384;stroke-miterlimit:10;}
	.st84{fill:url(#SVGID_18_);}
	.st85{clip-path:url(#SVGID_16_);fill:#00B4CC;}
	.st86{clip-path:url(#SVGID_16_);fill:none;stroke:#D7E3F1;stroke-width:1.7394;stroke-miterlimit:10;}
	.st87{clip-path:url(#SVGID_20_);fill:#F2F7FA;}
	.st88{clip-path:url(#SVGID_20_);fill:#6FFFFF;}
	.st89{clip-path:url(#SVGID_20_);}
	.st90{fill:url(#SVGID_21_);}
	.st91{opacity:0.5;}
	.st92{clip-path:url(#SVGID_20_);fill:url(#SVGID_23_);}
	.st93{clip-path:url(#SVGID_20_);fill:none;stroke:#A753FF;stroke-width:4;stroke-miterlimit:10;}
	.st94{clip-path:url(#SVGID_20_);fill:#A753FF;}
	.st95{fill:none;stroke:#39526D;stroke-width:3;stroke-miterlimit:10;}
	.st96{clip-path:url(#SVGID_20_);fill:#04E7FF;}
	.st97{clip-path:url(#SVGID_20_);fill:#00B4CC;}
	.st98{clip-path:url(#SVGID_20_);fill:#1A00CA;}
	.st99{clip-path:url(#SVGID_20_);fill:#4621B8;}
	.st100{fill:none;stroke:#39526D;stroke-width:4.8851;stroke-miterlimit:10;}
	.st101{fill:none;stroke:#00B4CC;stroke-width:5.7756;stroke-miterlimit:10;}
	.st102{fill:none;stroke:#00B4CC;stroke-width:4.0833;stroke-miterlimit:10;}
	.st103{fill:none;stroke:#00B4CC;stroke-width:4.8851;stroke-miterlimit:10;}
	.st104{clip-path:url(#SVGID_20_);fill:#FFFFFF;}
	.st105{clip-path:url(#SVGID_25_);fill:#FFFFFF;}
	.st106{clip-path:url(#SVGID_25_);fill:#F2F7FA;}
	.st107{clip-path:url(#SVGID_25_);}
	.st108{fill:none;stroke:#D7E3F1;stroke-width:1.9662;stroke-miterlimit:10;}
	.st109{fill:#CDDAE8;}
	.st110{fill:none;stroke:#D7E3F1;stroke-width:2.1414;stroke-miterlimit:10;}
	.st111{fill:none;stroke:#F2F7FA;stroke-width:1.6248;stroke-miterlimit:10;}
	.st112{fill:#ABBFCE;}
	.st113{fill:none;stroke:#39526D;stroke-width:3.098;stroke-miterlimit:10;}
	.st114{fill:none;stroke:#39526D;stroke-width:2.6754;stroke-miterlimit:10;}
	.st115{fill:none;stroke:#04E7FF;stroke-width:1.0327;stroke-miterlimit:10;}
	.st116{fill:none;stroke:#4621B8;stroke-width:2.0653;stroke-miterlimit:10;}
	.st117{fill:none;stroke:#39526D;stroke-width:3.7262;stroke-miterlimit:10;}
	.st118{fill:none;stroke:#39526D;stroke-width:3.2179;stroke-miterlimit:10;}
	.st119{fill:none;stroke:#04E7FF;stroke-width:1.2421;stroke-miterlimit:10;}
	.st120{fill:none;stroke:#4621B8;stroke-width:2.4841;stroke-miterlimit:10;}
	.st121{clip-path:url(#SVGID_25_);fill:#1A00CA;}
	.st122{fill:url(#SVGID_26_);}
	.st123{fill:none;stroke:#D7E3F1;stroke-width:1.4518;stroke-linecap:round;stroke-miterlimit:10;}
	.st124{fill:none;stroke:#1F2D3D;stroke-width:3.5459;stroke-miterlimit:10;}
	.st125{clip-path:url(#SVGID_28_);fill:#FFFFFF;}
	.st126{clip-path:url(#SVGID_28_);fill:#F2F7FA;}
	.st127{clip-path:url(#SVGID_28_);}
	.st128{fill:none;stroke:#E1EAF4;stroke-width:18.0109;stroke-miterlimit:10;}
	.st129{fill:none;stroke:#D7E3F1;stroke-width:3;stroke-miterlimit:10;}
	.st130{fill:none;stroke:#D7E3F1;stroke-miterlimit:10;}
	.st131{opacity:0.5;fill:#D7E3F1;}
	.st132{fill:#D0DDEA;}
	.st133{fill:none;stroke:#B8C8D8;stroke-miterlimit:10;}
	.st134{fill:#B8C8D8;}
	.st135{fill:none;stroke:#FFFFFF;stroke-miterlimit:10;}
	.st136{fill:none;stroke:#000000;stroke-width:2.1735;stroke-miterlimit:10;}
	.st137{fill:none;stroke:#000000;stroke-width:4.8318;stroke-miterlimit:10;}
	.st138{fill:url(#SVGID_29_);}
	.st139{fill:none;stroke:#1F2D3D;stroke-width:3.2124;stroke-miterlimit:10;}
	.st140{fill:none;stroke:#1A00CA;stroke-width:3;stroke-miterlimit:10;}
	.st141{clip-path:url(#SVGID_28_);fill:none;stroke:#1F2D3D;stroke-width:3.2124;stroke-miterlimit:10;}
	.st142{fill:url(#SVGID_30_);}
	.st143{fill:none;stroke:#39526D;stroke-width:1.6111;stroke-miterlimit:10;}
	.st144{fill:none;stroke:#00B4CC;stroke-width:1.9048;stroke-miterlimit:10;}
	.st145{fill:none;stroke:#00B4CC;stroke-width:1.3467;stroke-miterlimit:10;}
	.st146{fill:none;stroke:#00B4CC;stroke-width:1.6111;stroke-miterlimit:10;}
	.st147{clip-path:url(#SVGID_28_);fill:#FFCC3D;}
	.st148{clip-path:url(#SVGID_28_);fill:#6B1AFF;}
	.st149{clip-path:url(#SVGID_28_);fill:none;stroke:#1F2D3D;stroke-width:2;stroke-miterlimit:10;}
	.st150{clip-path:url(#SVGID_31_);fill:#FFFFFF;}
	.st151{clip-path:url(#SVGID_31_);fill:#F2F7FA;}
	.st152{clip-path:url(#SVGID_31_);}
	.st153{fill:none;stroke:#39526D;stroke-width:2.173;stroke-miterlimit:10;}
	.st154{fill:none;stroke:#00B4CC;stroke-width:2.5691;stroke-miterlimit:10;}
	.st155{fill:none;stroke:#00B4CC;stroke-width:1.8163;stroke-miterlimit:10;}
	.st156{fill:none;stroke:#00B4CC;stroke-width:2.173;stroke-miterlimit:10;}
	.st157{fill:none;stroke:#39526D;stroke-width:1.9813;stroke-miterlimit:10;}
	.st158{fill:none;stroke:#4621B8;stroke-width:3.9627;stroke-miterlimit:10;}
	.st159{fill:url(#SVGID_32_);}
	.st160{fill:#FFFFFF;stroke:#39526D;stroke-width:3.0083;stroke-miterlimit:10;}
	.st161{fill:none;stroke:#04E7FF;stroke-width:2.2015;stroke-miterlimit:10;}
	.st162{fill:url(#SVGID_33_);}
	.st163{fill:url(#SVGID_34_);}
	.st164{fill:url(#SVGID_35_);}
	.st165{fill:url(#SVGID_36_);}
	.st166{fill:url(#SVGID_37_);}
	.st167{fill:url(#SVGID_38_);}
	.st168{fill:url(#SVGID_39_);}
	.st169{fill:url(#SVGID_40_);}
	.st170{fill:url(#SVGID_41_);}
	.st171{fill:url(#SVGID_42_);}
	.st172{fill:none;stroke:#04E7FF;stroke-width:2.001;stroke-miterlimit:10;}
	.st173{fill:none;stroke:#6B1AFF;stroke-width:3.5018;stroke-miterlimit:10;}
	.st174{fill:none;stroke:#04E7FF;stroke-width:2.6422;stroke-miterlimit:10;}
	.st175{fill:none;stroke:#4621B8;stroke-width:2.3947;stroke-miterlimit:10;}
	.st176{fill:none;stroke:#000000;stroke-width:3.0083;stroke-miterlimit:10;}
	.st177{fill:none;stroke:#000000;stroke-width:1.3532;stroke-miterlimit:10;}
	.st178{fill:none;stroke:#4621B8;stroke-width:5.4128;stroke-miterlimit:10;}
	.st179{fill:url(#SVGID_43_);}
	.st180{clip-path:url(#SVGID_31_);fill:#00B4CC;}
	.st181{clip-path:url(#SVGID_31_);fill:none;stroke:#D7E3F1;stroke-width:3;stroke-miterlimit:10;}
	.st182{clip-path:url(#SVGID_44_);fill:#FFFFFF;}
	.st183{clip-path:url(#SVGID_44_);fill:#F2F7FA;}
	.st184{clip-path:url(#SVGID_44_);}
	.st185{fill:url(#SVGID_45_);}
	.st186{fill:url(#SVGID_46_);}
	.st187{fill:url(#SVGID_47_);}
	.st188{fill:url(#SVGID_48_);}
	.st189{fill:url(#SVGID_49_);}
	.st190{fill:url(#SVGID_50_);}
	.st191{fill:url(#SVGID_51_);}
	.st192{fill:url(#SVGID_52_);}
	.st193{fill:url(#SVGID_53_);}
	.st194{fill:url(#SVGID_54_);}
	.st195{fill:url(#SVGID_55_);}
	.st196{fill:url(#SVGID_56_);}
	.st197{clip-path:url(#SVGID_44_);fill:#00B4CC;}
	.st198{clip-path:url(#SVGID_44_);fill:none;stroke:#D7E3F1;stroke-width:3;stroke-miterlimit:10;}
	.st199{fill:#3720D1;}
	.st200{fill:none;stroke:#351ED0;stroke-linecap:round;stroke-linejoin:round;stroke-miterlimit:10;}
</style>
<g id="Layer_1">
	<g>
		<defs>
			<rect id="SVGID_7_" y="0" width="1920" height="1080"/>
		</defs>
		<clipPath id="SVGID_8_">
			<use xlink:href="#SVGID_7_"  style="overflow:visible;"/>
		</clipPath>
		<rect x="-102.48" y="-39.61" class="st0" width="2003.13" height="1136.26"/>
		<g class="st1">
			<rect x="70.95" y="73.32" class="st2" width="17.69" height="1215.33"/>
			<rect x="88.64" y="217.03" class="st2" width="766.21" height="12.25"/>
			<rect x="88.64" y="496.36" class="st2" width="766.21" height="12.25"/>
			<rect x="88.64" y="775.69" class="st2" width="766.21" height="12.25"/>
			<rect x="88.64" y="1055.02" class="st2" width="766.21" height="12.25"/>
			<polygon class="st3" points="132.69,496.36 132.69,253.09 832.17,253.09 832.17,229.28 88.64,229.28 88.64,496.36 			"/>
			<polygon class="st3" points="132.69,217.03 132.69,-26.24 832.17,-26.24 832.17,-50.05 88.64,-50.05 88.64,217.03 			"/>
			<polygon class="st3" points="132.51,775.69 132.51,532.42 831.99,532.42 831.99,508.61 88.46,508.61 88.46,775.69 			"/>
			<polygon class="st3" points="132.69,1055.02 132.69,811.75 832.17,811.75 832.17,787.94 88.64,787.94 88.64,1055.02 			"/>
			<polygon class="st3" points="132.69,1329.87 132.69,1086.6 832.17,1086.6 832.17,1062.79 88.64,1062.79 88.64,1329.87 			"/>
			<path class="st4" d="M436,496.36H329.96c-2.43,0-4.4-1.97-4.4-4.4v-16.4c0-2.43,1.97-4.4,4.4-4.4H436c2.43,0,4.4,1.97,4.4,4.4
				v16.4C440.39,494.39,438.43,496.36,436,496.36z"/>
			<path class="st5" d="M449.37,471.17H340.76c-1.72,0-3.11-1.39-3.11-3.11v-6.38c0-1.72,1.39-3.11,3.11-3.11h108.61
				c1.72,0,3.11,1.39,3.11,3.11v6.38C452.48,469.77,451.09,471.17,449.37,471.17z"/>
			<path class="st2" d="M441.9,458.57H334.13c-1.95,0-3.53-1.58-3.53-3.53v-9.2c0-1.95,1.58-3.53,3.53-3.53H441.9
				c1.95,0,3.53,1.58,3.53,3.53v9.2C445.43,456.99,443.85,458.57,441.9,458.57z"/>
			<path class="st5" d="M354.3,126.41h-48.26c-11.7,0-21.18,9.48-21.18,21.18v69.44h90.62v-69.44
				C375.48,135.89,366,126.41,354.3,126.41z"/>
			<path class="st2" d="M451.96,73.32h-37.28c-14.73,0-26.67,11.94-26.67,26.67v117.04h90.62V99.98
				C478.63,85.26,466.69,73.32,451.96,73.32z"/>
			<path class="st5" d="M235.95,775.93h-33.64v-22.15c0-8.21,6.65-14.86,14.86-14.86h3.93c8.21,0,14.86,6.65,14.86,14.86V775.93z"/>
			<path class="st5" d="M340.28,1055.02H237.77c-7.42,0-13.44-6.02-13.44-13.44v-33.16c0-7.42,6.02-13.44,13.44-13.44h102.51
				c7.42,0,13.44,6.02,13.44,13.44v33.16C353.72,1049,347.7,1055.02,340.28,1055.02z"/>
			<path class="st5" d="M497.46,1055.02H394.95c-7.42,0-13.44-6.02-13.44-13.44v-33.16c0-7.42,6.02-13.44,13.44-13.44h102.51
				c7.42,0,13.44,6.02,13.44,13.44v33.16C510.9,1049,504.88,1055.02,497.46,1055.02z"/>
			<path class="st2" d="M302.59,994.98h-3c-12.69,0-22.98-10.29-22.98-22.98v0c0-12.69,10.29-22.98,22.98-22.98h3
				c12.69,0,22.98,10.29,22.98,22.98v0C325.56,984.69,315.28,994.98,302.59,994.98z"/>
			<rect x="827.15" y="-106.57" class="st2" width="32.11" height="1243.35"/>
			<circle class="st2" cx="235.95" cy="422.37" r="73.99"/>
			<circle class="st4" cx="325.4" cy="701.94" r="73.99"/>
			<circle class="st4" cx="485.91" cy="735.45" r="40.48"/>
			<path class="st2" d="M470.34,993.97h-90.75c-11.97,0-21.67-9.7-21.67-21.67v-80.07c0-11.97,9.7-21.67,21.67-21.67h90.75
				c11.97,0,21.67,9.7,21.67,21.67v80.07C492.01,984.27,482.31,993.97,470.34,993.97z"/>
		</g>
		<g class="st1">
			<rect x="920.33" y="73.32" class="st2" width="17.69" height="1215.33"/>
			<rect x="938.02" y="217.03" class="st2" width="766.21" height="12.25"/>
			<rect x="938.02" y="496.36" class="st2" width="766.21" height="12.25"/>
			<rect x="938.02" y="775.69" class="st2" width="766.21" height="12.25"/>
			<rect x="938.02" y="1055.02" class="st2" width="766.21" height="12.25"/>
			<polygon class="st3" points="982.08,496.36 982.08,253.09 1681.55,253.09 1681.55,229.28 938.02,229.28 938.02,496.36 			"/>
			<polygon class="st3" points="982.08,217.03 982.08,-26.24 1681.55,-26.24 1681.55,-50.05 938.02,-50.05 938.02,217.03 			"/>
			<polygon class="st3" points="981.9,775.69 981.9,532.42 1681.37,532.42 1681.37,508.61 937.84,508.61 937.84,775.69 			"/>
			<polygon class="st3" points="982.08,1055.02 982.08,811.75 1681.55,811.75 1681.55,787.94 938.02,787.94 938.02,1055.02 			"/>
			<polygon class="st3" points="982.08,1329.87 982.08,1086.6 1681.55,1086.6 1681.55,1062.79 938.02,1062.79 938.02,1329.87 			"/>
			<path class="st4" d="M1285.38,496.36h-106.04c-2.43,0-4.4-1.97-4.4-4.4v-16.4c0-2.43,1.97-4.4,4.4-4.4h106.04
				c2.43,0,4.4,1.97,4.4,4.4v16.4C1289.78,494.39,1287.81,496.36,1285.38,496.36z"/>
			<path class="st5" d="M1298.76,471.17h-108.61c-1.72,0-3.11-1.39-3.11-3.11v-6.38c0-1.72,1.39-3.11,3.11-3.11h108.61
				c1.72,0,3.11,1.39,3.11,3.11v6.38C1301.86,469.77,1300.47,471.17,1298.76,471.17z"/>
			<path class="st2" d="M1291.28,458.57h-107.77c-1.95,0-3.53-1.58-3.53-3.53v-9.2c0-1.95,1.58-3.53,3.53-3.53h107.77
				c1.95,0,3.53,1.58,3.53,3.53v9.2C1294.81,456.99,1293.23,458.57,1291.28,458.57z"/>
			<path class="st5" d="M1203.68,126.41h-48.26c-11.7,0-21.18,9.48-21.18,21.18v69.44h90.62v-69.44
				C1224.86,135.89,1215.38,126.41,1203.68,126.41z"/>
			<path class="st2" d="M1309.84,150.25h-54.26c-10.04,0-18.18,8.14-18.18,18.18v48.6h90.62v-48.6
				C1328.02,158.39,1319.88,150.25,1309.84,150.25z"/>
			<path class="st5" d="M1085.33,775.93h-33.64v-22.15c0-8.21,6.65-14.86,14.86-14.86h3.93c8.21,0,14.86,6.65,14.86,14.86V775.93z"
				/>
			<path class="st5" d="M1189.66,1055.02h-102.51c-7.42,0-13.44-6.02-13.44-13.44v-33.16c0-7.42,6.02-13.44,13.44-13.44h102.51
				c7.42,0,13.44,6.02,13.44,13.44v33.16C1203.1,1049,1197.08,1055.02,1189.66,1055.02z"/>
			<path class="st5" d="M1346.84,1055.02h-102.51c-7.42,0-13.44-6.02-13.44-13.44v-33.16c0-7.42,6.02-13.44,13.44-13.44h102.51
				c7.42,0,13.44,6.02,13.44,13.44v33.16C1360.28,1049,1354.26,1055.02,1346.84,1055.02z"/>
			<path class="st2" d="M1151.97,994.98h-3c-12.69,0-22.98-10.29-22.98-22.98v0c0-12.69,10.29-22.98,22.98-22.98h3
				c12.69,0,22.98,10.29,22.98,22.98v0C1174.95,984.69,1164.66,994.98,1151.97,994.98z"/>
			<rect x="1676.53" y="-106.57" class="st2" width="32.11" height="1243.35"/>
			<path class="st4" d="M1524.27,410.2l-41.3,73.65c-3.41,6.08,0.98,13.58,7.95,13.58h82.59c6.97,0,11.36-7.5,7.95-13.58
				l-41.3-73.65C1536.7,403.99,1527.76,403.99,1524.27,410.2z"/>
			<circle class="st2" cx="1085.33" cy="422.37" r="73.99"/>
			<circle class="st2" cx="1449.53" cy="182.17" r="37"/>
			<circle class="st4" cx="1545.66" cy="182.17" r="37"/>
			<circle class="st4" cx="1631.72" cy="196.65" r="22.51"/>
			<circle class="st2" cx="1585.87" cy="701.94" r="73.99"/>
			<circle class="st2" cx="1439.28" cy="735.45" r="40.48"/>
			<path class="st2" d="M1319.72,993.97h-90.75c-11.97,0-21.67-9.7-21.67-21.67v-80.07c0-11.97,9.7-21.67,21.67-21.67h90.75
				c11.97,0,21.67,9.7,21.67,21.67v80.07C1341.4,984.27,1331.69,993.97,1319.72,993.97z"/>
		</g>
		<g class="st1">
			<rect x="1756.46" y="73.66" class="st2" width="17.69" height="1215.33"/>
			<rect x="1774.15" y="217.37" class="st2" width="766.21" height="12.25"/>
			<rect x="1774.15" y="496.7" class="st2" width="766.21" height="12.25"/>
			<rect x="1774.15" y="776.03" class="st2" width="766.21" height="12.25"/>
			<rect x="1774.15" y="1055.36" class="st2" width="766.21" height="12.25"/>
			<polygon class="st3" points="1818.21,496.7 1818.21,253.43 2517.68,253.43 2517.68,229.62 1774.15,229.62 1774.15,496.7 			"/>
			<polygon class="st3" points="1818.21,217.37 1818.21,-25.9 2517.68,-25.9 2517.68,-49.71 1774.15,-49.71 1774.15,217.37 			"/>
			<polygon class="st3" points="1818.02,776.03 1818.02,532.76 2517.5,532.76 2517.5,508.95 1773.97,508.95 1773.97,776.03 			"/>
			<polygon class="st3" points="1818.21,1055.36 1818.21,812.09 2517.68,812.09 2517.68,788.28 1774.15,788.28 1774.15,1055.36 			
				"/>
			<polygon class="st3" points="1818.21,1330.21 1818.21,1086.94 2517.68,1086.94 2517.68,1063.13 1774.15,1063.13 1774.15,1330.21 
							"/>
			<path class="st5" d="M1921.46,776.27h-33.64v-22.15c0-8.21,6.65-14.86,14.86-14.86h3.93c8.21,0,14.86,6.65,14.86,14.86V776.27z"
				/>
			<path class="st5" d="M2025.79,1055.36h-102.51c-7.42,0-13.44-6.02-13.44-13.44v-33.16c0-7.42,6.02-13.44,13.44-13.44h102.51
				c7.42,0,13.44,6.02,13.44,13.44v33.16C2039.23,1049.34,2033.21,1055.36,2025.79,1055.36z"/>
			<circle class="st2" cx="1921.46" cy="422.71" r="73.99"/>
		</g>
		<g class="st1">
			<rect x="-738.27" y="217.03" class="st2" width="766.21" height="12.25"/>
			<rect x="-738.27" y="496.36" class="st2" width="766.21" height="12.25"/>
			<rect x="-738.27" y="775.69" class="st2" width="766.21" height="12.25"/>
			<rect x="-738.27" y="1055.02" class="st2" width="766.21" height="12.25"/>
			<polygon class="st3" points="-694.21,496.36 -694.21,253.09 5.26,253.09 5.26,229.28 -738.27,229.28 -738.27,496.36 			"/>
			<polygon class="st3" points="-694.21,217.03 -694.21,-26.24 5.26,-26.24 5.26,-50.05 -738.27,-50.05 -738.27,217.03 			"/>
			<polygon class="st3" points="-694.39,775.69 -694.39,532.42 5.08,532.42 5.08,508.61 -738.45,508.61 -738.45,775.69 			"/>
			<polygon class="st3" points="-694.21,1055.02 -694.21,811.75 5.26,811.75 5.26,787.94 -738.27,787.94 -738.27,1055.02 			"/>
			<polygon class="st3" points="-694.21,1329.87 -694.21,1086.6 5.26,1086.6 5.26,1062.79 -738.27,1062.79 -738.27,1329.87 			"/>
			<rect x="0.24" y="-106.57" class="st2" width="32.11" height="1243.35"/>
		</g>
		<g class="st1">
			<g>
				<line class="st6" x1="168.22" y1="1055.57" x2="168.22" y2="730.16"/>
				<path class="st7" d="M168.17,730.16c0,0-7.87-144.12-7.89-144.47c-1.06-19.36-1.48-40.89-16.4-55.76
					c-13.88-13.85-36.86-20.48-54.1-8.81c-9.78,6.62-14.46,18.15-14.74,29.68c-0.35,14.55,4.41,29.79,10.63,42.81
					C114.63,654.22,168.17,730.16,168.17,730.16z"/>
				<line class="st8" x1="168.17" y1="730.16" x2="105.12" y2="515.3"/>
				<path class="st7" d="M169.58,731.19c0,0,48.99-89.52,49.11-89.73c6.58-12.02,14.35-25.12,10.94-39.61
					c-3.18-13.49-14.51-26.04-29.22-25.46c-8.35,0.33-15.45,5.51-19.92,12.34c-5.63,8.61-8.45,19.54-9.57,29.68
					C165.72,665.61,169.58,731.19,169.58,731.19z"/>
				<line class="st9" x1="169.58" y1="731.19" x2="211.78" y2="578.61"/>
				<path class="st6" d="M168.21,841.65c0.01-1.62,43.35-76.35,43.35-76.35"/>
				<path class="st7" d="M211.56,765.3l50.9-88.8c0,0,17.07-37.36,48.65-25.66c8.15,3.02,13.97,10.54,14.35,19.22
					c0.47,10.54-5.29,26.01-31.41,44.69C261.15,738.28,211.56,765.3,211.56,765.3z"/>
				<line class="st10" x1="211.56" y1="765.3" x2="311.11" y2="650.83"/>
				<path class="st7" d="M151.5,899.9L51.12,770.37c0,0-21.96-32.57-52.1-23.74c-9.59,2.81-16.94,10.38-19.23,20.11
					c-2.92,12.42-1.34,31.43,24.96,48.57C48.05,843.51,151.5,899.9,151.5,899.9z"/>
				<line class="st10" x1="151.5" y1="899.9" x2="-7.05" y2="749.21"/>
				<line class="st10" x1="-21.26" y1="783.75" x2="52" y2="805.34"/>
				<line class="st6" x1="149.15" y1="897.67" x2="168.22" y2="920.15"/>
				<path class="st7" d="M184.69,981.86l51.58-80.92c0,0,8.5-16.7,22.18-21.92c16.54-6.31,31.78,11.21,23.88,27.05
					c-2.66,5.34-7.45,11.48-15.48,18.35C234.73,951.9,184.69,981.86,184.69,981.86z"/>
				<line class="st10" x1="184.69" y1="981.86" x2="275.77" y2="880.92"/>
				<line class="st10" x1="282.33" y1="906.07" x2="224.09" y2="938.19"/>
				<line class="st6" x1="168.22" y1="1006.57" x2="184.69" y2="981.86"/>
			</g>
			<path class="st11" d="M87.64,1106.89h167.51v-47.22c0-9.87-8-17.87-17.87-17.87H105.52c-9.87,0-17.87,8-17.87,17.87V1106.89z"/>
		</g>
		<g class="st1">
			<polyline class="st12" points="1467.84,438.51 1825.7,622.63 1532.23,1120.95 			"/>
			<circle class="st13" cx="1383.28" cy="544.89" r="32.17"/>
			<path class="st14" d="M1483.49,625.85l-207.46-152.3c73.56-54.55,132.15-38.68,132.15-38.68l72.61,53.3
				C1480.79,488.18,1513.48,539.32,1483.49,625.85z"/>
			<path class="st15" d="M1499.06,463.28l-18.28,24.9l-72.61-53.3l18.28-24.9c14.72-20.05,42.9-24.37,62.96-9.65
				C1509.46,415.04,1513.78,443.23,1499.06,463.28z"/>
			<line class="st16" x1="1405.98" y1="541.53" x2="1388.81" y2="528.92"/>
			<line class="st16" x1="1490.14" y1="603.31" x2="1418.77" y2="550.91"/>
			<circle class="st14" cx="1822.11" cy="622.63" r="14.13"/>
			<polyline class="st12" points="1836.24,603.31 1822.11,622.63 1842.99,634.5 			"/>
			<line class="st17" x1="1123.01" y1="584.64" x2="1085.33" y2="611.99"/>
			<line class="st17" x1="1244.45" y1="500.14" x2="1153.87" y2="562.24"/>
			<line class="st17" x1="1479.75" y1="670.19" x2="1458.04" y2="822.23"/>
			<line class="st17" x1="1403.17" y1="753.73" x2="1360.28" y2="877.7"/>
		</g>
		<g class="st1">
			<path class="st18" d="M321.92,831.48v305.46c0,84.65,68.62,153.27,153.27,153.27h84.88"/>
			<path class="st18" d="M560.07,831.48v305.46c0,84.65,68.62,153.27,153.27,153.27h84.88"/>
			<path class="st19" d="M318.28,903.5h202.75c45.58,0,82.53-36.95,82.53-82.53V672.11c0-45.58-36.95-82.53-82.53-82.53H318.28
				c-45.58,0-82.53,36.95-82.53,82.53v148.87C235.75,866.55,272.7,903.5,318.28,903.5z"/>
			
				<linearGradient id="SVGID_9_" gradientUnits="userSpaceOnUse" x1="-2420.7034" y1="746.5429" x2="-2052.9006" y2="746.5429" gradientTransform="matrix(-1 0 0 1 -1767.5238 0)">
				<stop  offset="0" style="stop-color:#4620B9"/>
				<stop  offset="1" style="stop-color:#6B1BFF"/>
			</linearGradient>
			<path class="st20" d="M367.9,903.5h202.75c45.58,0,82.53-36.95,82.53-82.53V672.11c0-45.58-36.95-82.53-82.53-82.53H367.9
				c-45.58,0-82.53,36.95-82.53,82.53v148.87C285.38,866.55,322.32,903.5,367.9,903.5z"/>
		</g>
		<path class="st21" d="M1356.02,1023.22h-149.85c-22.88,0-41.42-18.54-41.42-41.42V857.76c0-22.88,18.54-41.42,41.42-41.42h149.85
			c22.88,0,41.42,18.54,41.42,41.42V981.8C1397.44,1004.67,1378.89,1023.22,1356.02,1023.22z"/>
		<g class="st1">
			<g>
				<path class="st22" d="M988.22,728.14c0,0,80.54,180.39,104.02,259.01l-127.86,39.58c0,0-100.41-162.94-122.1-222.89
					C820.59,743.88,949.96,715.75,988.22,728.14z"/>
				<circle class="st2" cx="797.8" cy="575.28" r="98.91"/>
				<path class="st2" d="M880.44,520.92c0,0,57.95,84.77,112.34,209.46c0,0-46.53,52.84-177.92,102.9L713.82,627.56L880.44,520.92z"
					/>
				<path class="st23" d="M977.76,694.76c0,0-83.91,70.64-130.88,82.68"/>
			</g>
			<g>
				<path class="st22" d="M983.78,957.8l136.77-126.28c0,0,58.4,39.87,77.03,61.8c0,0-57.03,80.71-123.56,162.98L983.78,957.8z"/>
				<circle class="st22" cx="1028.36" cy="1007.56" r="66.79"/>
				<path class="st23" d="M1041.43,902.82l-33.08,30.51c0,0-16.94,14.92-28.47,28.29"/>
			</g>
			<path class="st22" d="M555.43,442.45c0,0,87.91,99.09,139.76,80.16c0,0,13.18-43.58,17.21-89.26c1.2-13.8,1.58-27.8,0.52-40.83
				c-0.82-10.1-2.53-19.62-5.37-28.05c-18.7-55.35-141.25-83.23-141.25-83.23S581.86,362.13,555.43,442.45z"/>
			<path class="st15" d="M662.12,382.26c10.57,41.43,38.82,49.52,50.28,51.09c1.2-13.8,1.58-27.8,0.52-40.83
				C695.48,360.62,652.42,344.24,662.12,382.26z"/>
			<g>
				<path class="st22" d="M567.33,289.76c0.45,0.63,0.92,1.24,1.38,1.87c8.92,12.06,14.82,26.72,22.55,39.56
					c11.62,19.31,25.23,37.58,42.07,52.66c45.35,40.59,129.2,59.84,175.85,10.92c6.65-6.97,12.2-14.96,16.53-23.57
					c13.94-27.71,13.29-56.67,13.85-86.8c0.17-8.77,0.48-17.54,1.31-26.27c0.53-5.6,1.09-11.2,1.61-16.8
					c2.9-30.94,4.85-61.98-5.72-91.48c-13.77-38.52-44.9-69.22-81.9-85.87c-2.02-0.92-4.07-1.79-6.13-2.61
					c0,0-63.1-24.34-126.01,10.64c-36.76,20.42-66.29,58.8-74.64,106.16C542.12,211.87,546.85,250.13,567.33,289.76z"/>
				<path class="st24" d="M749.97,332.88c0,0,7.92,14.79,23.31,13.18"/>
				<path class="st14" d="M655.73,173.45c0,0,84.29,26.86,161.27,21.33s94.76-91.91,55.06-124.31c-39.7-32.4-80.59-4.65-80.59-4.65
					c6.4-14.44-20.56-35.97-41.89-12.68c0,0-92.43-52.33-141.71,17.24c0,0-64.77,3.35-70.3,98.18s31.14,123.09,31.14,123.09
					l40.75-37.03h16.32C625.78,254.6,624.65,166.99,655.73,173.45z"/>
				<g>
					<path class="st22" d="M616.19,257.58l-18.95-20.24c-8.78-9.37-23.72-9.12-32.18,0.55v0c-7.02,8.02-7.17,19.95-0.36,28.15
						l22.14,26.67L616.19,257.58z"/>
					<path class="st24" d="M565.06,237.89L565.06,237.89c-7.02,8.02-7.17,19.95-0.36,28.15"/>
					<path class="st24" d="M616.19,257.58l-18.95-20.24c-8.78-9.37-23.72-9.12-32.18,0.55"/>
					<line class="st24" x1="579.17" y1="249.68" x2="600.59" y2="271.45"/>
				</g>
				<path class="st25" d="M749.97,218.77c0,0-26.01-3.77-44.51,10.37"/>
				<path class="st25" d="M813.05,223.88c0,0,19.76-0.85,30.47,9.55"/>
				<path class="st24" d="M785.06,282.84c0,0,1.96,5.2,9.16,8.4c6.63,2.95,3.62,10.85-4.22,15.06"/>
				<path d="M729.55,275.79L729.55,275.79c3.11,0,5.63-2.52,5.63-5.63v-7.14c0-3.11-2.52-5.63-5.63-5.63l0,0
					c-3.11,0-5.63,2.52-5.63,5.63v7.14C723.92,273.27,726.44,275.79,729.55,275.79z"/>
				<path d="M822.63,275.79L822.63,275.79c3.11,0,5.63-2.52,5.63-5.63v-7.14c0-3.11-2.52-5.63-5.63-5.63l0,0
					c-3.11,0-5.63,2.52-5.63,5.63v7.14C817,273.27,819.52,275.79,822.63,275.79z"/>
			</g>
			<path class="st17" d="M940.71,955.72l-20.31-8.89c0,0-12.53-7.1-34.79,0"/>
			<g>
				<path class="st19" d="M835.13,1003.48c0,0.05,7.05,73.97,4.37,110.07l365.52,90.49c82.62,20.45,92.4,133.98,14.49,168.26
					l-201.84,88.81c-88.84,2.25-178.21-0.98-266.78-7.76c-71.22-5.45-142.63-13.47-212.53-28.49
					c-71.39-15.34-158.2-38.34-194.24-108.97c-33.2-65.09-15.3-147.84,16.09-210.03c14.82-29.36,41.44-68.64,49.88-86.16
					c0,0,306.9-11.71,417.98-15.95C828.4,1003.74,835.13,1003.48,835.13,1003.48z"/>
			</g>
			<g>
				<path class="st2" d="M374.1,507.05c24.67-40.75,86.37-56.1,128.49-66.46c24.73-6.08,52.84-2.08,52.84-2.08
					c15.93,10.87,63.7,68.05,117.9,78.27c32.08-22.07,37.7-70.59,37.7-70.59s29.25,3.34,74.03,11.65
					c20.75,3.85,55.78,24.29,68.78,35.92c34.23,30.65,25.17,77.27,20.46,176.04c-6.49,136.28-39.17,333.68-39.17,333.68
					s-266.06,19.47-425.05,16.22c0,0,10.11-210.9,3.63-262.82"/>
				<path class="st17" d="M716.9,443.93c18.35,27.37,29.76,54.12,37.38,81.15c1.79,6.34,5.74,13.94,2.17,20.2
					c-2.11,3.7-6.29,6.13-10.55,6.14c-7.45,0.01-15.98-6.34-22.63-9.67c-7.3-3.65-14.6-7.3-21.89-10.95
					c-9.35-4.67-18.7-9.35-28.05-14.02c-3.54-1.77-32.86,43.09-37.72,47.16c-21.14,17.75-37.24-19.13-45.58-33.07
					c-11.77-19.68-22.47-40.06-31.98-60.92c-4.61-10.11-9.73-23.13-13.24-33.68"/>
				<path class="st17" d="M673.33,516.78c0,0,50.63,207.36,46.41,486.55"/>
				<path class="st15" d="M487.59,444.27c0,0,121.84,92.19,77.47,213.82c0,0-1.98,79.11-46.14,120.22l7.4,278.31l179.13,162.73
					l248.76-51.7c0,0-99.42-151.9-99.7-203.03c-0.14-25,5.42-75.98,11.13-121.54c10.9-87,4.8-175.41-19.12-259.76
					c-14.15-49.89-34.04-98.29-61.45-125.46l-35.1-5.71c0,0,46.82,59.42,63.08,143.96c0,0-57.38,34.68-197.09,4.4
					c0,0-22.09-116.84-102.24-161.98L487.59,444.27z"/>
				<g>
					<path class="st27" d="M777.77,696.44c-38.2,13.46-124.25,8.21-124.25,8.21v27.49l-2.17,72.53c0,0,68.26,30.01,90.2,34.23
						l58.65-29.69v-25.72"/>
					<path class="st27" d="M653.52,726.17c0,0,47,2.63,68.52,0"/>
				</g>
			</g>
			<g>
				<path class="st22" d="M385.94,886.57c0,0,28.37,128,65.36,200.18l66.32-36.01l47.07-58.99l-10.14-122
					C554.56,869.75,442.53,857.38,385.94,886.57z"/>
				<circle class="st2" cx="456.91" cy="564.87" r="100.97"/>
				<path class="st2" d="M557.87,563.26l-0.03,309.81c0,0-101.9-6.89-175.3,20.04c-24.08-139.35-32.89-295.65-26.04-338.89
					L557.87,563.26z"/>
				<path class="st23" d="M558.84,829.57c0,0-55.51-18.36-108.43-4.45"/>
				<polyline class="st23" points="544.51,873.27 557.84,873.06 557.2,691.2 				"/>
			</g>
			<circle class="st19" cx="1095.91" cy="881.77" r="141.7"/>
			<path class="st28" d="M1613.91,1136.78H769.96c-12.17,0-22.03-9.86-22.03-22.03v-69.51c0-12.17,9.86-22.03,22.03-22.03h843.95
				c12.17,0,22.03,9.86,22.03,22.03v69.51C1635.94,1126.92,1626.08,1136.78,1613.91,1136.78z"/>
			<path class="st22" d="M1222.36,799.04c0,0-41.39-14.93-50.89-13.57c-9.5,1.36-37.99,20.35-39.35,24.43s9.5,12.21,26.46,8.14
				s21.71-6.78,21.71-6.78s-34.6,13.57-39.35,14.93c-4.75,1.36-13.12,11.53-8.93,15.6c4.19,4.07,30.75,8.82,44.61,4.07
				s43.03,1.98,43.03,1.98l-27.71,21.08c0,0-6.89,28.5-6.21,32.57c0.68,4.07,21.03,0,23.07-10.18c2.04-10.18,28.81-9.54,28.81-9.54
				s2.68,31.58-20.81,73.95c0,0,37.44-26.8,42.21-86.79C1263.75,818.04,1222.36,799.04,1222.36,799.04z"/>
			<g>
				<path class="st22" d="M571.89,998.28c35.17-10.24,304.22-74.14,304.22-74.14l29.26,66.22c-65.9,32.59-131.9,62.41-199.86,90.44
					c-36.61,15.1-73.62,29.67-111.56,41.12c-40.76,12.3-86.31,16-123.24-12.05L571.89,998.28z"/>
				<circle class="st22" cx="517.63" cy="1050.74" r="75.46"/>
				<path class="st23" d="M654.7,976.69c0,0-71.61,14.57-97.04,27.48"/>
			</g>
			<g>
				<path class="st22" d="M980.86,909.34c0,0,6.02,49.09-75.68,81.13l-31.54-65.57c0,0,62.46-52.3,88.6-72.18L980.86,909.34z"/>
				<circle class="st22" cx="889.32" cy="957.88" r="36.23"/>
				<g>
					<circle class="st22" cx="969.89" cy="861.71" r="11.8"/>
					<polygon class="st22" points="1007.74,839.98 968.04,850.05 971.99,873.32 1012.97,860.38 					"/>
				</g>
				<g>
					<circle class="st22" cx="1010.35" cy="850.18" r="10.54"/>
					<path class="st22" d="M1011.81,839.75l43.94,4.23c0,0,2.5,1.26,0.8,6.3c-1.69,5.04-10.85,14.62-48.57,10.17L1011.81,839.75z"/>
				</g>
				<g>
					<circle class="st22" cx="975.51" cy="866.25" r="11.8"/>
					<polygon class="st22" points="1019.09,868.63 980.3,855.47 970.95,877.14 1012.37,888.6 					"/>
				</g>
				<g>
					<circle class="st22" cx="1015.72" cy="878.61" r="10.54"/>
					<path class="st22" d="M1025.39,874.42l19.32,39.7c0,0,0.23,2.79-4.95,3.97s-18.13-1.63-34.02-36.13L1025.39,874.42z"/>
				</g>
				<g>
					<circle class="st22" cx="977.94" cy="883.61" r="11.34"/>
					<polygon class="st22" points="1019.83,885.9 982.55,873.25 973.55,894.07 1013.37,905.09 					"/>
				</g>
				<g>
					<circle class="st22" cx="1016.59" cy="895.49" r="10.13"/>
					<path class="st22" d="M1026.59,893.83l8.79,41.52c0,0-0.43,2.65-5.54,2.55s-16.53-5.74-23.34-41.61L1026.59,893.83z"/>
				</g>
				<g>
					<circle class="st22" cx="981.77" cy="899.8" r="9.58"/>
					<polygon class="st22" points="1017.13,901.73 985.66,891.05 978.07,908.63 1011.68,917.94 					"/>
				</g>
				<g>
					<circle class="st22" cx="1014.21" cy="909.69" r="8.55"/>
					<path class="st22" d="M1022.06,913.08l-12.75,33.48c0,0-1.52,1.68-5.1-0.72c-3.58-2.41-9.11-11.63,2.47-40.19L1022.06,913.08z"
						/>
				</g>
			</g>
		</g>
		<path class="st29" d="M1230.59,1023.52h-94.24c-7.37,0-13.34-5.97-13.34-13.34v-70.96c0-7.37,5.97-13.34,13.34-13.34h94.24
			c7.37,0,13.34,5.97,13.34,13.34v70.96C1243.93,1017.55,1237.96,1023.52,1230.59,1023.52z"/>
		<path class="st30" d="M1526.87,1023.52h-69.72c-9.88,0-17.88-8.01-17.88-17.88v-13.06c0-9.88,8.01-17.88,17.88-17.88h69.72
			c9.88,0,17.88,8.01,17.88,17.88v13.06C1544.75,1015.51,1536.75,1023.52,1526.87,1023.52z"/>
		<path class="st29" d="M1410.58,901.56l-57.6,102.72c-4.75,8.48,1.37,18.94,11.09,18.94h115.2c9.72,0,15.85-10.46,11.09-18.94
			l-57.6-102.72C1427.91,892.89,1415.44,892.89,1410.58,901.56z"/>
		<path class="st31" d="M1461.89,953.49l-29.12-51.93c-4.86-8.66-17.33-8.66-22.19,0l-15.34,27.36"/>
		<line class="st31" x1="1480.23" y1="986.19" x2="1467.84" y2="964.09"/>
		<path class="st32" d="M1871.96,1064.75h-164.82c-6.18,0-11.18-5.01-11.18-11.18v-5.87c0-6.18,5.01-11.18,11.18-11.18h164.82
			c6.18,0,11.18,5.01,11.18,11.18v5.87C1883.15,1059.74,1878.14,1064.75,1871.96,1064.75z"/>
		<path class="st33" d="M1901.45,1134.93h-555.22c-23.32,0-42.22-18.9-42.22-42.22v0c0-23.32,18.9-42.22,42.22-42.22h555.22
			c23.32,0,42.22,18.9,42.22,42.22v0C1943.66,1116.03,1924.76,1134.93,1901.45,1134.93z"/>
	</g>
	<g>
		<path class="st4" d="M1918,1.8V1078.2H2V1.8H1918 M1920-0.2H0V1080.2h1920V-0.2L1920-0.2z"/>
	</g>
</g>
<g id="Layer_2">
</g>
</svg>
