<?xml version="1.0" encoding="utf-8"?>
<!-- Generator: Adobe Illustrator 24.2.1, SVG Export Plug-In . SVG Version: 6.00 Build 0)  -->
<svg version="1.1" xmlns="http://www.w3.org/2000/svg" xmlns:xlink="http://www.w3.org/1999/xlink" x="0px" y="0px"
	 viewBox="0 0 1920 1080" style="enable-background:new 0 0 1920 1080;" xml:space="preserve">
<style type="text/css">
	.st0{clip-path:url(#SVGID_8_);fill:#FFFFFF;}
	.st1{clip-path:url(#SVGID_8_);}
	.st2{fill:#F2F7FA;}
	.st3{opacity:0.7;fill:#D7E3F1;}
	.st4{fill:#D7E3F1;}
	.st5{fill:#E1EAEF;}
	.st6{fill:none;stroke:#39526D;stroke-width:2.4531;stroke-miterlimit:10;}
	.st7{fill:#6FFFFF;}
	.st8{fill:none;stroke:#00B4CC;stroke-width:2.9003;stroke-miterlimit:10;}
	.st9{fill:none;stroke:#00B4CC;stroke-width:2.0505;stroke-miterlimit:10;}
	.st10{fill:none;stroke:#00B4CC;stroke-width:2.4531;stroke-miterlimit:10;}
	.st11{fill:#39526D;}
	.st12{fill:none;stroke:#4621B8;stroke-width:6;stroke-miterlimit:10;}
	.st13{fill:#FFCC3D;}
	.st14{fill:#4621B8;}
	.st15{fill:#6B1AFF;}
	.st16{fill:none;stroke:#000000;stroke-width:2.0117;stroke-miterlimit:10;}
	.st17{fill:none;stroke:#1F2D3D;stroke-width:4.1095;stroke-miterlimit:10;}
	.st18{fill:none;stroke:#4621B8;stroke-width:7.6902;stroke-miterlimit:10;}
	.st19{fill:#1A00CA;}
	.st20{fill:url(#SVGID_9_);}
	.st21{clip-path:url(#SVGID_8_);fill:#D7E3F1;}
	.st22{fill:#A753FF;}
	.st23{fill:none;stroke:#1F2D3D;stroke-width:3.0083;stroke-miterlimit:10;}
	.st24{fill:none;stroke:#000000;stroke-width:1.8486;stroke-miterlimit:10;}
	.st25{fill:none;stroke:#4621B8;stroke-width:7.3942;stroke-miterlimit:10;}
	.st26{fill:none;stroke:#000000;stroke-width:4.1095;stroke-miterlimit:10;}
	.st27{fill:none;stroke:#1F2D3D;stroke-width:3.7229;stroke-miterlimit:10;}
	.st28{fill:#04E7FF;}
	.st29{clip-path:url(#SVGID_8_);fill:#F2F7FA;}
	.st30{clip-path:url(#SVGID_8_);fill:#A753FF;}
	.st31{clip-path:url(#SVGID_8_);fill:none;stroke:#1F2D3D;stroke-width:4.1095;stroke-miterlimit:10;}
	.st32{clip-path:url(#SVGID_8_);fill:#6B1AFF;}
	.st33{clip-path:url(#SVGID_8_);fill:#00B4CC;}
	.st34{clip-path:url(#SVGID_10_);fill:#FFFFFF;}
	.st35{clip-path:url(#SVGID_10_);fill:#F2F7FA;}
	.st36{clip-path:url(#SVGID_10_);}
	.st37{fill:none;stroke:#39526D;stroke-width:1.1596;stroke-miterlimit:10;}
	.st38{fill:none;stroke:#00B4CC;stroke-width:1.1596;stroke-miterlimit:10;}
	.st39{clip-path:url(#SVGID_10_);fill:#39526D;}
	.st40{fill:none;stroke:#D7E3F1;stroke-width:1.2455;stroke-miterlimit:10;}
	.st41{fill:#00B4CC;}
	.st42{fill:none;stroke:#39526D;stroke-width:1.2371;stroke-miterlimit:10;}
	.st43{fill:none;stroke:#A753FF;stroke-width:2.4743;stroke-miterlimit:10;}
	.st44{fill:#1F2D3D;}
	.st45{fill:none;stroke:#000000;stroke-width:0.8957;stroke-miterlimit:10;}
	.st46{fill:none;stroke:#4621B8;stroke-width:3.5828;stroke-miterlimit:10;}
	.st47{fill:none;stroke:#39526D;stroke-width:1.0794;stroke-miterlimit:10;}
	.st48{fill:none;stroke:#1F2D3D;stroke-width:1.0794;stroke-miterlimit:10;}
	.st49{fill:none;stroke:#1F2D3D;stroke-width:1.7394;stroke-miterlimit:10;}
	.st50{fill:none;stroke:#000000;stroke-width:1.7394;stroke-miterlimit:10;}
	.st51{fill:url(#SVGID_11_);}
	.st52{fill:#FFFFFF;}
	.st53{fill:#C7D5E2;}
	.st54{clip-path:url(#SVGID_10_);fill:#D7E3F1;}
	.st55{clip-path:url(#SVGID_10_);fill:none;stroke:#D7E3F1;stroke-width:1.7394;stroke-miterlimit:10;}
	.st56{clip-path:url(#SVGID_10_);fill:none;stroke:#FFFFFF;stroke-width:1.7394;stroke-miterlimit:10;}
	.st57{clip-path:url(#SVGID_12_);fill:#FFFFFF;}
	.st58{clip-path:url(#SVGID_12_);fill:#F2F7FA;}
	.st59{clip-path:url(#SVGID_12_);}
	.st60{fill:none;stroke:#39526D;stroke-width:1.2599;stroke-miterlimit:10;}
	.st61{fill:none;stroke:#00B4CC;stroke-width:1.4896;stroke-miterlimit:10;}
	.st62{fill:none;stroke:#00B4CC;stroke-width:1.0531;stroke-miterlimit:10;}
	.st63{fill:none;stroke:#00B4CC;stroke-width:1.2599;stroke-miterlimit:10;}
	.st64{fill:none;stroke:#D7E3F1;stroke-width:1.7394;stroke-miterlimit:10;}
	.st65{fill:none;stroke:#39526D;stroke-width:1.1488;stroke-miterlimit:10;}
	.st66{fill:none;stroke:#4621B8;stroke-width:2.2976;stroke-miterlimit:10;}
	.st67{fill:none;stroke:#4621B8;stroke-width:3.4789;stroke-miterlimit:10;}
	.st68{fill:url(#SVGID_13_);}
	.st69{fill:none;stroke:#1F2D3D;stroke-width:1.7442;stroke-miterlimit:10;}
	.st70{fill:none;stroke:#000000;stroke-width:1.7442;stroke-miterlimit:10;}
	.st71{clip-path:url(#SVGID_14_);fill:#F2F7FA;}
	.st72{clip-path:url(#SVGID_14_);}
	.st73{clip-path:url(#SVGID_15_);fill:#F2F7FA;}
	.st74{clip-path:url(#SVGID_15_);}
	.st75{fill:none;stroke:#1F2D3D;stroke-width:2.899;stroke-linecap:round;stroke-miterlimit:10;}
	.st76{fill:#05E7FF;}
	.st77{clip-path:url(#SVGID_12_);fill:#00B4CC;}
	.st78{clip-path:url(#SVGID_16_);fill:#FFFFFF;}
	.st79{clip-path:url(#SVGID_16_);fill:#F2F7FA;}
	.st80{clip-path:url(#SVGID_16_);}
	.st81{fill:url(#SVGID_17_);}
	.st82{fill:none;stroke:#000000;stroke-width:0.7846;stroke-miterlimit:10;}
	.st83{fill:none;stroke:#4621B8;stroke-width:3.1384;stroke-miterlimit:10;}
	.st84{fill:url(#SVGID_18_);}
	.st85{clip-path:url(#SVGID_16_);fill:#00B4CC;}
	.st86{clip-path:url(#SVGID_16_);fill:none;stroke:#D7E3F1;stroke-width:1.7394;stroke-miterlimit:10;}
	.st87{clip-path:url(#SVGID_20_);fill:#F2F7FA;}
	.st88{clip-path:url(#SVGID_20_);fill:#6FFFFF;}
	.st89{clip-path:url(#SVGID_20_);}
	.st90{fill:url(#SVGID_21_);}
	.st91{opacity:0.5;}
	.st92{clip-path:url(#SVGID_20_);fill:url(#SVGID_23_);}
	.st93{clip-path:url(#SVGID_20_);fill:none;stroke:#A753FF;stroke-width:4;stroke-miterlimit:10;}
	.st94{clip-path:url(#SVGID_20_);fill:#A753FF;}
	.st95{fill:none;stroke:#39526D;stroke-width:3;stroke-miterlimit:10;}
	.st96{clip-path:url(#SVGID_20_);fill:#04E7FF;}
	.st97{clip-path:url(#SVGID_20_);fill:#00B4CC;}
	.st98{clip-path:url(#SVGID_20_);fill:#1A00CA;}
	.st99{clip-path:url(#SVGID_20_);fill:#4621B8;}
	.st100{fill:none;stroke:#39526D;stroke-width:4.8851;stroke-miterlimit:10;}
	.st101{fill:none;stroke:#00B4CC;stroke-width:5.7756;stroke-miterlimit:10;}
	.st102{fill:none;stroke:#00B4CC;stroke-width:4.0833;stroke-miterlimit:10;}
	.st103{fill:none;stroke:#00B4CC;stroke-width:4.8851;stroke-miterlimit:10;}
	.st104{clip-path:url(#SVGID_20_);fill:#FFFFFF;}
	.st105{clip-path:url(#SVGID_25_);fill:#FFFFFF;}
	.st106{clip-path:url(#SVGID_25_);fill:#F2F7FA;}
	.st107{clip-path:url(#SVGID_25_);}
	.st108{fill:none;stroke:#D7E3F1;stroke-width:1.9662;stroke-miterlimit:10;}
	.st109{fill:#CDDAE8;}
	.st110{fill:none;stroke:#D7E3F1;stroke-width:2.1414;stroke-miterlimit:10;}
	.st111{fill:none;stroke:#F2F7FA;stroke-width:1.6248;stroke-miterlimit:10;}
	.st112{fill:#ABBFCE;}
	.st113{fill:none;stroke:#39526D;stroke-width:3.098;stroke-miterlimit:10;}
	.st114{fill:none;stroke:#39526D;stroke-width:2.6754;stroke-miterlimit:10;}
	.st115{fill:none;stroke:#04E7FF;stroke-width:1.0327;stroke-miterlimit:10;}
	.st116{fill:none;stroke:#4621B8;stroke-width:2.0653;stroke-miterlimit:10;}
	.st117{fill:none;stroke:#39526D;stroke-width:3.7262;stroke-miterlimit:10;}
	.st118{fill:none;stroke:#39526D;stroke-width:3.2179;stroke-miterlimit:10;}
	.st119{fill:none;stroke:#04E7FF;stroke-width:1.2421;stroke-miterlimit:10;}
	.st120{fill:none;stroke:#4621B8;stroke-width:2.4841;stroke-miterlimit:10;}
	.st121{clip-path:url(#SVGID_25_);fill:#1A00CA;}
	.st122{fill:url(#SVGID_26_);}
	.st123{fill:none;stroke:#D7E3F1;stroke-width:1.4518;stroke-linecap:round;stroke-miterlimit:10;}
	.st124{fill:none;stroke:#1F2D3D;stroke-width:3.5459;stroke-miterlimit:10;}
	.st125{clip-path:url(#SVGID_28_);fill:#FFFFFF;}
	.st126{clip-path:url(#SVGID_28_);fill:#F2F7FA;}
	.st127{clip-path:url(#SVGID_28_);}
	.st128{fill:none;stroke:#E1EAF4;stroke-width:18.0109;stroke-miterlimit:10;}
	.st129{fill:none;stroke:#D7E3F1;stroke-width:3;stroke-miterlimit:10;}
	.st130{fill:none;stroke:#D7E3F1;stroke-miterlimit:10;}
	.st131{opacity:0.5;fill:#D7E3F1;}
	.st132{fill:#D0DDEA;}
	.st133{fill:none;stroke:#B8C8D8;stroke-miterlimit:10;}
	.st134{fill:#B8C8D8;}
	.st135{fill:none;stroke:#FFFFFF;stroke-miterlimit:10;}
	.st136{fill:none;stroke:#000000;stroke-width:2.1735;stroke-miterlimit:10;}
	.st137{fill:none;stroke:#000000;stroke-width:4.8318;stroke-miterlimit:10;}
	.st138{fill:url(#SVGID_29_);}
	.st139{fill:none;stroke:#1F2D3D;stroke-width:3.2124;stroke-miterlimit:10;}
	.st140{fill:none;stroke:#1A00CA;stroke-width:3;stroke-miterlimit:10;}
	.st141{clip-path:url(#SVGID_28_);fill:none;stroke:#1F2D3D;stroke-width:3.2124;stroke-miterlimit:10;}
	.st142{fill:url(#SVGID_30_);}
	.st143{fill:none;stroke:#39526D;stroke-width:1.6111;stroke-miterlimit:10;}
	.st144{fill:none;stroke:#00B4CC;stroke-width:1.9048;stroke-miterlimit:10;}
	.st145{fill:none;stroke:#00B4CC;stroke-width:1.3467;stroke-miterlimit:10;}
	.st146{fill:none;stroke:#00B4CC;stroke-width:1.6111;stroke-miterlimit:10;}
	.st147{clip-path:url(#SVGID_28_);fill:#FFCC3D;}
	.st148{clip-path:url(#SVGID_28_);fill:#6B1AFF;}
	.st149{clip-path:url(#SVGID_28_);fill:none;stroke:#1F2D3D;stroke-width:2;stroke-miterlimit:10;}
	.st150{clip-path:url(#SVGID_31_);fill:#FFFFFF;}
	.st151{clip-path:url(#SVGID_31_);fill:#F2F7FA;}
	.st152{clip-path:url(#SVGID_31_);}
	.st153{fill:none;stroke:#39526D;stroke-width:2.173;stroke-miterlimit:10;}
	.st154{fill:none;stroke:#00B4CC;stroke-width:2.5691;stroke-miterlimit:10;}
	.st155{fill:none;stroke:#00B4CC;stroke-width:1.8163;stroke-miterlimit:10;}
	.st156{fill:none;stroke:#00B4CC;stroke-width:2.173;stroke-miterlimit:10;}
	.st157{fill:none;stroke:#39526D;stroke-width:1.9813;stroke-miterlimit:10;}
	.st158{fill:none;stroke:#4621B8;stroke-width:3.9627;stroke-miterlimit:10;}
	.st159{fill:url(#SVGID_32_);}
	.st160{fill:#FFFFFF;stroke:#39526D;stroke-width:3.0083;stroke-miterlimit:10;}
	.st161{fill:none;stroke:#04E7FF;stroke-width:2.2015;stroke-miterlimit:10;}
	.st162{fill:url(#SVGID_33_);}
	.st163{fill:url(#SVGID_34_);}
	.st164{fill:url(#SVGID_35_);}
	.st165{fill:url(#SVGID_36_);}
	.st166{fill:url(#SVGID_37_);}
	.st167{fill:url(#SVGID_38_);}
	.st168{fill:url(#SVGID_39_);}
	.st169{fill:url(#SVGID_40_);}
	.st170{fill:url(#SVGID_41_);}
	.st171{fill:url(#SVGID_42_);}
	.st172{fill:none;stroke:#04E7FF;stroke-width:2.001;stroke-miterlimit:10;}
	.st173{fill:none;stroke:#6B1AFF;stroke-width:3.5018;stroke-miterlimit:10;}
	.st174{fill:none;stroke:#04E7FF;stroke-width:2.6422;stroke-miterlimit:10;}
	.st175{fill:none;stroke:#4621B8;stroke-width:2.3947;stroke-miterlimit:10;}
	.st176{fill:none;stroke:#000000;stroke-width:3.0083;stroke-miterlimit:10;}
	.st177{fill:none;stroke:#000000;stroke-width:1.3532;stroke-miterlimit:10;}
	.st178{fill:none;stroke:#4621B8;stroke-width:5.4128;stroke-miterlimit:10;}
	.st179{fill:url(#SVGID_43_);}
	.st180{clip-path:url(#SVGID_31_);fill:#00B4CC;}
	.st181{clip-path:url(#SVGID_31_);fill:none;stroke:#D7E3F1;stroke-width:3;stroke-miterlimit:10;}
	.st182{clip-path:url(#SVGID_44_);fill:#FFFFFF;}
	.st183{clip-path:url(#SVGID_44_);fill:#F2F7FA;}
	.st184{clip-path:url(#SVGID_44_);}
	.st185{fill:url(#SVGID_45_);}
	.st186{fill:url(#SVGID_46_);}
	.st187{fill:url(#SVGID_47_);}
	.st188{fill:url(#SVGID_48_);}
	.st189{fill:url(#SVGID_49_);}
	.st190{fill:url(#SVGID_50_);}
	.st191{fill:url(#SVGID_51_);}
	.st192{fill:url(#SVGID_52_);}
	.st193{fill:url(#SVGID_53_);}
	.st194{fill:url(#SVGID_54_);}
	.st195{fill:url(#SVGID_55_);}
	.st196{fill:url(#SVGID_56_);}
	.st197{clip-path:url(#SVGID_44_);fill:#00B4CC;}
	.st198{clip-path:url(#SVGID_44_);fill:none;stroke:#D7E3F1;stroke-width:3;stroke-miterlimit:10;}
	.st199{fill:#3720D1;}
	.st200{fill:none;stroke:#351ED0;stroke-linecap:round;stroke-linejoin:round;stroke-miterlimit:10;}
</style>
<g id="Layer_1">
	<g>
		<defs>
			<rect id="SVGID_27_" y="-1178.36" width="1920" height="1080"/>
		</defs>
		<clipPath id="SVGID_8_">
			<use xlink:href="#SVGID_27_"  style="overflow:visible;"/>
		</clipPath>
		<g class="st1">
			<rect x="1556.21" y="-1205.7" class="st2" width="17.69" height="1215.33"/>
			<polygon class="st3" points="1617.96,50.86 1617.96,-192.41 1974.74,-192.41 1974.74,-216.22 1573.9,-216.22 1573.9,50.86 			"/>
		</g>
		<g class="st1">
			<g>
				<path class="st15" d="M1565.99-29.16L1103.54,2.96l-6.6,0.46l-17.77-17.32l-2.36-43.05c7-72.33,15.16-203.35-11.64-523.06
					c52.11-55.76,210.71-85.71,210.71-85.71l116.9-35.57c0,0,156.63,57.05,215.5,121.27C1679.59-502.22,1565.99-29.16,1565.99-29.16
					z"/>
			</g>
			<g>
				<path class="st4" d="M1659.08-502.2c16.01,111.99,27.71,383.1-6.05,530.02L1551.45-2.36l-72.51-77.24
					c-2.72,19.09-23.31-322.56-11.98-420.8L1659.08-502.2z"/>
			</g>
			<g>
				<path class="st4" d="M1562.86-140.16c-28.72-34.84-270.29-240.81-270.29-240.81l-80.24,93.93
					c50.1,85.48,190.96,273.09,221.66,311.09c9.86,12.21,30.16,36.14,41.61,47.57l157.85-141.04
					C1613.49-91.62,1562.86-140.16,1562.86-140.16z"/>
				<circle class="st4" cx="1551.45" cy="-2.36" r="105.95"/>
			</g>
			<g>
				<path class="st4" d="M710.57-277.39c0,0,137.98,211.43,254.75,313.11l127.26-139.25c-51.38-53.3-286.16-245.49-286.16-245.49
					S777.93-317.34,710.57-277.39z"/>
				<circle class="st4" cx="1028.97" cy="-33.84" r="94.28"/>
			</g>
		</g>
	</g>
	<g>
		<g>
			<g>
				<defs>
					<rect id="SVGID_2_" y="-0.2" width="1920" height="1080.39"/>
				</defs>
				<clipPath id="SVGID_9_">
					<use xlink:href="#SVGID_2_"  style="overflow:visible;"/>
				</clipPath>
				<rect x="-54.46" y="-26.28" style="clip-path:url(#SVGID_9_);fill:#FFFFFF;" width="2014.63" height="1165.06"/>
				<polygon style="clip-path:url(#SVGID_9_);fill:#F2F7FA;" points="1002.62,-72.37 -148.77,1079.02 -148.77,-102.41 				"/>
				<g style="clip-path:url(#SVGID_9_);">
					<g>
						<line class="st153" x1="1810.63" y1="1090.68" x2="1810.63" y2="802.43"/>
						<path class="st7" d="M1810.59,802.42c0,0-6.97-127.66-6.99-127.97c-0.94-17.15-1.31-36.22-14.52-49.4
							c-12.3-12.27-32.65-18.14-47.92-7.8c-8.67,5.87-12.81,16.07-13.06,26.29c-0.31,12.89,3.91,26.39,9.42,37.92
							C1763.16,735.16,1810.59,802.42,1810.59,802.42z"/>
						<line class="st154" x1="1810.59" y1="802.42" x2="1754.73" y2="612.11"/>
						<path class="st7" d="M1811.84,803.34c0,0,43.39-79.29,43.5-79.48c5.83-10.65,12.71-22.25,9.69-35.09
							c-2.82-11.95-12.85-23.07-25.88-22.55c-7.39,0.29-13.69,4.88-17.65,10.93c-4.99,7.62-7.49,17.31-8.48,26.29
							C1808.42,745.25,1811.84,803.34,1811.84,803.34z"/>
						<line class="st155" x1="1811.84" y1="803.34" x2="1849.22" y2="668.19"/>
						<path class="st153" d="M1810.62,901.19c0.01-1.44,38.4-67.63,38.4-67.63"/>
						<path class="st7" d="M1849.02,833.56l45.09-78.66c0,0,15.12-33.1,43.09-22.73c7.21,2.67,12.37,9.34,12.71,17.03
							c0.42,9.34-4.69,23.04-27.82,39.59C1892.95,809.62,1849.02,833.56,1849.02,833.56z"/>
						<line class="st156" x1="1849.02" y1="833.56" x2="1937.2" y2="732.16"/>
						<path class="st7" d="M1795.82,952.78l-88.91-114.74c0,0-19.45-28.85-46.15-21.03c-8.5,2.49-15,9.19-17.03,17.81
							c-2.59,11-1.19,27.84,22.11,43.02C1704.19,902.83,1795.82,952.78,1795.82,952.78z"/>
						<line class="st156" x1="1795.82" y1="952.78" x2="1655.38" y2="819.31"/>
						<line class="st156" x1="1642.79" y1="849.9" x2="1707.68" y2="869.02"/>
						<line class="st153" x1="1793.74" y1="950.81" x2="1810.63" y2="970.72"/>
						<path class="st7" d="M1825.22,1025.38l45.69-71.68c0,0,7.53-14.79,19.65-19.42c14.65-5.59,28.15,9.93,21.15,23.96
							c-2.36,4.73-6.6,10.17-13.71,16.25C1869.54,998.85,1825.22,1025.38,1825.22,1025.38z"/>
						<line class="st156" x1="1825.22" y1="1025.38" x2="1905.9" y2="935.97"/>
						<line class="st156" x1="1911.71" y1="958.25" x2="1860.12" y2="986.7"/>
						<line class="st153" x1="1810.63" y1="1047.27" x2="1825.22" y2="1025.38"/>
					</g>
					<path class="st11" d="M1739.26,1136.13h148.38v-41.83c0-8.74-7.09-15.83-15.83-15.83h-116.72c-8.74,0-15.83,7.09-15.83,15.83
						V1136.13z"/>
				</g>
				<g style="clip-path:url(#SVGID_9_);">
					<rect x="42.15" y="191.47" class="st52" width="198.09" height="139.76"/>
					<rect x="310.23" y="139.59" class="st129" width="139.76" height="139.76"/>
					<rect x="336.15" y="165.51" class="st52" width="87.91" height="87.91"/>
					<rect x="164.67" y="362.61" class="st129" width="198.09" height="143.33"/>
				</g>
				<g style="clip-path:url(#SVGID_9_);">
					<polygon class="st2" points="1562.69,53.91 1762.32,-25.15 1762.32,1232.65 1562.69,1232.65 					"/>
					<rect x="1055.72" y="53.91" class="st4" width="506.96" height="1267.03"/>
					<rect x="1762.32" y="-25.15" class="st4" width="11.43" height="1315.94"/>
					<path class="st52" d="M1749.56,652.81c0,10.28-8.33,18.61-18.61,18.61s-19.87-8.33-19.87-18.61s9.59-18.61,19.87-18.61
						S1749.56,642.53,1749.56,652.81z"/>
				</g>
				<g style="clip-path:url(#SVGID_9_);">
					<rect x="245.39" y="930.38" class="st22" width="280.46" height="32.16"/>
					<path class="st14" d="M484.67,984.88H215.38c-6.17,0-11.17-5-11.17-11.17v0c0-6.17,5-11.17,11.17-11.17h269.28V984.88z"/>
					<g>
						<path class="st157" d="M254.42,930.38v-26.36c0-12.01,9.73-21.74,21.74-21.74h0c12.01,0,21.74,9.73,21.74,21.74v26.36"/>
						<polyline class="st4" points="502.69,930.38 502.69,905.76 277.75,905.76 277.75,930.38 						"/>
						<path class="st158" d="M511.03,906.79l-253.07-35.87c-4.36-0.62-8.52,2.06-9.77,6.29l-12.3,41.77
							c-1.68,5.69,2.59,11.39,8.52,11.39h266.62"/>
					</g>
				</g>
				<g style="clip-path:url(#SVGID_9_);">
					<path class="st12" d="M1482.07,833.21v238.33c0,66.04-53.54,119.58-119.58,119.58h-66.22"/>
					<path class="st19" d="M1583.54,889.41h-158.19c-35.56,0-64.39-28.83-64.39-64.39V708.87c0-35.56,28.83-64.39,64.39-64.39
						h158.19c35.56,0,64.39,28.83,64.39,64.39v116.15C1647.93,860.58,1619.1,889.41,1583.54,889.41z"/>
					<linearGradient id="SVGID_10_" gradientUnits="userSpaceOnUse" x1="1322.2516" y1="766.9437" x2="1609.2158" y2="766.9437">
						<stop  offset="0" style="stop-color:#4620B9"/>
						<stop  offset="1" style="stop-color:#6B1BFF"/>
					</linearGradient>
					<path style="fill:url(#SVGID_10_);" d="M1544.83,889.41h-158.19c-35.56,0-64.39-28.83-64.39-64.39V708.87
						c0-35.56,28.83-64.39,64.39-64.39h158.19c35.56,0,64.39,28.83,64.39,64.39v116.15
						C1609.22,860.58,1580.39,889.41,1544.83,889.41z"/>
				</g>
				<g style="clip-path:url(#SVGID_9_);">
					<g>
						<g>
							<circle class="st52" cx="926.36" cy="342.3" r="123.44"/>
							<path class="st160" d="M1034.9,283.47c9.5,17.49,14.9,37.53,14.9,58.84c0,68.17-55.26,123.44-123.44,123.44
								S802.92,410.48,802.92,342.3c0-32.44,12.51-61.95,32.97-83.98"/>
							<path class="st160" d="M868.67,233.15c17.22-9.12,36.85-14.28,57.69-14.28"/>
							<polygon class="st15" points="951.77,375.1 876.23,375.1 892.92,309.51 968.45,309.51 							"/>
							<polygon class="st15" points="974.97,309.51 958.28,375.1 1009.05,375.1 1017.39,342.3 996.81,330.65 987.52,309.51 							
								"/>
							
								<ellipse transform="matrix(0.8942 -0.4477 0.4477 0.8942 -79.5619 443.2686)" class="st15" cx="897.82" cy="389.92" rx="10.7" ry="8.14"/>
							
								<ellipse transform="matrix(0.8942 -0.4477 0.4477 0.8942 -71.2791 478.3083)" class="st15" cx="976.08" cy="389.92" rx="10.7" ry="8.14"/>
							<g>
								<line class="st161" x1="904.26" y1="321.3" x2="857.65" y2="321.3"/>
								<line class="st161" x1="853.76" y1="360.21" x2="847.63" y2="360.21"/>
								<line class="st161" x1="885.1" y1="360.21" x2="857.65" y2="360.21"/>
								<line class="st161" x1="867.66" y1="329.78" x2="814.5" y2="329.78"/>
								<line class="st161" x1="904.26" y1="347.11" x2="831.45" y2="347.11"/>
							</g>
						</g>
						<path class="st23" d="M1018.84,712.2c0,0,39.13,17.24,66.43,17.75"/>
						<g>
							<linearGradient id="SVGID_11_" gradientUnits="userSpaceOnUse" x1="1167.9141" y1="1020.0156" x2="965.6761" y2="667.3956">
								<stop  offset="0" style="stop-color:#6C1BFF"/>
								<stop  offset="1" style="stop-color:#A753FF"/>
							</linearGradient>
							<path class="st51" d="M1008.81,739.94l-30.69,111.31v65.61l35.1,55.44c0,0,80.07-49.61,120.08-180.31
								S1008.81,739.94,1008.81,739.94z"/>
							<circle class="st2" cx="1136.63" cy="627.07" r="69.05"/>
							<path class="st2" d="M1085.27,580.92c0,0-49.77,60.17-76.46,159.02c0,0,52.98,53.45,135.38,61.69
								c0,0,51.88-123.53,59.2-156.9L1085.27,580.92z"/>
							<path class="st23" d="M1035.35,761.09c0,0,47.04,36.57,108.84,40.54"/>
							<path class="st23" d="M1075.92,757.33c0,0,43.33,26.79,76.68,24.03"/>
						</g>
						<g>
							<linearGradient id="SVGID_12_" gradientUnits="userSpaceOnUse" x1="1101.0969" y1="1058.3372" x2="898.8589" y2="705.7172">
								<stop  offset="0" style="stop-color:#6C1BFF"/>
								<stop  offset="1" style="stop-color:#A753FF"/>
							</linearGradient>
							<path style="fill:url(#SVGID_12_);" d="M870.16,554.88c0,0-54.2,449.88,120.36,426.41l-12.4-130.05
								c0,0-41.88-214.58-35.85-290.61"/>
							<linearGradient id="SVGID_13_" gradientUnits="userSpaceOnUse" x1="1069.6193" y1="1076.3905" x2="867.3813" y2="723.7705">
								<stop  offset="0" style="stop-color:#6C1BFF"/>
								<stop  offset="1" style="stop-color:#A753FF"/>
							</linearGradient>
							<circle class="st68" cx="978.12" cy="916.86" r="65.61"/>
							<path class="st23" d="M967.48,791.71c0.44,2.18,5.74,39.51,14.32,77.41"/>
						</g>
						<g>
							<linearGradient id="SVGID_14_" gradientUnits="userSpaceOnUse" x1="1203.8562" y1="999.4017" x2="1001.6183" y2="646.7817">
								<stop  offset="0" style="stop-color:#6C1BFF"/>
								<stop  offset="1" style="stop-color:#A753FF"/>
							</linearGradient>
							<path style="fill:url(#SVGID_14_);" d="M942.08,562.62c0,0,30.6-13.88,33.69-47.94c3.1-34.06,17.03-30.96,12.38-41.02
								c-4.64-10.06-27.86,12.38-34.06,24.77c-6.19,12.38-35.38,22.45-52.91-0.77c-17.52-23.22-20.62-37.93-20.62-37.93l-6.19-32.51
								c0,0-9.29-5.42-9.29,14.71s3.87,29.41,3.87,29.41s-27.09-16.25-34.06-27.09c0,0-8.54-8.9-9.43,4.93c0,0-3.57,8.03,3.57,20.52
								c7.14,12.49,13.83,21.41,13.83,21.41s-18.08-26.49-20.72-20.88c-2.64,5.61,14.68,49.14,48.01,84.65L942.08,562.62z"/>
							<linearGradient id="SVGID_15_" gradientUnits="userSpaceOnUse" x1="1170.3601" y1="1018.6127" x2="968.1221" y2="665.9927">
								<stop  offset="0" style="stop-color:#6C1BFF"/>
								<stop  offset="1" style="stop-color:#A753FF"/>
							</linearGradient>
							<circle style="fill:url(#SVGID_15_);" cx="906.2" cy="558.02" r="36.17"/>
							<path class="st23" d="M922.19,561.25c0,0,15.15,4.72,31.64-7.36"/>
						</g>
					</g>
					<g>
						
							<linearGradient id="SVGID_16_" gradientUnits="userSpaceOnUse" x1="18379.2168" y1="-7038.4087" x2="18176.9805" y2="-7391.0288" gradientTransform="matrix(-0.6203 0.7844 0.7844 0.6203 18612.1738 -9206.0313)">
							<stop  offset="0" style="stop-color:#6C1BFF"/>
							<stop  offset="1" style="stop-color:#A753FF"/>
						</linearGradient>
						<path style="fill:url(#SVGID_16_);" d="M1570.33,546.33l106.34,44.97l51.46,40.7l21.71,61.92c0,0-88.58,32.03-215.92-17.65
							S1570.33,546.33,1570.33,546.33z"/>
						<circle class="st2" cx="1402.51" cy="576.57" r="69.05"/>
						<path class="st2" d="M1398.18,507.67c0,0,78.06-1.72,172.15,38.66c0,0,9.06,74.7-35.59,144.45c0,0-129.08-35.93-159.79-50.89
							L1398.18,507.67z"/>
						<path class="st23" d="M1570.45,580.26c0,0-0.49,59.58-35.71,110.52"/>
						<path class="st23" d="M1542.35,609.75c0,0-5.86,50.6-28.72,75.05"/>
					</g>
					<g>
						
							<linearGradient id="SVGID_17_" gradientUnits="userSpaceOnUse" x1="18590.4512" y1="-7892.9307" x2="18388.2148" y2="-8245.5508" gradientTransform="matrix(-0.5624 0.8268 0.8268 0.5624 18758.0391 -10118.9199)">
							<stop  offset="0" style="stop-color:#6C1BFF"/>
							<stop  offset="1" style="stop-color:#A753FF"/>
						</linearGradient>
						<path class="st81" d="M1489.56,339.13c0,0,402.47,208.21,284.88,339.35l-100.56-83.39c0,0-153.87-155.31-220.13-193.09"/>
						
							<linearGradient id="SVGID_18_" gradientUnits="userSpaceOnUse" x1="18558.9746" y1="-7874.8774" x2="18356.7363" y2="-8227.4971" gradientTransform="matrix(-0.5624 0.8268 0.8268 0.5624 18758.0391 -10118.9199)">
							<stop  offset="0" style="stop-color:#6C1BFF"/>
							<stop  offset="1" style="stop-color:#A753FF"/>
						</linearGradient>
						<circle class="st84" cx="1728.14" cy="631.99" r="65.61"/>
						<path class="st23" d="M1630.64,552.8c1.56,1.59,29.44,26.96,55.95,55.38"/>
					</g>
					<g>
						
							<linearGradient id="SVGID_20_" gradientUnits="userSpaceOnUse" x1="-5497.9531" y1="-5460.7163" x2="-5700.1909" y2="-5813.3364" gradientTransform="matrix(0.7191 -0.6949 0.6949 0.7191 9740.9111 587.8941)">
							<stop  offset="0" style="stop-color:#6C1BFF"/>
							<stop  offset="1" style="stop-color:#A753FF"/>
						</linearGradient>
						<path style="fill:url(#SVGID_20_);" d="M1500.89,349.07c0,0,12.36-31.24-9.08-57.88c-21.44-26.64-9.27-34.1-19.6-38.1
							c-10.33-4.01-11.43,28.27-7.28,41.48c4.15,13.21-9.85,40.73-38.59,36.21c-28.74-4.52-41.18-12.94-41.18-12.94l-27.04-19.07
							c0,0-10.44,2.56,3.54,17.03c13.98,14.47,23.22,18.46,23.22,18.46s-30.78,7.14-43.31,4.18c0,0-12.32-0.47-3.36,10.1
							c0,0,3.01,8.25,16.82,12.28c13.81,4.02,24.82,5.79,24.82,5.79s-31.41-6.48-29.41-0.61c2,5.87,44.7,25.14,93.35,27.51
							L1500.89,349.07z"/>
						
							<linearGradient id="SVGID_21_" gradientUnits="userSpaceOnUse" x1="-5531.4492" y1="-5441.5054" x2="-5733.687" y2="-5794.1255" gradientTransform="matrix(0.7191 -0.6949 0.6949 0.7191 9740.9111 587.8941)">
							<stop  offset="0" style="stop-color:#6C1BFF"/>
							<stop  offset="1" style="stop-color:#A753FF"/>
						</linearGradient>
						<circle class="st90" cx="1471.89" cy="370.69" r="36.17"/>
						<path class="st23" d="M1485.63,361.91c0,0,14.17-7.13,17.64-27.28"/>
					</g>
					<g>
						<path class="st22" d="M1537.64,799.25c0,0,75.75,49.05,135.76,65.59l14.06-56.19l-8.93-57.23l-58.21-52.56
							C1620.31,698.86,1552.65,752.74,1537.64,799.25z"/>
						<circle class="st2" cx="1402.2" cy="585.75" r="77.49"/>
						<path class="st2" d="M1456.28,530.24l167.61,168.65c0,0-59.2,51.39-84.58,105.76c-88.51-62.82-177.87-143.13-197.53-170.37
							L1456.28,530.24z"/>
						<path class="st23" d="M1600.91,674.67c0,0-40.15,20.04-61.42,56.25"/>
						<polyline class="st23" points="1616.75,706.22 1623.9,698.89 1525.14,600.25 						"/>
					</g>
					<g>
						<path class="st22" d="M1656.09,759.96c-2.44-28.01-10.58-242.18-10.58-242.18l54.52-10.03
							c14.67,54.48,27.24,108.63,38.17,163.98c5.89,29.82,11.32,59.86,14.26,90.13c3.16,32.52-0.88,67.37-27.51,90.97
							L1656.09,759.96z"/>
						<circle class="st22" cx="1687.45" cy="808.65" r="57.91"/>
						<path class="st23" d="M1652.22,694.39c0,0,0.25,56.09,6.17,77.16"/>
					</g>
					<g>
						<path class="st22" d="M1733.02,462.6c0,0-82.94-0.93-87.12,46.89l46.62,25.73c0,0,54.59-30.48,75.99-43.79L1733.02,462.6z"/>
						<circle class="st22" cx="1673.17" cy="514.96" r="27.81"/>
						<g>
							<circle class="st22" cx="1764.18" cy="483.5" r="9.06"/>
							<polygon class="st22" points="1790.11,462.3 1772.03,488.01 1756.42,478.82 1776.91,452.97 							"/>
						</g>
						<g>
							<circle class="st22" cx="1783.51" cy="457.64" r="8.09"/>
							<path class="st22" d="M1791.39,459.45l8.99-32.67c0,0-0.22-2.13-4.3-2.3s-13.45,3.78-20.58,32.04L1791.39,459.45z"/>
						</g>
						<g>
							<circle class="st22" cx="1762.42" cy="478.26" r="9.06"/>
							<polygon class="st22" points="1782.45,451.42 1771.13,480.74 1753.76,475.6 1767.39,445.56 							"/>
						</g>
						<g>
							<circle class="st22" cx="1774.92" cy="448.5" r="8.09"/>
							<path class="st22" d="M1782.95,449.51l5.67-33.4c0,0-0.43-2.1-4.5-1.86s-13,5.11-17.27,33.94L1782.95,449.51z"/>
						</g>
						<g>
							<circle class="st22" cx="1750.65" cy="471.6" r="8.71"/>
							<polygon class="st22" points="1773.27,448.69 1758.62,475.12 1742.76,467.93 1759.69,441.12 							"/>
						</g>
						<g>
							<circle class="st22" cx="1766.48" cy="444.91" r="7.77"/>
							<path class="st22" d="M1773.02,440.7l-16.43-28.13c0,0-1.61-1.28-4.47,1.41c-2.85,2.69-6.43,11.79,8.22,35.68L1773.02,440.7z
								"/>
						</g>
						<g>
							<circle class="st22" cx="1740.09" cy="464.47" r="7.35"/>
							<polygon class="st22" points="1759.23,444.91 1746.9,467.24 1733.34,461.55 1747.61,438.85 							"/>
						</g>
						<g>
							<circle class="st22" cx="1753.37" cy="442" r="6.56"/>
							<path class="st22" d="M1757.66,437.04l-19.99-18.88c0,0-1.61-0.65-3.28,2.2c-1.67,2.86-2.41,11.08,15.13,26.95
								L1757.66,437.04z"/>
						</g>
					</g>
					<g>
						<circle class="st52" cx="1374.95" cy="183.29" r="101.69"/>
						<path class="st160" d="M1464.23,232.01c-17.26,31.56-50.77,52.97-89.28,52.97c-56.16,0-101.69-45.53-101.69-101.69
							c0-19.62,5.55-37.93,15.17-53.47"/>
						<path class="st160" d="M1374.95,81.6c56.16,0,101.69,45.53,101.69,101.69c0,7.02-0.71,13.87-2.07,20.49"/>
						<g>
							<path class="st4" d="M1344.58,174.31h-20.97c-3.59,0-6.5-2.91-6.5-6.5v-20.97c0-3.59,2.91-6.5,6.5-6.5h20.97
								c3.59,0,6.5,2.91,6.5,6.5v20.97C1351.08,171.4,1348.17,174.31,1344.58,174.31z"/>
							<line class="st172" x1="1363.88" y1="153.23" x2="1432.79" y2="153.23"/>
							<polyline class="st173" points="1323.56,152.59 1334.21,163.24 1356.61,140.84 							"/>
							<path class="st4" d="M1344.58,226.24h-20.97c-3.59,0-6.5-2.91-6.5-6.5v-20.97c0-3.59,2.91-6.5,6.5-6.5h20.97
								c3.59,0,6.5,2.91,6.5,6.5v20.97C1351.08,223.33,1348.17,226.24,1344.58,226.24z"/>
							<line class="st172" x1="1363.88" y1="205.16" x2="1432.79" y2="205.16"/>
							<line class="st172" x1="1363.88" y1="163.13" x2="1432.79" y2="163.13"/>
							<line class="st172" x1="1363.88" y1="215.06" x2="1432.79" y2="215.06"/>
							<polyline class="st173" points="1323.56,204.52 1334.21,215.17 1356.61,192.77 							"/>
						</g>
					</g>
					<g>
						<circle class="st52" cx="1674.23" cy="309.41" r="125.47"/>
						<path class="st160" d="M1777.85,380.19c-22.6,33.02-60.58,54.69-103.62,54.69c-69.29,0-125.47-56.17-125.47-125.47
							s56.17-125.47,125.47-125.47c8.66,0,17.12,0.88,25.29,2.55"/>
						<path class="st160" d="M1799.7,309.41c0,8.66-0.88,17.12-2.55,25.29"/>
						<g>
							<path class="st15" d="M1639.44,337.86h-28.38c-3.38,0-6.13,2.74-6.13,6.13v18.42h40.63v-18.42
								C1645.57,340.61,1642.83,337.86,1639.44,337.86z"/>
							<path class="st15" d="M1688.13,308.58h-28.38c-3.38,0-6.13,2.74-6.13,6.13v47.7h40.63v-47.7
								C1694.26,311.32,1691.51,308.58,1688.13,308.58z"/>
							<path class="st15" d="M1736.82,276h-28.38c-3.38,0-6.13,2.74-6.13,6.13v80.28h40.63v-80.28
								C1742.95,278.74,1740.2,276,1736.82,276z"/>
							<g>
								<g>
									<path class="st174" d="M1606.88,321.85c0.84,0.28,55.94-23.19,100.67-63.8"/>
									<g>
										<polygon class="st28" points="1708.53,267.76 1705.59,259.78 1697.8,256.35 1716.68,249.34 										"/>
									</g>
								</g>
							</g>
							<line class="st175" x1="1596.71" y1="362.41" x2="1751.76" y2="362.41"/>
						</g>
					</g>
					<g>
						<path class="st22" d="M1326.42,526.21c0,0-64.35,72.54-102.31,58.68c0,0-9.65-31.9-12.6-65.34
							c-0.88-10.1-1.16-20.35-0.38-29.89c0.6-7.39,1.85-14.36,3.93-20.53c13.69-40.52,78.47-24.21,78.47-24.21
							S1292.5,482.45,1326.42,526.21z"/>
						<path class="st15" d="M1245.99,513.05c-7.74,30.33-23.38,40.87-31.77,42.02c-0.88-10.1-3.87-55.87-3.09-65.41
							C1223.9,466.31,1253.09,485.22,1245.99,513.05z"/>
						<circle class="st2" cx="1287.12" cy="918.51" r="155.59"/>
						<g>
							<path class="st22" d="M1064.34,764.78c0,0,3.97,89.31,9.74,142.19l86.34-8.56c0,0,14.46-88.92,10.43-130.05
								C1166.81,727.22,1083.27,746.85,1064.34,764.78z"/>
							<circle class="st2" cx="1140.8" cy="619.45" r="64.12"/>
							<path class="st2" d="M1081.86,594.18c0,0-27.82,76.45-19.57,173.18c0,0,41.97,17.94,132.81,10.58l9.42-151.31L1081.86,594.18
								z"/>
							<path class="st23" d="M1061.14,742.33c0,0,70.18,5.33,101.02-0.73"/>
						</g>
						<g>
							<path class="st22" d="M1100.36,863.24l-111.67,45.72c0,0,7.41,45.24,15.19,62.19c0,0,63.04-11.38,129.61-27.9L1100.36,863.24
								z"/>
							<circle class="st22" cx="1117.37" cy="903.07" r="43.29"/>
							<path class="st23" d="M1052.26,882.03l26.99-11.07c0,0,13.41-5.86,24.42-8.97"/>
						</g>
						<g>
							<path class="st22" d="M950.22,945.45c0,0,12.27-5.89,15.36,4.93c0,0-2.32,11.21-15.85,13.53c0,0-19.71,1.94-22.03,8.51
								c-2.32,6.57,6.18,8.89,17.01,8.11s25.83,1.94,58.61-9.27l-14.63-62.29c0,0-46.07,3.92-65.75,5.62
								c-11.14,0.96-33.97,23.5-43.97,38.86c0,0-3.98,14.8-2.67,20.89s6.39,2.31,6.39,2.31s3.54,5.6,12.62,4.02
								s24.12-23.61,33.9-30.25C929.22,950.42,943.92,947.19,950.22,945.45z"/>
							<circle class="st22" cx="998.03" cy="939.64" r="32.06"/>
						</g>
						<g>
							<path class="st2" d="M1430.77,510.87c-22.93-9.06-47.38-4.8-65.91,1.3c-17.71,5.84-38.21,10.72-38.21,10.72
								c-11.28,8.48-44.3,51.9-83.59,61.19c-24.2-15.06-29.94-50.35-29.94-50.35s-62.34,14.45-93.86,25.31
								c-23.29,8.02-39.8,34.92-30.49,134.36c9.32,99.44,42.87,219.04,42.87,219.04s194.57,14.24,310.96,11.87
								c0,0,33.3-136.91,36.3-175.1L1430.77,510.87z"/>
							<path class="st23" d="M1208.77,532.28c-12.5,20.63-19.95,40.57-24.61,60.6c-1.09,4.7-3.73,10.39-0.91,14.84
								c1.67,2.64,4.8,4.27,7.92,4.13c5.45-0.24,11.47-5.18,16.22-7.83c5.21-2.91,10.43-5.83,15.64-8.74
								c6.68-3.73,13.36-7.46,20.04-11.2c2.53-1.41,25.48,30.41,29.16,33.22c16.06,12.27,26.59-15.24,32.22-25.71
								c7.95-14.78,15.09-30.05,21.34-45.62c3.03-7.55,6.34-17.24,8.55-25.07"/>
							<path class="st23" d="M1243.07,584.08c0,0-30.13,123.86-27.04,328.24"/>
							<path class="st23" d="M1084.6,633.94c0,0,0.75,94.98,31.95,214.74"/>
						</g>
						<g>
							<path class="st19" d="M1131.65,912.44c0,0.03-5.25,54.15-3.29,80.57l-267.57,66.24c-60.48,14.97-67.64,98.08-10.61,123.17
								l147.76,65.01c65.03,1.65,130.46-0.71,195.29-5.68c52.14-3.99,104.41-9.86,155.58-20.85
								c52.26-11.23,115.81-28.06,142.19-79.77c24.31-47.65,11.2-108.22-11.77-153.75c-10.85-21.49-21.94-52.7-36.62-63.08
								c0,0-224.56-8.57-305.87-11.67C1136.48,912.63,1131.65,912.44,1131.65,912.44z"/>
							<line class="st176" x1="1173.96" y1="1028.58" x2="882.71" y2="1112.33"/>
						</g>
						<g>
							<path class="st22" d="M1565.15,779.35c0,0,22.88,87.29,19.8,149.47l-57.77-4.24l-51.56-26.39l-31.7-71.74
								C1443.92,826.45,1516.28,779.05,1565.15,779.35z"/>
							<circle class="st2" cx="1404.77" cy="583.89" r="77.49"/>
							<path class="st2" d="M1335.13,617.88l107.7,211.98c0,0,67.33-40.13,126.92-47.22c-31.96-103.73-80.26-213.73-99.97-240.94
								L1335.13,617.88z"/>
							<path class="st23" d="M1427.02,800.44c0,0,31.6-31.86,72.65-40.73"/>
							<polyline class="st23" points="1452.02,825.37 1442.83,829.86 1380.06,705.19 							"/>
						</g>
						<g>
							<path class="st22" d="M1473.1,903.84c-27.91,3.34-237.13,39.03-237.13,39.03l-0.77,55.56c56.33,3.22,111.9,4.45,168.32,3.83
								c30.39-0.33,60.91-1.16,91.14-4.48c32.48-3.56,65.76-14.63,83.42-45.53L1473.1,903.84z"/>
							<circle class="st22" cx="1527.18" cy="924.58" r="57.91"/>
							<path class="st23" d="M1408.13,913.46c0,0,54.95-11.22,76.79-9.74"/>
						</g>
						<g>
							<path class="st22" d="M1157.54,963.88c0,0,10.49,36.48,77.82,34.56l2.58-55.78c0,0-59.82-18.18-84.26-24.36L1157.54,963.88z"
								/>
							<circle class="st22" cx="1236.78" cy="970.66" r="27.81"/>
							<g>
								<circle class="st22" cx="1150.98" cy="926.94" r="9.06"/>
								<polygon class="st22" points="1117.73,922.97 1148.79,918.16 1152.99,935.77 1120.16,938.95 								"/>
							</g>
							<g>
								<circle class="st22" cx="1118.95" cy="930.96" r="8.09"/>
								<path class="st22" d="M1114.78,924.03l-29.76,16.19c0,0-1.38,1.64,1.32,4.69s12.06,7.06,37.36-7.41L1114.78,924.03z"/>
							</g>
							<g>
								<circle class="st22" cx="1148.38" cy="931.84" r="9.06"/>
								<polygon class="st22" points="1118.32,946.61 1141.76,925.67 1154.87,938.16 1129.06,958.69 								"/>
							</g>
							<g>
								<circle class="st22" cx="1123.69" cy="952.65" r="8.09"/>
								<path class="st22" d="M1115.61,952.59l-1.72,33.84c0,0,0.68,2.04,4.69,1.32c4.02-0.72,12.31-6.6,13.17-35.73L1115.61,952.59
									z"/>
							</g>
							<g>
								<circle class="st22" cx="1151.88" cy="944.83" r="8.71"/>
								<polygon class="st22" points="1122.98,959.03 1145.51,938.89 1158.12,950.9 1133.31,970.65 								"/>
							</g>
							<g>
								<circle class="st22" cx="1128.15" cy="964.83" r="7.77"/>
								<path class="st22" d="M1120.59,966.66l6.26,31.97c0,0,1.1,1.74,4.68,0.14c3.58-1.6,9.95-9.02,3.98-36.4L1120.59,966.66z"/>
							</g>
							<g>
								<circle class="st22" cx="1154.04" cy="957.42" r="7.35"/>
								<polygon class="st22" points="1129.65,969.4 1148.66,952.41 1159.31,962.54 1138.36,979.21 								"/>
							</g>
							<g>
								<circle class="st22" cx="1134.1" cy="974.15" r="6.56"/>
								<path class="st22" d="M1129.57,978.9l19.06,19.81c0,0,1.58,0.73,3.39-2.04c1.81-2.77,2.94-10.95-13.82-27.64L1129.57,978.9z
									"/>
							</g>
						</g>
						<g>
							<path class="st22" d="M1293.52,444.92c-0.3,0.48-0.6,0.95-0.91,1.44c-5.89,9.27-9.44,20.28-14.42,30.05
								c-7.49,14.7-16.48,28.75-28,40.63c-31.02,31.99-91.25,50.38-127.84,17.08c-5.22-4.75-9.69-10.3-13.29-16.35
								c-11.61-19.51-12.63-40.69-14.61-62.66c-0.57-6.39-1.25-12.78-2.31-19.12c-0.68-4.06-1.38-8.12-2.05-12.19
								c-3.72-22.44-6.75-45.01-0.55-67.1c8.06-28.84,29.21-52.87,55.36-66.94c1.43-0.77,2.88-1.52,4.34-2.22
								c0,0,44.82-21.04,92.56,1.25c27.9,13.01,51.45,39.5,60,73.65C1307.9,386.74,1306.43,414.92,1293.52,444.92z"/>
							<path class="st76" d="M1236.05,405.87c0,0-9.06,16.54,0,17.72S1236.05,405.87,1236.05,405.87z"/>
							<path class="st76" d="M1228,432.58c0,0-6.5,11.87,0,12.72C1234.5,446.15,1228,432.58,1228,432.58z"/>
							<path class="st76" d="M1244.03,495.4c0,0-5.15,9.41,0,10.08C1249.18,506.15,1244.03,495.4,1244.03,495.4z"/>
							<path class="st14" d="M1222.95,364.56c0,0-60.16,23.97-116.65,23.92c-56.49-0.06-73.95-62.21-46.64-87.92
								s58.61-7.57,58.61-7.57c-5.42-10.21,13.15-27.33,29.93-11.43c0,0,64.79-43,104.37,5.25c0,0,47.47-0.91,56.41,68.05
								s-16.37,91.49-16.37,91.49l-31.68-24.93l-11.91,0.84C1249.02,422.27,1245.31,358.24,1222.95,364.56z"/>
							<g>
								<path class="st22" d="M1256.18,423.95l12.79-15.76c5.92-7.3,16.85-7.88,23.52-1.27v0c5.54,5.49,6.27,14.2,1.72,20.53
									l-14.78,20.62L1256.18,423.95z"/>
								<path class="st177" d="M1292.5,406.92L1292.5,406.92c5.54,5.49,6.27,14.2,1.72,20.53"/>
								<path class="st177" d="M1256.18,423.95l12.79-15.76c5.92-7.3,16.85-7.88,23.52-1.27"/>
								<line class="st177" x1="1282.8" y1="416.26" x2="1268.29" y2="433.27"/>
							</g>
							<path d="M1158.62,490.6c-11.24-7.35-23.89-0.35-24.24,9.78c-0.04,1.26,0.14,2.58,0.88,3.6c1.26,1.73,3.42,1.79,4.8,0.57
								c8.8-7.82,9.68-6.2,16.11-5.54c3.03,0.31,5.99-2.63,4.57-6.21C1160.42,492,1159.26,491.02,1158.62,490.6z"/>
							<path class="st178" d="M1156.13,415.79c0,0,18.77,7.67,33.44,3.17"/>
							<path class="st178" d="M1115.48,421.67c0,0-14.63,6.36-24.36,8.26"/>
							<path class="st177" d="M1134.17,451.14c0,0-1.16,3.89-6.25,6.61c-4.69,2.5-2.08,8.11,3.86,10.78"/>
							<path d="M1174.34,443.11L1174.34,443.11c-2.27,0.16-4.24-1.55-4.4-3.82l-0.37-5.21c-0.16-2.27,1.55-4.24,3.82-4.4l0,0
								c2.27-0.16,4.24,1.55,4.4,3.82l0.37,5.21C1178.32,440.98,1176.61,442.95,1174.34,443.11z"/>
							<path d="M1106.38,447.93L1106.38,447.93c-2.27,0.16-4.24-1.55-4.4-3.82l-0.37-5.21c-0.16-2.27,1.55-4.24,3.82-4.4l0,0
								c2.27-0.16,4.24,1.55,4.4,3.82l0.37,5.21C1110.36,445.8,1108.65,447.77,1106.38,447.93z"/>
						</g>
					</g>
				</g>
				<g style="clip-path:url(#SVGID_9_);">
					<path class="st4" d="M1004.73,959.49H803.92c-7.02,0-12.71,5.69-12.71,12.71l0,0c0,7.02,5.69,12.71,12.71,12.71h200.81V959.49z
						"/>
					<g>
						<circle class="st41" cx="1004.73" cy="972.19" r="12.71"/>
						<path class="st41" d="M1008.22,959.98l180.19,13.15c3.27,0.29,5.71,3.15,5.47,6.43l0,0c-0.24,3.33-3.14,5.83-6.47,5.57
							l-173.22-10.47L1008.22,959.98z"/>
					</g>
				</g>
				<g style="clip-path:url(#SVGID_9_);">
					<path class="st19" d="M866.38,882.66H333.1c-15.83,0-30.07-12.83-31.82-28.65l-40.02-362.69
						c-1.75-15.83,9.67-28.65,25.49-28.65l534.36,0.24c24.14,1.81,36.7,17.75,38.74,38.91l39.3,351.61
						C899.26,875.01,882.21,882.66,866.38,882.66z"/>
					<linearGradient id="SVGID_23_" gradientUnits="userSpaceOnUse" x1="10.0969" y1="246.356" x2="835.5549" y2="878.577">
						<stop  offset="4.277551e-03" style="stop-color:#6B1AFF"/>
						<stop  offset="0.9847" style="stop-color:#6FFFFF"/>
					</linearGradient>
					<path style="fill:url(#SVGID_23_);" d="M861.28,882.66H318.46c-15.83,0-30.07-12.83-31.82-28.65l-40.02-362.69
						c-1.75-15.83,9.67-28.65,25.49-28.65h542.82c15.83,0,30.07,12.83,31.82,28.65l40.02,362.69
						C888.52,869.83,877.11,882.66,861.28,882.66z"/>
					
						<ellipse transform="matrix(0.6764 -0.7366 0.7366 0.6764 -306.578 626.5518)" class="st7" cx="559.72" cy="662.16" rx="27.16" ry="32.21"/>
					<g>
						<path class="st2" d="M530.3,759.22h89.67l-17.17,213.01H467.6l52.11-204.78C520.94,762.61,525.3,759.22,530.3,759.22z"/>
						<path class="st4" d="M602.8,984.88H469.81c-1.23,0-2.22-0.99-2.22-2.22v-10.43H602.8V984.88z"/>
						<path class="st19" d="M664.03,984.88H602.8v-12.65h52.13c6.01,0,10.87,4.87,10.87,10.87l0,0
							C665.8,984.09,665.01,984.88,664.03,984.88z"/>
						<path class="st19" d="M619.96,759.22L619.96,759.22c3.96,43.82,2.97,85.86,0,129.76l-4.01,83.26H602.8L619.96,759.22z"/>
					</g>
				</g>
				<g style="clip-path:url(#SVGID_9_);">
					<g>
						<polygon class="st76" points="270.27,1028.58 125.23,1361.54 141.11,1361.54 314.55,1028.58 						"/>
						<polygon class="st19" points="270.27,1028.58 314.55,1028.58 301.44,1053.74 266.17,1037.98 						"/>
					</g>
					<g>
						<polygon class="st41" points="552.43,1028.58 407.39,1361.54 423.27,1361.54 596.71,1028.58 						"/>
						<polygon class="st19" points="552.43,1028.58 596.71,1028.58 583.61,1053.74 544.22,1047.43 						"/>
					</g>
					<g>
						<polygon class="st41" points="1623.13,1028.58 1768.16,1361.54 1752.29,1361.54 1578.84,1028.58 						"/>
						<polygon class="st19" points="1623.13,1028.58 1578.84,1028.58 1587.8,1045.78 1631.67,1048.19 						"/>
					</g>
					<g>
						<polygon class="st76" points="1303.95,1028.58 1448.98,1361.54 1433.11,1361.54 1259.67,1028.58 						"/>
						<polygon class="st19" points="1303.95,1028.58 1259.67,1028.58 1268.62,1045.78 1312.49,1048.19 						"/>
					</g>
					<path class="st76" d="M155.52,1028.58h1588.52c1.91,0,3.45-1.55,3.45-3.45v0c0-22.23-18.02-40.25-40.25-40.25H192.31
						c-22.23,0-40.25,18.02-40.25,40.25v0C152.07,1027.04,153.61,1028.58,155.52,1028.58z"/>
				</g>
				<g style="clip-path:url(#SVGID_9_);">
					<path class="st28" d="M965.56,903.43h-37.72v-33.25c0-10.42,8.44-18.86,18.86-18.86h0c10.42,0,18.86,8.44,18.86,18.86V903.43z"
						/>
					<path class="st28" d="M989.38,873.9v2c0,8.15-6.61,14.76-14.76,14.76H960l0,0v-16.83l0,0h9.79v0.07c0-5.41,4.38-9.79,9.79-9.79
						l0,0C984.99,864.11,989.38,868.49,989.38,873.9z"/>
					<polygon class="st41" points="965.56,890.66 965.56,883.36 968.18,890.66 					"/>
					<path class="st15" d="M980.81,977.43h-68.22c-5.64,0-10.39-4.2-11.07-9.8l-6.33-51.69c-0.81-6.65,4.37-12.51,11.07-12.51h80.87
						c6.7,0,11.88,5.86,11.07,12.51l-6.33,51.69C991.19,973.22,986.44,977.43,980.81,977.43z"/>
					<path class="st14" d="M986.94,984.88h-80.48c-7.58,0-13.72-6.14-13.72-13.72v0c0-0.65,0.53-1.18,1.18-1.18h105.57
						c0.65,0,1.18,0.53,1.18,1.18v0C1000.66,978.74,994.52,984.88,986.94,984.88z"/>
				</g>
				<path style="clip-path:url(#SVGID_9_);fill:#00B4CC;" d="M1343.35,1028.58h403.72c0.96,0,1.74-0.78,1.74-1.74v0
					c0-23.18-18.79-41.97-41.97-41.97h-323.26c-23.18,0-41.97,18.79-41.97,41.97v0C1341.62,1027.81,1342.4,1028.58,1343.35,1028.58z
					"/>
				
					<line style="clip-path:url(#SVGID_9_);fill:none;stroke:#D7E3F1;stroke-width:3;stroke-miterlimit:10;" x1="818.7" y1="27.99" x2="-251.12" y2="27.99"/>
			</g>
		</g>
	</g>
	<g>
		<path class="st4" d="M1918,1.8V1078.2H2V1.8H1918 M1920-0.2H0V1080.2h1920V-0.2L1920-0.2z"/>
	</g>
</g>
<g id="Layer_2">
</g>
</svg>
