<?xml version="1.0" encoding="utf-8"?>
<!-- Generator: Adobe Illustrator 24.2.1, SVG Export Plug-In . SVG Version: 6.00 Build 0)  -->
<svg version="1.1" xmlns="http://www.w3.org/2000/svg" xmlns:xlink="http://www.w3.org/1999/xlink" x="0px" y="0px"
	 viewBox="0 0 1920 1080" style="enable-background:new 0 0 1920 1080;" xml:space="preserve">
<style type="text/css">
	.st0{clip-path:url(#SVGID_8_);fill:#FFFFFF;}
	.st1{clip-path:url(#SVGID_8_);}
	.st2{fill:#F2F7FA;}
	.st3{opacity:0.7;fill:#D7E3F1;}
	.st4{fill:#D7E3F1;}
	.st5{fill:#E1EAEF;}
	.st6{fill:none;stroke:#39526D;stroke-width:2.4531;stroke-miterlimit:10;}
	.st7{fill:#6FFFFF;}
	.st8{fill:none;stroke:#00B4CC;stroke-width:2.9003;stroke-miterlimit:10;}
	.st9{fill:none;stroke:#00B4CC;stroke-width:2.0505;stroke-miterlimit:10;}
	.st10{fill:none;stroke:#00B4CC;stroke-width:2.4531;stroke-miterlimit:10;}
	.st11{fill:#39526D;}
	.st12{fill:none;stroke:#4621B8;stroke-width:6;stroke-miterlimit:10;}
	.st13{fill:#FFCC3D;}
	.st14{fill:#4621B8;}
	.st15{fill:#6B1AFF;}
	.st16{fill:none;stroke:#000000;stroke-width:2.0117;stroke-miterlimit:10;}
	.st17{fill:none;stroke:#1F2D3D;stroke-width:4.1095;stroke-miterlimit:10;}
	.st18{fill:none;stroke:#4621B8;stroke-width:7.6902;stroke-miterlimit:10;}
	.st19{fill:#1A00CA;}
	.st20{fill:url(#SVGID_9_);}
	.st21{clip-path:url(#SVGID_8_);fill:#D7E3F1;}
	.st22{fill:#A753FF;}
	.st23{fill:none;stroke:#1F2D3D;stroke-width:3.0083;stroke-miterlimit:10;}
	.st24{fill:none;stroke:#000000;stroke-width:1.8486;stroke-miterlimit:10;}
	.st25{fill:none;stroke:#4621B8;stroke-width:7.3942;stroke-miterlimit:10;}
	.st26{fill:none;stroke:#000000;stroke-width:4.1095;stroke-miterlimit:10;}
	.st27{fill:none;stroke:#1F2D3D;stroke-width:3.7229;stroke-miterlimit:10;}
	.st28{fill:#04E7FF;}
	.st29{clip-path:url(#SVGID_8_);fill:#F2F7FA;}
	.st30{clip-path:url(#SVGID_8_);fill:#A753FF;}
	.st31{clip-path:url(#SVGID_8_);fill:none;stroke:#1F2D3D;stroke-width:4.1095;stroke-miterlimit:10;}
	.st32{clip-path:url(#SVGID_8_);fill:#6B1AFF;}
	.st33{clip-path:url(#SVGID_8_);fill:#00B4CC;}
	.st34{clip-path:url(#SVGID_10_);fill:#FFFFFF;}
	.st35{clip-path:url(#SVGID_10_);fill:#F2F7FA;}
	.st36{clip-path:url(#SVGID_10_);}
	.st37{fill:none;stroke:#39526D;stroke-width:1.1596;stroke-miterlimit:10;}
	.st38{fill:none;stroke:#00B4CC;stroke-width:1.1596;stroke-miterlimit:10;}
	.st39{clip-path:url(#SVGID_10_);fill:#39526D;}
	.st40{fill:none;stroke:#D7E3F1;stroke-width:1.2455;stroke-miterlimit:10;}
	.st41{fill:#00B4CC;}
	.st42{fill:none;stroke:#39526D;stroke-width:1.2371;stroke-miterlimit:10;}
	.st43{fill:none;stroke:#A753FF;stroke-width:2.4743;stroke-miterlimit:10;}
	.st44{fill:#1F2D3D;}
	.st45{fill:none;stroke:#000000;stroke-width:0.8957;stroke-miterlimit:10;}
	.st46{fill:none;stroke:#4621B8;stroke-width:3.5828;stroke-miterlimit:10;}
	.st47{fill:none;stroke:#39526D;stroke-width:1.0794;stroke-miterlimit:10;}
	.st48{fill:none;stroke:#1F2D3D;stroke-width:1.0794;stroke-miterlimit:10;}
	.st49{fill:none;stroke:#1F2D3D;stroke-width:1.7394;stroke-miterlimit:10;}
	.st50{fill:none;stroke:#000000;stroke-width:1.7394;stroke-miterlimit:10;}
	.st51{fill:url(#SVGID_11_);}
	.st52{fill:#FFFFFF;}
	.st53{fill:#C7D5E2;}
	.st54{clip-path:url(#SVGID_10_);fill:#D7E3F1;}
	.st55{clip-path:url(#SVGID_10_);fill:none;stroke:#D7E3F1;stroke-width:1.7394;stroke-miterlimit:10;}
	.st56{clip-path:url(#SVGID_10_);fill:none;stroke:#FFFFFF;stroke-width:1.7394;stroke-miterlimit:10;}
	.st57{clip-path:url(#SVGID_12_);fill:#FFFFFF;}
	.st58{clip-path:url(#SVGID_12_);fill:#F2F7FA;}
	.st59{clip-path:url(#SVGID_12_);}
	.st60{fill:none;stroke:#39526D;stroke-width:1.2599;stroke-miterlimit:10;}
	.st61{fill:none;stroke:#00B4CC;stroke-width:1.4896;stroke-miterlimit:10;}
	.st62{fill:none;stroke:#00B4CC;stroke-width:1.0531;stroke-miterlimit:10;}
	.st63{fill:none;stroke:#00B4CC;stroke-width:1.2599;stroke-miterlimit:10;}
	.st64{fill:none;stroke:#D7E3F1;stroke-width:1.7394;stroke-miterlimit:10;}
	.st65{fill:none;stroke:#39526D;stroke-width:1.1488;stroke-miterlimit:10;}
	.st66{fill:none;stroke:#4621B8;stroke-width:2.2976;stroke-miterlimit:10;}
	.st67{fill:none;stroke:#4621B8;stroke-width:3.4789;stroke-miterlimit:10;}
	.st68{fill:url(#SVGID_13_);}
	.st69{fill:none;stroke:#1F2D3D;stroke-width:1.7442;stroke-miterlimit:10;}
	.st70{fill:none;stroke:#000000;stroke-width:1.7442;stroke-miterlimit:10;}
	.st71{clip-path:url(#SVGID_14_);fill:#F2F7FA;}
	.st72{clip-path:url(#SVGID_14_);}
	.st73{clip-path:url(#SVGID_15_);fill:#F2F7FA;}
	.st74{clip-path:url(#SVGID_15_);}
	.st75{fill:none;stroke:#1F2D3D;stroke-width:2.899;stroke-linecap:round;stroke-miterlimit:10;}
	.st76{fill:#05E7FF;}
	.st77{clip-path:url(#SVGID_12_);fill:#00B4CC;}
	.st78{clip-path:url(#SVGID_16_);fill:#FFFFFF;}
	.st79{clip-path:url(#SVGID_16_);fill:#F2F7FA;}
	.st80{clip-path:url(#SVGID_16_);}
	.st81{fill:url(#SVGID_17_);}
	.st82{fill:none;stroke:#000000;stroke-width:0.7846;stroke-miterlimit:10;}
	.st83{fill:none;stroke:#4621B8;stroke-width:3.1384;stroke-miterlimit:10;}
	.st84{fill:url(#SVGID_18_);}
	.st85{clip-path:url(#SVGID_16_);fill:#00B4CC;}
	.st86{clip-path:url(#SVGID_16_);fill:none;stroke:#D7E3F1;stroke-width:1.7394;stroke-miterlimit:10;}
	.st87{clip-path:url(#SVGID_20_);fill:#F2F7FA;}
	.st88{clip-path:url(#SVGID_20_);fill:#6FFFFF;}
	.st89{clip-path:url(#SVGID_20_);}
	.st90{fill:url(#SVGID_21_);}
	.st91{opacity:0.5;}
	.st92{clip-path:url(#SVGID_20_);fill:url(#SVGID_23_);}
	.st93{clip-path:url(#SVGID_20_);fill:none;stroke:#A753FF;stroke-width:4;stroke-miterlimit:10;}
	.st94{clip-path:url(#SVGID_20_);fill:#A753FF;}
	.st95{fill:none;stroke:#39526D;stroke-width:3;stroke-miterlimit:10;}
	.st96{clip-path:url(#SVGID_20_);fill:#04E7FF;}
	.st97{clip-path:url(#SVGID_20_);fill:#00B4CC;}
	.st98{clip-path:url(#SVGID_20_);fill:#1A00CA;}
	.st99{clip-path:url(#SVGID_20_);fill:#4621B8;}
	.st100{fill:none;stroke:#39526D;stroke-width:4.8851;stroke-miterlimit:10;}
	.st101{fill:none;stroke:#00B4CC;stroke-width:5.7756;stroke-miterlimit:10;}
	.st102{fill:none;stroke:#00B4CC;stroke-width:4.0833;stroke-miterlimit:10;}
	.st103{fill:none;stroke:#00B4CC;stroke-width:4.8851;stroke-miterlimit:10;}
	.st104{clip-path:url(#SVGID_20_);fill:#FFFFFF;}
	.st105{clip-path:url(#SVGID_25_);fill:#FFFFFF;}
	.st106{clip-path:url(#SVGID_25_);fill:#F2F7FA;}
	.st107{clip-path:url(#SVGID_25_);}
	.st108{fill:none;stroke:#D7E3F1;stroke-width:1.9662;stroke-miterlimit:10;}
	.st109{fill:#CDDAE8;}
	.st110{fill:none;stroke:#D7E3F1;stroke-width:2.1414;stroke-miterlimit:10;}
	.st111{fill:none;stroke:#F2F7FA;stroke-width:1.6248;stroke-miterlimit:10;}
	.st112{fill:#ABBFCE;}
	.st113{fill:none;stroke:#39526D;stroke-width:3.098;stroke-miterlimit:10;}
	.st114{fill:none;stroke:#39526D;stroke-width:2.6754;stroke-miterlimit:10;}
	.st115{fill:none;stroke:#04E7FF;stroke-width:1.0327;stroke-miterlimit:10;}
	.st116{fill:none;stroke:#4621B8;stroke-width:2.0653;stroke-miterlimit:10;}
	.st117{fill:none;stroke:#39526D;stroke-width:3.7262;stroke-miterlimit:10;}
	.st118{fill:none;stroke:#39526D;stroke-width:3.2179;stroke-miterlimit:10;}
	.st119{fill:none;stroke:#04E7FF;stroke-width:1.2421;stroke-miterlimit:10;}
	.st120{fill:none;stroke:#4621B8;stroke-width:2.4841;stroke-miterlimit:10;}
	.st121{clip-path:url(#SVGID_25_);fill:#1A00CA;}
	.st122{fill:url(#SVGID_26_);}
	.st123{fill:none;stroke:#D7E3F1;stroke-width:1.4518;stroke-linecap:round;stroke-miterlimit:10;}
	.st124{fill:none;stroke:#1F2D3D;stroke-width:3.5459;stroke-miterlimit:10;}
	.st125{clip-path:url(#SVGID_28_);fill:#FFFFFF;}
	.st126{clip-path:url(#SVGID_28_);fill:#F2F7FA;}
	.st127{clip-path:url(#SVGID_28_);}
	.st128{fill:none;stroke:#E1EAF4;stroke-width:18.0109;stroke-miterlimit:10;}
	.st129{fill:none;stroke:#D7E3F1;stroke-width:3;stroke-miterlimit:10;}
	.st130{fill:none;stroke:#D7E3F1;stroke-miterlimit:10;}
	.st131{opacity:0.5;fill:#D7E3F1;}
	.st132{fill:#D0DDEA;}
	.st133{fill:none;stroke:#B8C8D8;stroke-miterlimit:10;}
	.st134{fill:#B8C8D8;}
	.st135{fill:none;stroke:#FFFFFF;stroke-miterlimit:10;}
	.st136{fill:none;stroke:#000000;stroke-width:2.1735;stroke-miterlimit:10;}
	.st137{fill:none;stroke:#000000;stroke-width:4.8318;stroke-miterlimit:10;}
	.st138{fill:url(#SVGID_29_);}
	.st139{fill:none;stroke:#1F2D3D;stroke-width:3.2124;stroke-miterlimit:10;}
	.st140{fill:none;stroke:#1A00CA;stroke-width:3;stroke-miterlimit:10;}
	.st141{clip-path:url(#SVGID_28_);fill:none;stroke:#1F2D3D;stroke-width:3.2124;stroke-miterlimit:10;}
	.st142{fill:url(#SVGID_30_);}
	.st143{font-family:'Montserrat-Medium';}
	.st144{font-size:64.4308px;}
	.st145{fill:none;stroke:#39526D;stroke-width:1.6111;stroke-miterlimit:10;}
	.st146{fill:none;stroke:#00B4CC;stroke-width:1.9048;stroke-miterlimit:10;}
	.st147{fill:none;stroke:#00B4CC;stroke-width:1.3467;stroke-miterlimit:10;}
	.st148{fill:none;stroke:#00B4CC;stroke-width:1.6111;stroke-miterlimit:10;}
	.st149{clip-path:url(#SVGID_28_);fill:#FFCC3D;}
	.st150{clip-path:url(#SVGID_28_);fill:#6B1AFF;}
	.st151{clip-path:url(#SVGID_28_);fill:none;stroke:#1F2D3D;stroke-width:2;stroke-miterlimit:10;}
	.st152{clip-path:url(#SVGID_31_);fill:#FFFFFF;}
	.st153{clip-path:url(#SVGID_31_);fill:#F2F7FA;}
	.st154{clip-path:url(#SVGID_31_);}
	.st155{fill:none;stroke:#39526D;stroke-width:2.173;stroke-miterlimit:10;}
	.st156{fill:none;stroke:#00B4CC;stroke-width:2.5691;stroke-miterlimit:10;}
	.st157{fill:none;stroke:#00B4CC;stroke-width:1.8163;stroke-miterlimit:10;}
	.st158{fill:none;stroke:#00B4CC;stroke-width:2.173;stroke-miterlimit:10;}
	.st159{fill:none;stroke:#39526D;stroke-width:1.9813;stroke-miterlimit:10;}
	.st160{fill:none;stroke:#4621B8;stroke-width:3.9627;stroke-miterlimit:10;}
	.st161{fill:url(#SVGID_32_);}
	.st162{fill:#FFFFFF;stroke:#39526D;stroke-width:3.0083;stroke-miterlimit:10;}
	.st163{fill:none;stroke:#04E7FF;stroke-width:2.2015;stroke-miterlimit:10;}
	.st164{fill:url(#SVGID_33_);}
	.st165{fill:url(#SVGID_34_);}
	.st166{fill:url(#SVGID_35_);}
	.st167{fill:url(#SVGID_36_);}
	.st168{fill:url(#SVGID_37_);}
	.st169{fill:url(#SVGID_38_);}
	.st170{fill:url(#SVGID_39_);}
	.st171{fill:url(#SVGID_40_);}
	.st172{fill:url(#SVGID_41_);}
	.st173{fill:url(#SVGID_42_);}
	.st174{fill:none;stroke:#04E7FF;stroke-width:2.001;stroke-miterlimit:10;}
	.st175{fill:none;stroke:#6B1AFF;stroke-width:3.5018;stroke-miterlimit:10;}
	.st176{fill:none;stroke:#04E7FF;stroke-width:2.6422;stroke-miterlimit:10;}
	.st177{fill:none;stroke:#4621B8;stroke-width:2.3947;stroke-miterlimit:10;}
	.st178{fill:none;stroke:#000000;stroke-width:3.0083;stroke-miterlimit:10;}
	.st179{fill:none;stroke:#000000;stroke-width:1.3532;stroke-miterlimit:10;}
	.st180{fill:none;stroke:#4621B8;stroke-width:5.4128;stroke-miterlimit:10;}
	.st181{fill:url(#SVGID_43_);}
	.st182{clip-path:url(#SVGID_31_);fill:#00B4CC;}
	.st183{clip-path:url(#SVGID_31_);fill:none;stroke:#D7E3F1;stroke-width:3;stroke-miterlimit:10;}
	.st184{clip-path:url(#SVGID_44_);fill:#FFFFFF;}
	.st185{clip-path:url(#SVGID_44_);fill:#F2F7FA;}
	.st186{clip-path:url(#SVGID_44_);}
	.st187{fill:url(#SVGID_45_);}
	.st188{fill:url(#SVGID_46_);}
	.st189{fill:url(#SVGID_47_);}
	.st190{fill:url(#SVGID_48_);}
	.st191{fill:url(#SVGID_49_);}
	.st192{fill:url(#SVGID_50_);}
	.st193{fill:url(#SVGID_51_);}
	.st194{fill:url(#SVGID_52_);}
	.st195{fill:url(#SVGID_53_);}
	.st196{fill:url(#SVGID_54_);}
	.st197{fill:url(#SVGID_55_);}
	.st198{fill:url(#SVGID_56_);}
	.st199{clip-path:url(#SVGID_44_);fill:#00B4CC;}
	.st200{clip-path:url(#SVGID_44_);fill:none;stroke:#D7E3F1;stroke-width:3;stroke-miterlimit:10;}
	.st201{fill:#3720D1;}
	.st202{fill:none;stroke:#351ED0;stroke-linecap:round;stroke-linejoin:round;stroke-miterlimit:10;}
</style>
<g id="Layer_1">
	<g>
		<defs>
			<rect id="SVGID_19_" y="-1169.28" width="1920" height="1080"/>
		</defs>
		<clipPath id="SVGID_8_">
			<use xlink:href="#SVGID_19_"  style="overflow:visible;"/>
		</clipPath>
		<rect x="-75.65" y="-380.67" style="clip-path:url(#SVGID_8_);fill:#6FFFFF;" width="2072.63" height="467.38"/>
	</g>
	<g>
		<defs>
			<rect id="SVGID_27_" width="1920" height="1080"/>
		</defs>
		<clipPath id="SVGID_9_">
			<use xlink:href="#SVGID_27_"  style="overflow:visible;"/>
		</clipPath>
		<rect x="-59.13" y="-46.25" style="clip-path:url(#SVGID_9_);fill:#FFFFFF;" width="2021.9" height="1158.1"/>
		<polygon style="clip-path:url(#SVGID_9_);fill:#F2F7FA;" points="990.22,-46.25 -167.88,1111.85 -167.88,-85.38 		"/>
		<g style="clip-path:url(#SVGID_9_);">
			<path class="st4" d="M1131.22,806H425.54c-5.88,0-10.64-4.76-10.64-10.64v-14.45c0-5.88,4.76-10.64,10.64-10.64h705.68
				c5.88,0,10.64,4.76,10.64,10.64v14.45C1141.86,801.23,1137.1,806,1131.22,806z"/>
			<rect x="444.46" y="-103.18" class="st128" width="667.84" height="864.92"/>
			<line class="st129" x1="444.46" y1="53.18" x2="1112.3" y2="53.18"/>
			<line class="st129" x1="444.46" y1="229.77" x2="1112.3" y2="229.77"/>
			<line class="st129" x1="444.46" y1="406.36" x2="1112.3" y2="406.36"/>
			<line class="st129" x1="444.46" y1="582.95" x2="1112.3" y2="582.95"/>
			<line class="st129" x1="668.99" y1="-103.18" x2="668.99" y2="761.74"/>
			<line class="st129" x1="889.36" y1="-103.18" x2="889.36" y2="761.74"/>
		</g>
		<g style="clip-path:url(#SVGID_9_);">
			<rect x="1556.21" y="-27.34" class="st2" width="17.69" height="1215.33"/>
			<rect x="1573.9" y="116.37" class="st2" width="423.51" height="12.25"/>
			<rect x="1573.9" y="395.7" class="st2" width="423.51" height="12.25"/>
			<rect x="1573.9" y="675.03" class="st2" width="423.51" height="12.25"/>
			<rect x="1573.9" y="954.36" class="st2" width="423.51" height="12.25"/>
			<polygon class="st3" points="1617.96,395.7 1617.96,152.44 1974.74,152.44 1974.74,128.62 1573.9,128.62 1573.9,395.7 			"/>
			<polygon class="st3" points="1617.96,116.37 1617.96,-126.89 1974.74,-126.89 1974.74,-150.71 1573.9,-150.71 1573.9,116.37 			
				"/>
			<polygon class="st3" points="1617.77,675.03 1617.77,431.77 1974.56,431.77 1974.56,407.95 1573.72,407.95 1573.72,675.03 			"/>
			<polygon class="st3" points="1617.96,954.36 1617.96,711.1 1974.74,711.1 1974.74,687.29 1573.9,687.29 1573.9,954.36 			"/>
			<polygon class="st3" points="1617.96,1229.21 1617.96,985.95 1974.74,985.95 1974.74,962.14 1573.9,962.14 1573.9,1229.21 			"/>
			<path class="st2" d="M1731.93,395.7h-49.71c0,0-34.17-27.25-29.51-66.09c4.66-38.83,48.29-70.68,20.26-128.15h68.21
				c-28.02,57.47,15.6,89.32,20.26,128.15C1766.1,368.45,1731.93,395.7,1731.93,395.7z"/>
			<g>
				<path class="st130" d="M1956.62,588.06c0,9.31-1.27,18.32-3.64,26.87h-0.01c-6.7,24.18-22.25,44.69-42.95,57.83
					c-2.37,1.5-5.13,2.27-7.93,2.27h-91.44c-2.82,0-5.59-0.78-7.98-2.29c-22.7-14.43-39.21-37.73-44.62-65.04
					c-1.27-6.35-1.93-12.92-1.93-19.64c0-11.15,1.82-21.88,5.19-31.89c5.85-17.48,16.4-32.81,30.14-44.49
					c2.72-2.32,6.18-3.61,9.75-3.61h110.33c3.59,0,7.05,1.31,9.79,3.64c14.47,12.32,25.39,28.67,31.03,47.32
					C1955.13,568.21,1956.62,577.96,1956.62,588.06z"/>
				<path class="st131" d="M1956.62,588.06c0,9.31-1.27,18.32-3.64,26.87h-0.01c-7.1,25.62-24.14,47.12-46.7,60.1h-99.8
					c-24.65-14.18-42.7-38.53-48.41-67.33c-1.27-6.35-1.93-12.92-1.93-19.64c0-11.15,1.82-21.88,5.19-31.89
					c8.15-3.07,18.22-4.78,28.78-1.59c25.33,7.64,34.99,3.02,45.24-1.71c10.24-4.73,23.91-5.13,37.58,4.12s26.54-8.35,44.63-7.39
					c9.96,0.53,24.1,5.27,34.8,9.43C1955.13,568.21,1956.62,577.96,1956.62,588.06z"/>
				<path class="st132" d="M1835.33,632.05c0,0,5.09-9.16,16.03-10.69c10.94-1.53,23.92,7.48,23.92,7.48l5.79-3.57l-1.45,7.77
					l1.76,5.83l-6.24-3.2C1875.14,635.68,1844.93,651.97,1835.33,632.05z"/>
				<path class="st133" d="M1850.63,621.48c0,0,3.14,8.85,0,20.42"/>
				<circle class="st134" cx="1839.8" cy="631.57" r="0.82"/>
				<path class="st133" d="M1859.38,635.29c0,0,5.21-2.25,4.01-4.54"/>
				<path class="st135" d="M1775.05,567.76c0,0,14-3.73,30.8,3.73c16.8,7.47,27.69-2.8,37.95-2.33"/>
				<path class="st52" d="M1819.22,675.03c0,0-8.4-8.97-8.4-21.1s15.24,10.55,15.24,10.55s1.56-8.06,3.11-8.37s4.04,6.59,4.04,6.59
					l4.36,5.23l6.22-2.8c0,0,6.22,0.31,5.29,9.95L1819.22,675.03z"/>
				<path class="st135" d="M1866.77,585.71c0,0,5.8-5.35,14.61-3.35c8.81,2.01,15.17,4.23,24.87,1.45c9.7-2.79,15.06-0.44,19.4,1.9"
					/>
			</g>
			<path class="st4" d="M1921.26,395.7h-106.04c-2.43,0-4.4-1.97-4.4-4.4v-16.4c0-2.43,1.97-4.4,4.4-4.4h106.04
				c2.43,0,4.4,1.97,4.4,4.4v16.4C1925.66,393.73,1923.69,395.7,1921.26,395.7z"/>
			<path class="st5" d="M1934.63,370.51h-108.61c-1.72,0-3.11-1.39-3.11-3.11v-6.38c0-1.72,1.39-3.11,3.11-3.11h108.61
				c1.72,0,3.11,1.39,3.11,3.11v6.38C1937.74,369.12,1936.35,370.51,1934.63,370.51z"/>
			<path class="st2" d="M1927.16,357.92h-107.77c-1.95,0-3.53-1.58-3.53-3.53v-9.2c0-1.95,1.58-3.53,3.53-3.53h107.77
				c1.95,0,3.53,1.58,3.53,3.53v9.2C1930.69,356.33,1929.11,357.92,1927.16,357.92z"/>
			<path class="st5" d="M1839.56,25.75h-48.26c-11.7,0-21.18,9.48-21.18,21.18v69.44h90.62V46.93
				C1860.74,35.23,1851.26,25.75,1839.56,25.75z"/>
			<path class="st2" d="M1937.23-27.34h-37.28c-14.73,0-26.67,11.94-26.67,26.67v117.04h90.62V-0.67
				C1963.89-15.4,1951.95-27.34,1937.23-27.34z"/>
			<path class="st5" d="M1721.21,675.27h-33.64v-22.15c0-8.21,6.65-14.86,14.86-14.86h3.93c8.21,0,14.86,6.65,14.86,14.86V675.27z"
				/>
			<path class="st5" d="M1825.54,954.36h-102.51c-7.42,0-13.44-6.02-13.44-13.44v-33.16c0-7.42,6.02-13.44,13.44-13.44h102.51
				c7.42,0,13.44,6.02,13.44,13.44v33.16C1838.98,948.34,1832.96,954.36,1825.54,954.36z"/>
			<path class="st5" d="M1982.72,954.36h-102.51c-7.42,0-13.44-6.02-13.44-13.44v-33.16c0-7.42,6.02-13.44,13.44-13.44h102.51
				c7.42,0,13.44,6.02,13.44,13.44v33.16C1996.16,948.34,1990.14,954.36,1982.72,954.36z"/>
			<path class="st2" d="M1787.85,894.32h-3c-12.69,0-22.98-10.29-22.98-22.98v0c0-12.69,10.29-22.98,22.98-22.98h3
				c12.69,0,22.98,10.29,22.98,22.98v0C1810.83,884.04,1800.54,894.32,1787.85,894.32z"/>
		</g>
		<g style="clip-path:url(#SVGID_9_);">
			<g>
				<circle class="st4" cx="1118.12" cy="672.65" r="97.25"/>
				<path class="st4" d="M1025.04,644.42c-30.19,109.03-55.2,321.12-88.5,481.41l183.93,41.47c0,0,93.57-397.66,94.88-496.55
					L1025.04,644.42z"/>
			</g>
			<g>
				<path class="st15" d="M1565.99,1149.2l-462.45,32.12l-6.6,0.46l-17.77-17.32l-2.36-43.05c7-72.33,15.16-203.35-11.64-523.06
					c52.11-55.76,210.71-85.71,210.71-85.71l116.9-35.57c0,0,156.63,57.05,215.5,121.27
					C1679.59,676.14,1565.99,1149.2,1565.99,1149.2z"/>
				<path class="st4" d="M1225.63,528.46l-8.63,32.83c-4.1,15.59,5.4,31.61,21.1,35.26c9.9,2.3,23.87,2.72,43.57-0.59
					c70.05-11.76,120.5-57.31,133.24-94.54C1427.64,464.19,1226.26,526.07,1225.63,528.46z"/>
				<path class="st4" d="M1560.26,595.02c-41.33-33.17-122.87-88.01-170.98-105.49l-154.52,31.55c0,0-124.33,40.29-143.96,62.8
					c-36.23,41.55-31.4,92.75-31.4,92.75c0.04,9.29-47.68,32.16-30.75-42.1c3.5-15.36,26.67-37.53,28.77-39.37
					c63.05-55.16,203.43-93.95,203.43-93.95l131.67-33.47c0,0,143.37,50.3,218.72,123.51c22.54,22.84,34.65,45.92,43.79,69.06
					L1560.26,595.02z"/>
			</g>
			<g>
				<circle class="st4" cx="1563.15" cy="692.27" r="97.25"/>
				<path class="st4" d="M1659.08,676.15c16.01,111.99,27.71,383.1-6.05,530.02L1551.45,1176l-72.51-77.24
					c-2.72,19.09-23.31-322.56-11.98-420.8L1659.08,676.15z"/>
			</g>
			<g>
				<g>
					<path class="st28" d="M1144.52,785.01c0,0-5.31,66.8,107.15,105.46l38.9-90.59c0,0-87.58-67.2-124.12-92.59L1144.52,785.01z"/>
					<circle class="st28" cx="1271.25" cy="845.43" r="49.09"/>
					<g>
						<circle class="st28" cx="1156.57" cy="719.92" r="15.99"/>
						<polygon class="st28" points="1108.64,685.29 1160.71,704.47 1152.11,735.27 1098.7,712.05 						"/>
					</g>
					<g>
						<circle class="st28" cx="1103.68" cy="698.67" r="14.28"/>
						<path class="st28" d="M1107.49,684.91l-56.91-18.43c0,0-3.78,0.22-4.39,7.4c-0.61,7.18,5.61,24.02,54.89,38.82L1107.49,684.91
							z"/>
					</g>
					<g>
						<circle class="st28" cx="1149.27" cy="726.38" r="15.99"/>
						<polygon class="st28" points="1090.42,732.12 1142.16,712.06 1156.08,740.85 1100.67,758.76 						"/>
					</g>
					<g>
						<circle class="st28" cx="1095.55" cy="745.43" r="14.28"/>
						<path class="st28" d="M1082.22,740.31l-23.85,54.86c0,0-0.15,3.78,6.94,5.09c7.08,1.31,24.45-3.26,43.96-50.87L1082.22,740.31
							z"/>
					</g>
					<g>
						<circle class="st28" cx="1146.99" cy="750.02" r="15.37"/>
						<polygon class="st28" points="1090.41,755.54 1140.15,736.25 1153.54,763.93 1100.26,781.15 						"/>
					</g>
					<g>
						<circle class="st28" cx="1095.34" cy="768.34" r="13.72"/>
						<path class="st28" d="M1081.72,766.66l-9.5,56.72c0,0,0.74,3.56,7.65,3.14c6.91-0.43,22.05-8.73,29.19-57.68L1081.72,766.66z"
							/>
					</g>
					<g>
						<circle class="st28" cx="1142.74" cy="772.16" r="12.97"/>
						<polygon class="st28" points="1094.98,776.82 1136.96,760.54 1148.26,783.9 1103.3,798.44 						"/>
					</g>
					<g>
						<circle class="st28" cx="1099.39" cy="787.43" r="11.58"/>
						<path class="st28" d="M1088.96,792.46l19.2,44.59c0,0,2.16,2.19,6.86-1.27c4.71-3.46,11.65-16.27-5.67-54.27L1088.96,792.46z"
							/>
					</g>
				</g>
				<polygon class="st41" points="1288.45,802.22 1217.69,876.33 1226.1,880.98 				"/>
				<path class="st4" d="M1562.86,1038.2c-28.72-34.84-270.29-240.81-270.29-240.81l-80.24,93.93
					c50.1,85.48,190.96,273.09,221.66,311.08c9.86,12.21,30.16,36.14,41.61,47.57l157.85-141.04
					C1613.49,1086.73,1562.86,1038.2,1562.86,1038.2z"/>
				<circle class="st4" cx="1551.45" cy="1176" r="105.95"/>
				<path class="st137" d="M1438.85,923.89c0,0,114.26,103.19,135.99,125.19"/>
			</g>
			<path class="st19" d="M688.23,552.9l10.57-2.51c9.44-2.24,19.1-3.38,28.8-3.42l265.12-1c22.94-0.09,43,15.45,48.64,37.69
				l49.85,196.48c2.74,10.78,1.31,22.2-4,31.97l0,0L688.23,552.9z"/>
			<linearGradient id="SVGID_10_" gradientUnits="userSpaceOnUse" x1="552.1974" y1="473.2724" x2="1104.1002" y2="830.8829">
				<stop  offset="4.277551e-03" style="stop-color:#6B1AFF"/>
				<stop  offset="0.9847" style="stop-color:#04E7FF"/>
			</linearGradient>
			<path style="fill:url(#SVGID_10_);" d="M1072.12,821.26H772.59c-20.95,0-39.22-14.27-44.29-34.59L675.15,573.7
				c-2.68-10.75,5.45-21.15,16.52-21.15h299.53c20.95,0,39.22,14.27,44.29,34.59l53.15,212.97
				C1091.32,810.86,1083.2,821.26,1072.12,821.26z"/>
			
				<ellipse transform="matrix(0.6507 -0.7593 0.7593 0.6507 -217.4236 901.1699)" class="st28" cx="870.78" cy="686.9" rx="19.9" ry="27.1"/>
			<g>
				<path class="st28" d="M1392.51,467.74c8.64,38.95-85.87,128.85-164.33,101.83c0,0-0.13-26.87-5.16-62.88
					c-1.85-13.3-4.38-27.85-7.82-42.76c-1.98-8.59-4.5-17.27-6.18-25.86c0,0,0,0,0-0.02c-1.43-7.24-2.26-14.42-1.69-21.44
					c0.96-11.87,2.97-23.06,6.31-32.97c21.99-65.08,151.4-79.94,151.4-79.94S1365.44,392.23,1392.51,467.74z"/>
				<path class="st41" d="M1275.24,426.81c-6.55,50.55-33.38,71.39-52.22,79.88c-1.85-13.3-4.38-27.85-7.82-42.76
					c-1.98-8.59-4.5-17.27-6.18-25.86c0,0,0,0,0-0.02C1232.77,395.72,1282.08,373.97,1275.24,426.81z"/>
			</g>
			<g>
				<path class="st28" d="M819.55,864.28c0,29.42-23.86,53.27-53.28,53.27c-14.56,0-27.76-5.84-37.38-15.32
					c-4.98-4.9-9-10.79-11.76-17.33c-0.18-0.45-0.36-0.9-0.54-1.35c0,0-0.04-0.1-0.12-0.31c-2.24-5.89-3.47-12.28-3.47-18.96
					c0-29.43,23.85-53.28,53.27-53.28c13.6,0,26.02,5.1,35.43,13.5c1.14,1.01,2.24,2.07,3.28,3.17c0.01,0.01,0.01,0.01,0.01,0.02
					C814.02,837.23,819.55,850.11,819.55,864.28z"/>
				<path class="st28" d="M807.31,842.41c-10.12,20.69-72.22,36.72-87.38,40.36c-2.14,0.51-3.34,0.78-3.34,0.78
					s-42.27-107.22-42.27-135.17c0-27.96,51.71-106.15,57.3-115.27c5.59-9.13,16.78,13.23,6.99,42.59
					c-9.78,29.35-13.98,49.79-13.98,49.79s11.79-21.13,17.85-24.62c6.07-3.49,47.07-15.7,55.79-20.06c8.73-4.36,13.09,18.32,0,25.3
					c0,0-0.87,14.34-9.59,19.38l-17.45,14.64c0,0,20.94,3.49,29.66,3.49c8.73,0,6.11,14.83-10.47,17.45
					c-16.57,2.62-34.89,8.24-34.89,8.24s23.47,27.71,46.57,54.96c0.96,1.14,1.92,2.27,2.88,3.4c1.24,1.49,2.15,2.97,2.75,4.43
					C809.21,835.63,808.93,839.08,807.31,842.41z"/>
				<path class="st41" d="M807.73,832.1c0.04,3.59-0.1,7.02-0.42,10.31c-5.24,53.9-56.74,69.27-78.42,59.82
					c-4.98-4.9-9-10.79-11.76-17.33c0.56-0.42,1.51-1.15,2.8-2.13c13.51-10.25,63.81-48.18,81.77-58.27
					c0.14-0.08,0.27-0.16,0.4-0.23c0.96,1.14,1.92,2.27,2.88,3.4c0.01,0.01,0.01,0.01,0.01,0.02
					C806.23,829.17,807.13,830.65,807.73,832.1z"/>
				<line class="st139" x1="731.81" y1="713.69" x2="710.57" y2="747.92"/>
			</g>
			<g>
				<g>
					<path class="st19" d="M1052.82,346.08c0,0,7.91,60.58-34.85,115.01c0,0,145.19,92.15,257.27-34.28
						C1387.32,300.39,1052.82,346.08,1052.82,346.08z"/>
					<path class="st11" d="M1143.87,55.91L1143.87,55.91c-2.24-8.53,3.01-17.22,11.6-19.19l5.93-1.36
						c7.17-1.65,14.52,1.94,17.64,8.6l2.15,4.59L1143.87,55.91z"/>
					<path class="st28" d="M1366.35,301.3c-0.42,0.8-0.87,1.59-1.32,2.39c-8.56,15.42-13.22,33.41-20.29,49.55
						c-10.62,24.27-23.69,47.64-41.05,67.78c-46.71,54.22-143.37,78.91-205.19,28.98c-8.82-7.12-16.51-15.6-22.86-24.96
						c-20.46-30.18-22.28-53.57-27.51-88.61c-1.53-10.2-3.23-20.38-5.53-30.42c-1.46-6.46-2.97-12.9-4.43-19.35
						c-0.72-3.18-1.43-6.34-2.12-9.52c-1.16-5.27-2.26-10.55-3.26-15.85c-0.72-3.82-1.4-7.65-2.01-11.48
						c-3.74-23.47-5-47.05,0.16-70.67c10.2-47,41.84-87.52,82.43-112.56c2.22-1.38,4.48-2.7,6.76-3.97c0,0,69.87-37.97,148.52-6.75
						c45.97,18.23,86.24,58.48,103.17,112.42c4.37,13.93,7.21,28.73,8.19,44.35C1381.75,240.04,1377.72,269.86,1366.35,301.3z"/>
					<path class="st136" d="M1147.03,391.05c0,0,16.27,0.01,21.97-11.95"/>
					<path class="st41" d="M1032.8,261.28c0,0,103.14,1.18,254.68-22.66l-3.54-14.31L1032.8,261.28z"/>
					<path class="st19" d="M1380.02,212.61c0,0,12.49,53.4,75.58,68.38c0,0-1.88,106.43-96.3,141.86
						c-2.16,0.81-14.13-8.81-25.38-19.7c0,0,6.25,11.07,15.28,23.1c-7.49,2.25-16.59,8.42-25.17,9.75c0,0-48.46-59.37-70.3-201.9
						C1253.73,234.09,1337.25,196.14,1380.02,212.61z"/>
					<path class="st11" d="M1380.02,212.61c0,0,112.47-18.46,107.22-40.94c-5.25-22.48-201.45,16.99-201.45,16.99L1380.02,212.61z"
						/>
					<path class="st2" d="M1380.02,212.61c-49.43,9.47-269.07,50.62-347.22,48.68c-5.18-27.28-7.84-54.68-1.85-82.16
						c10.2-47.01,41.83-87.53,82.43-112.56c2.22-1.37,4.47-2.71,6.75-3.97c0,0,69.87-37.97,148.53-6.74
						c45.96,18.22,86.23,58.48,103.16,112.43C1376.2,182.18,1379.04,197.01,1380.02,212.61z"/>
					<path class="st136" d="M1281.72,157.74c-36.98-107.79-121.58-109.2-121.58-109.2"/>
					<path class="st136" d="M1093.92,80.3c0,0-39.23,22.84-54.65,72.13"/>
					<path class="st136" d="M1287.48,178.2c0,0,7.1,27.77,9.19,38.55"/>
					<path class="st19" d="M1054.5,238.63c0,0,58.32-4.83,80.52-13.34c0,0-5.76-46.19-44.66-41.94
						C1051.46,187.6,1050.25,219.76,1054.5,238.63z"/>
					<path class="st140" d="M1149.27,272.9c0,0,27.45-16.72,51.17-3.05"/>
					<path class="st140" d="M1074.45,279.77c0,0-23.17-0.63-34.08,13.12"/>
					<path class="st136" d="M1111.45,326.32c0,0-1.49,6.35-9.4,11.18c-7.28,4.44-2.57,13.19,7.21,16.92"/>
					<path d="M1175.1,309.66L1175.1,309.66c-3.63,0.47-6.95-2.08-7.42-5.71l-1.08-8.32c-0.47-3.63,2.08-6.95,5.71-7.42l0,0
						c3.63-0.47,6.95,2.08,7.42,5.71l1.08,8.32C1181.28,305.87,1178.72,309.19,1175.1,309.66z"/>
					<path d="M1066.58,323.81L1066.58,323.81c-3.63,0.47-6.95-2.08-7.42-5.71l-1.08-8.32c-0.47-3.63,2.08-6.95,5.71-7.42l0,0
						c3.63-0.47,6.95,2.08,7.42,5.71l1.08,8.32C1072.76,320.01,1070.2,323.33,1066.58,323.81z"/>
				</g>
			</g>
			<g>
				<path class="st4" d="M710.57,900.97c0,0,137.98,211.43,254.75,313.11l127.26-139.25c-51.38-53.3-286.16-245.49-286.16-245.49
					S777.93,861.02,710.57,900.97z"/>
				<path class="st137" d="M952.92,954.21c0,0,65.58,55.36,74.6,65.31"/>
				<circle class="st4" cx="1028.97" cy="1144.52" r="94.28"/>
			</g>
		</g>
		<g style="clip-path:url(#SVGID_9_);">
			<linearGradient id="SVGID_11_" gradientUnits="userSpaceOnUse" x1="371.3314" y1="363.8411" x2="698.7518" y2="363.8411">
				<stop  offset="0" style="stop-color:#6C1BFF"/>
				<stop  offset="1" style="stop-color:#A753FF"/>
			</linearGradient>
			<path class="st51" d="M698.75,447.45H454.94c-46.17,0-83.6-37.43-83.6-83.6v0c0-46.17,37.43-83.6,83.6-83.6h160.21
				c46.17,0,83.6,37.43,83.6,83.6V447.45z"/>
			<text transform="matrix(1 0 0 1 465.1008 384.945)" class="st52 st143 st144">BUY</text>
		</g>
		<g style="clip-path:url(#SVGID_9_);">
			<polygon class="st15" points="247.68,1033.37 261.23,1149 411.76,1149 425.32,1033.37 			"/>
			<ellipse class="st14" cx="336.5" cy="1033.37" rx="88.82" ry="12.56"/>
			<path class="st19" d="M414.87,1033.36c0,0.61-0.6,1.21-1.77,1.79c-7.61,3.78-39.02,6.62-76.61,6.62c-37.6,0-69-2.84-76.61-6.62
				c-1.16-0.58-1.77-1.17-1.77-1.79c0-4.64,35.09-8.4,78.37-8.4C379.78,1024.97,414.87,1028.73,414.87,1033.36z"/>
			<ellipse class="st13" cx="336.5" cy="1035.15" rx="76.61" ry="6.62"/>
			<g>
				<line class="st145" x1="336.49" y1="1032.22" x2="336.49" y2="840.94"/>
				<path class="st7" d="M336.44,867.63c0,0-9.51-174.18-9.54-174.6c-1.28-23.39-1.79-49.41-19.81-67.39
					c-16.78-16.74-44.54-24.75-65.39-10.64c-11.82,8-17.48,21.93-17.82,35.87c-0.43,17.58,5.33,36.01,12.85,51.74
					C271.72,775.86,336.44,867.63,336.44,867.63z"/>
				<line class="st146" x1="336.44" y1="867.63" x2="260.23" y2="607.97"/>
				<path class="st7" d="M338.14,868.88c0,0,59.21-108.19,59.35-108.45c7.95-14.53,17.34-30.35,13.22-47.87
					c-3.84-16.31-17.54-31.47-35.31-30.77c-10.09,0.4-18.68,6.66-24.07,14.91c-6.81,10.4-10.22,23.62-11.57,35.87
					C333.47,789.63,338.14,868.88,338.14,868.88z"/>
				<line class="st147" x1="338.14" y1="868.88" x2="389.14" y2="684.48"/>
				<path class="st145" d="M336.49,909.29c0.01-1.96,52.39-92.27,52.39-92.27"/>
				<path class="st7" d="M388.88,817.02l61.52-107.32c0,0,20.63-45.16,58.79-31.02c9.84,3.65,16.88,12.74,17.35,23.23
					c0.57,12.74-6.4,31.44-37.96,54.01C448.81,784.36,388.88,817.02,388.88,817.02z"/>
				<line class="st148" x1="388.88" y1="817.02" x2="509.19" y2="678.68"/>
				<path class="st7" d="M316.28,925.38L194.97,768.83c0,0-26.53-39.36-62.96-28.69c-11.59,3.39-20.47,12.54-23.24,24.3
					c-3.53,15.01-1.62,37.98,30.17,58.69C191.27,857.23,316.28,925.38,316.28,925.38z"/>
				<line class="st148" x1="316.28" y1="925.38" x2="124.67" y2="743.27"/>
				<line class="st148" x1="107.49" y1="785.01" x2="196.04" y2="811.1"/>
				<line class="st145" x1="313.45" y1="922.69" x2="336.49" y2="949.86"/>
				<path class="st7" d="M356.4,961.47l62.34-97.8c0,0,10.27-20.18,26.81-26.49c19.99-7.63,38.41,13.54,28.86,32.69
					c-3.22,6.46-9.01,13.87-18.71,22.18C416.87,925.26,356.4,961.47,356.4,961.47z"/>
				<line class="st148" x1="356.4" y1="961.47" x2="466.47" y2="839.47"/>
				<line class="st148" x1="474.4" y1="851.55" x2="404.02" y2="890.37"/>
				<line class="st145" x1="336.49" y1="991.33" x2="356.4" y2="961.47"/>
			</g>
		</g>
		<circle style="clip-path:url(#SVGID_9_);fill:#FFCC3D;" cx="1886.95" cy="55.91" r="24.39"/>
		<polygon style="clip-path:url(#SVGID_9_);fill:#6B1AFF;" points="1844.27,-20.04 1739.1,44.51 1707.07,51.43 1707.07,64.96 
			1981.47,64.96 1981.47,-37.42 		"/>
		
			<line style="clip-path:url(#SVGID_9_);fill:none;stroke:#1F2D3D;stroke-width:2;stroke-miterlimit:10;" x1="1739.1" y1="44.51" x2="1822.91" y2="44.51"/>
	</g>
	<g>
		<path class="st4" d="M1918,1.8V1078.2H2V1.8H1918 M1920-0.2H0V1080.2h1920V-0.2L1920-0.2z"/>
	</g>
	<g>
		<g>
			<g>
				<defs>
					<rect id="SVGID_2_" y="1178.16" width="1920" height="1080.39"/>
				</defs>
				<clipPath id="SVGID_12_">
					<use xlink:href="#SVGID_2_"  style="overflow:visible;"/>
				</clipPath>
				<polygon class="st58" points="1002.62,1105.99 -148.77,2257.38 -148.77,1075.95 				"/>
			</g>
		</g>
	</g>
</g>
<g id="Layer_2">
</g>
</svg>
