<?xml version="1.0" encoding="utf-8"?>
<!-- Generator: Adobe Illustrator 24.2.1, SVG Export Plug-In . SVG Version: 6.00 Build 0)  -->
<svg version="1.1" xmlns="http://www.w3.org/2000/svg" xmlns:xlink="http://www.w3.org/1999/xlink" x="0px" y="0px"
	 viewBox="0 0 1920 1080" style="enable-background:new 0 0 1920 1080;" xml:space="preserve">
<style type="text/css">
	.st0{clip-path:url(#SVGID_8_);fill:#FFFFFF;}
	.st1{clip-path:url(#SVGID_8_);}
	.st2{fill:#F2F7FA;}
	.st3{opacity:0.7;fill:#D7E3F1;}
	.st4{fill:#D7E3F1;}
	.st5{fill:#E1EAEF;}
	.st6{fill:none;stroke:#39526D;stroke-width:2.4531;stroke-miterlimit:10;}
	.st7{fill:#6FFFFF;}
	.st8{fill:none;stroke:#00B4CC;stroke-width:2.9003;stroke-miterlimit:10;}
	.st9{fill:none;stroke:#00B4CC;stroke-width:2.0505;stroke-miterlimit:10;}
	.st10{fill:none;stroke:#00B4CC;stroke-width:2.4531;stroke-miterlimit:10;}
	.st11{fill:#39526D;}
	.st12{fill:none;stroke:#4621B8;stroke-width:6;stroke-miterlimit:10;}
	.st13{fill:#FFCC3D;}
	.st14{fill:#4621B8;}
	.st15{fill:#6B1AFF;}
	.st16{fill:none;stroke:#000000;stroke-width:2.0117;stroke-miterlimit:10;}
	.st17{fill:none;stroke:#1F2D3D;stroke-width:4.1095;stroke-miterlimit:10;}
	.st18{fill:none;stroke:#4621B8;stroke-width:7.6902;stroke-miterlimit:10;}
	.st19{fill:#1A00CA;}
	.st20{fill:url(#SVGID_9_);}
	.st21{clip-path:url(#SVGID_8_);fill:#D7E3F1;}
	.st22{fill:#A753FF;}
	.st23{fill:none;stroke:#1F2D3D;stroke-width:3.0083;stroke-miterlimit:10;}
	.st24{fill:none;stroke:#000000;stroke-width:1.8486;stroke-miterlimit:10;}
	.st25{fill:none;stroke:#4621B8;stroke-width:7.3942;stroke-miterlimit:10;}
	.st26{fill:none;stroke:#000000;stroke-width:4.1095;stroke-miterlimit:10;}
	.st27{fill:none;stroke:#1F2D3D;stroke-width:3.7229;stroke-miterlimit:10;}
	.st28{fill:#04E7FF;}
	.st29{clip-path:url(#SVGID_8_);fill:#F2F7FA;}
	.st30{clip-path:url(#SVGID_8_);fill:#A753FF;}
	.st31{clip-path:url(#SVGID_8_);fill:none;stroke:#1F2D3D;stroke-width:4.1095;stroke-miterlimit:10;}
	.st32{clip-path:url(#SVGID_8_);fill:#6B1AFF;}
	.st33{clip-path:url(#SVGID_8_);fill:#00B4CC;}
	.st34{clip-path:url(#SVGID_10_);fill:#FFFFFF;}
	.st35{clip-path:url(#SVGID_10_);fill:#F2F7FA;}
	.st36{clip-path:url(#SVGID_10_);}
	.st37{fill:none;stroke:#39526D;stroke-width:1.1596;stroke-miterlimit:10;}
	.st38{fill:none;stroke:#00B4CC;stroke-width:1.1596;stroke-miterlimit:10;}
	.st39{clip-path:url(#SVGID_10_);fill:#39526D;}
	.st40{fill:none;stroke:#D7E3F1;stroke-width:1.2455;stroke-miterlimit:10;}
	.st41{fill:#00B4CC;}
	.st42{fill:none;stroke:#39526D;stroke-width:1.2371;stroke-miterlimit:10;}
	.st43{fill:none;stroke:#A753FF;stroke-width:2.4743;stroke-miterlimit:10;}
	.st44{fill:#1F2D3D;}
	.st45{fill:none;stroke:#000000;stroke-width:0.8957;stroke-miterlimit:10;}
	.st46{fill:none;stroke:#4621B8;stroke-width:3.5828;stroke-miterlimit:10;}
	.st47{fill:none;stroke:#39526D;stroke-width:1.0794;stroke-miterlimit:10;}
	.st48{fill:none;stroke:#1F2D3D;stroke-width:1.0794;stroke-miterlimit:10;}
	.st49{fill:none;stroke:#1F2D3D;stroke-width:1.7394;stroke-miterlimit:10;}
	.st50{fill:none;stroke:#000000;stroke-width:1.7394;stroke-miterlimit:10;}
	.st51{fill:url(#SVGID_11_);}
	.st52{fill:#FFFFFF;}
	.st53{fill:#C7D5E2;}
	.st54{clip-path:url(#SVGID_10_);fill:#D7E3F1;}
	.st55{clip-path:url(#SVGID_10_);fill:none;stroke:#D7E3F1;stroke-width:1.7394;stroke-miterlimit:10;}
	.st56{clip-path:url(#SVGID_10_);fill:none;stroke:#FFFFFF;stroke-width:1.7394;stroke-miterlimit:10;}
	.st57{clip-path:url(#SVGID_12_);fill:#FFFFFF;}
	.st58{clip-path:url(#SVGID_12_);fill:#F2F7FA;}
	.st59{clip-path:url(#SVGID_12_);}
	.st60{fill:none;stroke:#39526D;stroke-width:1.2599;stroke-miterlimit:10;}
	.st61{fill:none;stroke:#00B4CC;stroke-width:1.4896;stroke-miterlimit:10;}
	.st62{fill:none;stroke:#00B4CC;stroke-width:1.0531;stroke-miterlimit:10;}
	.st63{fill:none;stroke:#00B4CC;stroke-width:1.2599;stroke-miterlimit:10;}
	.st64{fill:none;stroke:#D7E3F1;stroke-width:1.7394;stroke-miterlimit:10;}
	.st65{fill:none;stroke:#39526D;stroke-width:1.1488;stroke-miterlimit:10;}
	.st66{fill:none;stroke:#4621B8;stroke-width:2.2976;stroke-miterlimit:10;}
	.st67{fill:none;stroke:#4621B8;stroke-width:3.4789;stroke-miterlimit:10;}
	.st68{fill:url(#SVGID_13_);}
	.st69{fill:none;stroke:#1F2D3D;stroke-width:1.7442;stroke-miterlimit:10;}
	.st70{fill:none;stroke:#000000;stroke-width:1.7442;stroke-miterlimit:10;}
	.st71{clip-path:url(#SVGID_14_);fill:#F2F7FA;}
	.st72{clip-path:url(#SVGID_14_);}
	.st73{clip-path:url(#SVGID_15_);fill:#F2F7FA;}
	.st74{clip-path:url(#SVGID_15_);}
	.st75{fill:none;stroke:#1F2D3D;stroke-width:2.899;stroke-linecap:round;stroke-miterlimit:10;}
	.st76{fill:#05E7FF;}
	.st77{clip-path:url(#SVGID_12_);fill:#00B4CC;}
	.st78{clip-path:url(#SVGID_16_);fill:#FFFFFF;}
	.st79{clip-path:url(#SVGID_16_);fill:#F2F7FA;}
	.st80{clip-path:url(#SVGID_16_);}
	.st81{fill:url(#SVGID_17_);}
	.st82{fill:none;stroke:#000000;stroke-width:0.7846;stroke-miterlimit:10;}
	.st83{fill:none;stroke:#4621B8;stroke-width:3.1384;stroke-miterlimit:10;}
	.st84{fill:url(#SVGID_18_);}
	.st85{clip-path:url(#SVGID_16_);fill:#00B4CC;}
	.st86{clip-path:url(#SVGID_16_);fill:none;stroke:#D7E3F1;stroke-width:1.7394;stroke-miterlimit:10;}
	.st87{clip-path:url(#SVGID_20_);fill:#F2F7FA;}
	.st88{clip-path:url(#SVGID_20_);fill:#6FFFFF;}
	.st89{clip-path:url(#SVGID_20_);}
	.st90{fill:url(#SVGID_21_);}
	.st91{opacity:0.5;}
	.st92{clip-path:url(#SVGID_20_);fill:url(#SVGID_22_);}
	.st93{clip-path:url(#SVGID_20_);fill:none;stroke:#A753FF;stroke-width:4;stroke-miterlimit:10;}
	.st94{clip-path:url(#SVGID_20_);fill:#A753FF;}
	.st95{fill:none;stroke:#39526D;stroke-width:3;stroke-miterlimit:10;}
	.st96{clip-path:url(#SVGID_20_);fill:#04E7FF;}
	.st97{clip-path:url(#SVGID_20_);fill:#00B4CC;}
	.st98{clip-path:url(#SVGID_20_);fill:#1A00CA;}
	.st99{clip-path:url(#SVGID_20_);fill:#4621B8;}
	.st100{fill:none;stroke:#39526D;stroke-width:4.8851;stroke-miterlimit:10;}
	.st101{fill:none;stroke:#00B4CC;stroke-width:5.7756;stroke-miterlimit:10;}
	.st102{fill:none;stroke:#00B4CC;stroke-width:4.0833;stroke-miterlimit:10;}
	.st103{fill:none;stroke:#00B4CC;stroke-width:4.8851;stroke-miterlimit:10;}
	.st104{clip-path:url(#SVGID_20_);fill:#FFFFFF;}
	.st105{clip-path:url(#SVGID_25_);fill:#FFFFFF;}
	.st106{clip-path:url(#SVGID_25_);fill:#F2F7FA;}
	.st107{clip-path:url(#SVGID_25_);}
	.st108{fill:none;stroke:#D7E3F1;stroke-width:1.9662;stroke-miterlimit:10;}
	.st109{fill:#CDDAE8;}
	.st110{fill:none;stroke:#D7E3F1;stroke-width:2.1414;stroke-miterlimit:10;}
	.st111{fill:none;stroke:#F2F7FA;stroke-width:1.6248;stroke-miterlimit:10;}
	.st112{fill:#ABBFCE;}
	.st113{fill:none;stroke:#39526D;stroke-width:3.098;stroke-miterlimit:10;}
	.st114{fill:none;stroke:#39526D;stroke-width:2.6754;stroke-miterlimit:10;}
	.st115{fill:none;stroke:#04E7FF;stroke-width:1.0327;stroke-miterlimit:10;}
	.st116{fill:none;stroke:#4621B8;stroke-width:2.0653;stroke-miterlimit:10;}
	.st117{fill:none;stroke:#39526D;stroke-width:3.7262;stroke-miterlimit:10;}
	.st118{fill:none;stroke:#39526D;stroke-width:3.2179;stroke-miterlimit:10;}
	.st119{fill:none;stroke:#04E7FF;stroke-width:1.2421;stroke-miterlimit:10;}
	.st120{fill:none;stroke:#4621B8;stroke-width:2.4841;stroke-miterlimit:10;}
	.st121{clip-path:url(#SVGID_25_);fill:#1A00CA;}
	.st122{fill:url(#SVGID_26_);}
	.st123{fill:none;stroke:#D7E3F1;stroke-width:1.4518;stroke-linecap:round;stroke-miterlimit:10;}
	.st124{fill:none;stroke:#1F2D3D;stroke-width:3.5459;stroke-miterlimit:10;}
	.st125{clip-path:url(#SVGID_28_);fill:#FFFFFF;}
	.st126{clip-path:url(#SVGID_28_);fill:#F2F7FA;}
	.st127{clip-path:url(#SVGID_28_);}
	.st128{fill:none;stroke:#E1EAF4;stroke-width:18.0109;stroke-miterlimit:10;}
	.st129{fill:none;stroke:#D7E3F1;stroke-width:3;stroke-miterlimit:10;}
	.st130{fill:none;stroke:#D7E3F1;stroke-miterlimit:10;}
	.st131{opacity:0.5;fill:#D7E3F1;}
	.st132{fill:#D0DDEA;}
	.st133{fill:none;stroke:#B8C8D8;stroke-miterlimit:10;}
	.st134{fill:#B8C8D8;}
	.st135{fill:none;stroke:#FFFFFF;stroke-miterlimit:10;}
	.st136{fill:none;stroke:#000000;stroke-width:2.1735;stroke-miterlimit:10;}
	.st137{fill:none;stroke:#000000;stroke-width:4.8318;stroke-miterlimit:10;}
	.st138{fill:url(#SVGID_29_);}
	.st139{fill:none;stroke:#1F2D3D;stroke-width:3.2124;stroke-miterlimit:10;}
	.st140{fill:none;stroke:#1A00CA;stroke-width:3;stroke-miterlimit:10;}
	.st141{clip-path:url(#SVGID_28_);fill:none;stroke:#1F2D3D;stroke-width:3.2124;stroke-miterlimit:10;}
	.st142{fill:url(#SVGID_30_);}
	.st143{fill:none;stroke:#39526D;stroke-width:1.6111;stroke-miterlimit:10;}
	.st144{fill:none;stroke:#00B4CC;stroke-width:1.9048;stroke-miterlimit:10;}
	.st145{fill:none;stroke:#00B4CC;stroke-width:1.3467;stroke-miterlimit:10;}
	.st146{fill:none;stroke:#00B4CC;stroke-width:1.6111;stroke-miterlimit:10;}
	.st147{clip-path:url(#SVGID_28_);fill:#FFCC3D;}
	.st148{clip-path:url(#SVGID_28_);fill:#6B1AFF;}
	.st149{clip-path:url(#SVGID_28_);fill:none;stroke:#1F2D3D;stroke-width:2;stroke-miterlimit:10;}
	.st150{clip-path:url(#SVGID_31_);fill:#FFFFFF;}
	.st151{clip-path:url(#SVGID_31_);fill:#F2F7FA;}
	.st152{clip-path:url(#SVGID_31_);}
	.st153{fill:none;stroke:#39526D;stroke-width:2.173;stroke-miterlimit:10;}
	.st154{fill:none;stroke:#00B4CC;stroke-width:2.5691;stroke-miterlimit:10;}
	.st155{fill:none;stroke:#00B4CC;stroke-width:1.8163;stroke-miterlimit:10;}
	.st156{fill:none;stroke:#00B4CC;stroke-width:2.173;stroke-miterlimit:10;}
	.st157{fill:none;stroke:#39526D;stroke-width:1.9813;stroke-miterlimit:10;}
	.st158{fill:none;stroke:#4621B8;stroke-width:3.9627;stroke-miterlimit:10;}
	.st159{fill:url(#SVGID_32_);}
	.st160{fill:#FFFFFF;stroke:#39526D;stroke-width:3.0083;stroke-miterlimit:10;}
	.st161{fill:none;stroke:#04E7FF;stroke-width:2.2015;stroke-miterlimit:10;}
	.st162{fill:url(#SVGID_33_);}
	.st163{fill:url(#SVGID_34_);}
	.st164{fill:url(#SVGID_35_);}
	.st165{fill:url(#SVGID_36_);}
	.st166{fill:url(#SVGID_37_);}
	.st167{fill:url(#SVGID_38_);}
	.st168{fill:url(#SVGID_39_);}
	.st169{fill:url(#SVGID_40_);}
	.st170{fill:url(#SVGID_41_);}
	.st171{fill:url(#SVGID_42_);}
	.st172{fill:none;stroke:#04E7FF;stroke-width:2.001;stroke-miterlimit:10;}
	.st173{fill:none;stroke:#6B1AFF;stroke-width:3.5018;stroke-miterlimit:10;}
	.st174{fill:none;stroke:#04E7FF;stroke-width:2.6422;stroke-miterlimit:10;}
	.st175{fill:none;stroke:#4621B8;stroke-width:2.3947;stroke-miterlimit:10;}
	.st176{fill:none;stroke:#000000;stroke-width:3.0083;stroke-miterlimit:10;}
	.st177{fill:none;stroke:#000000;stroke-width:1.3532;stroke-miterlimit:10;}
	.st178{fill:none;stroke:#4621B8;stroke-width:5.4128;stroke-miterlimit:10;}
	.st179{fill:url(#SVGID_43_);}
	.st180{clip-path:url(#SVGID_31_);fill:#00B4CC;}
	.st181{clip-path:url(#SVGID_31_);fill:none;stroke:#D7E3F1;stroke-width:3;stroke-miterlimit:10;}
	.st182{clip-path:url(#SVGID_45_);}
	.st183{clip-path:url(#SVGID_46_);fill:#FFFFFF;}
	.st184{clip-path:url(#SVGID_46_);fill:#F2F7FA;}
	.st185{clip-path:url(#SVGID_46_);}
	.st186{fill:none;stroke:#39526D;stroke-width:3.6654;stroke-miterlimit:10;}
	.st187{fill:none;stroke:#00B4CC;stroke-width:4.3336;stroke-miterlimit:10;}
	.st188{fill:none;stroke:#00B4CC;stroke-width:3.0638;stroke-miterlimit:10;}
	.st189{fill:none;stroke:#00B4CC;stroke-width:3.6654;stroke-miterlimit:10;}
	.st190{fill:none;stroke:#D7E3F1;stroke-width:5.0604;stroke-miterlimit:10;}
	.st191{fill:none;stroke:#39526D;stroke-width:3.3421;stroke-miterlimit:10;}
	.st192{fill:none;stroke:#4621B8;stroke-width:6.6843;stroke-miterlimit:10;}
	.st193{fill:none;stroke:#4621B8;stroke-width:10.1209;stroke-miterlimit:10;}
	.st194{fill:url(#SVGID_47_);}
	.st195{fill:none;stroke:#000000;stroke-width:5.0744;stroke-miterlimit:10;}
	.st196{fill:none;stroke:#1F2D3D;stroke-width:5.0744;stroke-miterlimit:10;}
	.st197{fill:none;stroke:#000000;stroke-width:2.2826;stroke-miterlimit:10;}
	.st198{fill:none;stroke:#4621B8;stroke-width:9.1304;stroke-miterlimit:10;}
	.st199{fill:url(#SVGID_48_);}
	.st200{clip-path:url(#SVGID_46_);fill:#00B4CC;}
	.st201{clip-path:url(#SVGID_46_);fill:none;stroke:#D7E3F1;stroke-width:5.0604;stroke-miterlimit:10;}
	.st202{fill:#3720D1;}
	.st203{fill:none;stroke:#351ED0;stroke-linecap:round;stroke-linejoin:round;stroke-miterlimit:10;}
</style>
<g id="Layer_1">
	<g>
		<defs>
			<rect id="SVGID_44_" y="-0.2" width="1920" height="1080.39"/>
		</defs>
		<clipPath id="SVGID_8_">
			<use xlink:href="#SVGID_44_"  style="overflow:visible;"/>
		</clipPath>
		<g class="st1">
			<g>
				<g>
					<defs>
						<rect id="SVGID_23_" x="-1189.86" y="-742.22" width="3238.67" height="1822.42"/>
					</defs>
					<clipPath id="SVGID_9_">
						<use xlink:href="#SVGID_23_"  style="overflow:visible;"/>
					</clipPath>
					<rect x="-1217.94" y="-786.21" style="clip-path:url(#SVGID_9_);fill:#FFFFFF;" width="3398.29" height="1965.24"/>
					<polygon style="clip-path:url(#SVGID_9_);fill:#F2F7FA;" points="975.91,-595.55 -966.27,1346.63 -966.27,-646.22 					"/>
					<g style="clip-path:url(#SVGID_9_);">
						<g>
							<path class="st7" d="M1928.04,611.65c0,0-11.76-215.35-11.79-215.86c-1.58-28.92-2.21-61.09-24.5-83.32
								c-20.74-20.69-55.07-30.6-80.84-13.16c-14.62,9.9-21.61,27.11-22.03,44.35c-0.53,21.74,6.59,44.52,15.88,63.97
								C1848.04,498.19,1928.04,611.65,1928.04,611.65z"/>
							<line class="st187" x1="1928.04" y1="611.65" x2="1833.83" y2="290.63"/>
							<path class="st7" d="M1903.13,865.27l-149.98-193.54c0,0-32.8-48.66-77.84-35.47c-14.33,4.2-25.31,15.5-28.73,30.04
								c-4.36,18.56-2.01,46.95,37.3,72.57C1748.57,781.01,1903.13,865.27,1903.13,865.27z"/>
							<line class="st189" x1="1903.13" y1="865.27" x2="1666.23" y2="640.12"/>
							<line class="st189" x1="1645" y1="691.73" x2="1754.47" y2="723.98"/>
							<line class="st186" x1="1899.63" y1="861.94" x2="1928.12" y2="895.53"/>
						</g>
						<path class="st11" d="M1807.72,1174.55h250.29v-70.56c0-14.75-11.95-26.7-26.7-26.7h-196.89c-14.75,0-26.7,11.95-26.7,26.7
							V1174.55z"/>
					</g>
					<g style="clip-path:url(#SVGID_9_);">
						<rect x="-192.02" y="-238.02" class="st190" width="235.75" height="235.75"/>
					</g>
					<g style="clip-path:url(#SVGID_9_);">
						<polygon class="st2" points="1509.88,-650.95 1846.63,-784.31 1846.63,1337.36 1509.88,1337.36 						"/>
						<rect x="654.73" y="-650.95" class="st4" width="855.15" height="2137.23"/>
						<rect x="1846.63" y="-784.31" class="st4" width="19.29" height="2219.74"/>
						<path class="st52" d="M1825.1,359.28c0,17.34-14.06,31.4-31.4,31.4c-17.34,0-33.52-14.06-33.52-31.4
							c0-17.34,16.18-31.4,33.52-31.4C1811.04,327.88,1825.1,341.94,1825.1,359.28z"/>
					</g>
					<g style="clip-path:url(#SVGID_9_);">
						<path class="st193" d="M1672.18,663.58v402.01c0,111.4-90.31,201.72-201.72,201.72h-111.71"/>
						<path class="st19" d="M1843.34,758.37h-266.84c-59.98,0-108.61-48.63-108.61-108.61V453.84
							c0-59.98,48.63-108.61,108.61-108.61h266.84c59.98,0,108.61,48.63,108.61,108.61v195.92
							C1951.95,709.74,1903.32,758.37,1843.34,758.37z"/>
						<linearGradient id="SVGID_10_" gradientUnits="userSpaceOnUse" x1="1402.5894" y1="551.7984" x2="1886.6433" y2="551.7984">
							<stop  offset="0" style="stop-color:#4620B9"/>
							<stop  offset="1" style="stop-color:#6B1BFF"/>
						</linearGradient>
						<path style="fill:url(#SVGID_10_);" d="M1778.03,758.37H1511.2c-59.98,0-108.61-48.63-108.61-108.61V453.84
							c0-59.98,48.63-108.61,108.61-108.61h266.84c59.98,0,108.61,48.63,108.61,108.61v195.92
							C1886.64,709.74,1838.02,758.37,1778.03,758.37z"/>
					</g>
					<g style="clip-path:url(#SVGID_9_);">
						<g>
							<polygon class="st22" points="738,1038.59 754.11,1227.24 902.4,1245.45 919.09,1043.41 							"/>
							<path class="st2" d="M732.62,911.12l5.38,127.47c0,0,125.9,9.11,197.5,3.9l22.83-165.23L732.62,911.12z"/>
							<path class="st195" d="M738,1010.45v28.14c0,0,136.63,11.6,215.66,5.51"/>
						</g>
						<path class="st19" d="M1160.62,820.22c0,0.06-8.7,91.34-5.39,135.92l-379.95,149.32c-29.7,11.67-55.6,31.69-73.38,58.18
							c-36.87,54.94-34.5,126.1,36.15,157.18l197.19,64.48c109.7,2.78,220.06-1.21,329.42-9.58
							c87.95-6.74,176.12-16.63,262.44-35.18c88.15-18.94,195.35-47.34,239.85-134.56c41-80.37,18.89-182.55-19.86-259.34
							c-18.3-36.26-36.83-88.88-61.6-106.39c0,0-378.96-14.46-516.13-19.7C1168.93,820.54,1160.62,820.22,1160.62,820.22z"/>
						<line class="st195" x1="1232.14" y1="993.13" x2="792.9" y2="1179.58"/>
						<path class="st2" d="M854.69,689.21c0,0,226.1-168.22,574.03-92.51c340.71,74.13,336.95,367.89,336.95,367.89H986.5
							C986.5,964.58,517.11,1088.34,854.69,689.21z"/>
						<path class="st196" d="M1019.22,888.54c0,0,19.61,101.58,265.18,65.9"/>
						<g>
							<path class="st22" d="M1030.26,870.89c0,0-53.66,16.46-108.61,11.99c-18.61-1.5-37.36-5.42-54.23-13.19
								c-3.9-1.79-7.69-3.78-11.37-6.01c-10.69-6.48-12.6-20.92-16.33-31.24c-24.37-67.91,72.79-188.92,72.79-188.92
								s31.12,111.09,151.76,45.46C1064.26,688.98,1094.95,849.4,1030.26,870.89z"/>
							<path class="st15" d="M921.64,882.88c-18.61-1.5-37.36-5.42-54.23-13.19c-1.6-2.13-3.04-4.15-4.28-6.01
								c-7.59-44.24,45.11-112.61,59.33-66.29C934.31,835.99,929.67,863.99,921.64,882.88z"/>
							<g>
								<path class="st22" d="M918.05,652.56c0.05,0.95,0.07,1.9,0.1,2.87c0.63,18.51,6.16,37.22,8.54,55.58
									c3.57,27.6,4.43,55.71-0.3,83.23c-12.73,74.07-26.19,91.81-112.96,99.6c-11.85,1.06-162.08-7.01-173.39-10.69
									c-37.61-12.24-6.85-33.05-28.83-70.2c-19.54-33.03-48.77-52.33-61.18-88.99c-16.24-47.83-9.67-101.42,13.33-145.92
									c1.25-2.44,2.57-4.86,3.93-7.23c0,0,42.36-71.97,130.07-86.4c51.23-8.45,109.25,6.01,153.67,45.42
									C882.66,557.87,907.45,598.51,918.05,652.56z"/>
								<path class="st197" d="M647.48,832.41c0,0,2.69-7.22,13.27-15.27"/>
								<path class="st197" d="M725.52,771.42c0,0,10.16-15.22,24.97-16.49"/>
								<path class="st14" d="M743.27,607.87c0,0-60.94,90.67-139.65,144.38s-162.2-16.2-148.66-78.01s74.4-66.35,74.4-66.35
									c-17.27-9.06-7.71-50.58,30.8-44.41c0,0,49.26-121.56,150.32-92.07c0,0,65.23-46.46,143.35,41.04s64.33,142.98,64.33,142.98
									l-67.84-4.55l-15.78,12.52C834.53,663.4,768.39,577.78,743.27,607.87z"/>
								<g>
									<path class="st22" d="M846.09,658.92l2.81-34.12c1.3-15.8,15.96-27.03,31.55-24.16h0c12.94,2.38,22.24,13.8,21.95,26.95
										l-0.95,42.79L846.09,658.92z"/>
									<path class="st197" d="M880.44,600.64L880.44,600.64c12.94,2.38,22.24,13.8,21.95,26.95"/>
									<path class="st197" d="M846.09,658.92l2.81-34.12c1.3-15.8,15.96-27.03,31.55-24.16"/>
									<line class="st197" x1="875.83" y1="622.87" x2="871.82" y2="660.37"/>
								</g>
								<path d="M775.24,855.56c7.4-10.84-17.52-9.03-17.52-9.03s-7.69,1.68-0.65,10.23C764.13,865.3,770.76,862.12,775.24,855.56z"
									/>
								<path class="st198" d="M697.28,743.63c0,0,19.86-11.75,51.02-24.13"/>
								<path class="st198" d="M647.48,786.69c0,0-14.27,27.08-28.59,33.57"/>
								<path class="st197" d="M702.1,812.95c0,0,2.09,6.53-2.42,15.15c-4.15,7.94,4.82,13.27,15.64,11.34"/>
							</g>
						</g>
						<path class="st2" d="M1030.26,870.89c28.77-103.62-43.76-161.57-43.76-161.57l-28.16-38.94l152.25-40.82v232.38
							L1030.26,870.89z"/>
						<path class="st196" d="M1052.32,745.13c17.26,28.9,38.07,68.3,51.31,109.05c0,0,15.26,48.72-21.55,51.42
							c-36.82,2.69-62.85-17.06-62.85-17.06s-29.66,25.14-65.56,31.43H902.4l-6.39-32.33"/>
						<path class="st196" d="M1382.5,699.07c0,0,190.54,67.69,284.9,121.19"/>
						<path class="st22" d="M1669.76,837.59l-82.57,148.62c0,0,35.41,27.23,40.39,46.68c4.99,19.45-28.72,172.44-28.72,172.44
							l120.58,2.59c0,0,62.1-162.02,62.23-232.08C1781.74,934.35,1723.31,870.47,1669.76,837.59z"/>
					</g>
					<g style="clip-path:url(#SVGID_9_);">
						<path class="st4" d="M568.72,876.58H229.99c-11.84,0-21.43,9.6-21.43,21.43l0,0c0,11.84,9.6,21.43,21.43,21.43h338.73V876.58z
							"/>
						<g>
							<circle class="st41" cx="568.72" cy="898.02" r="21.43"/>
							<path class="st41" d="M574.61,877.41l303.95,22.19c5.52,0.49,9.62,5.32,9.23,10.85l0,0c-0.4,5.62-5.3,9.83-10.92,9.4
								l-292.19-17.66L574.61,877.41z"/>
						</g>
					</g>
					<g style="clip-path:url(#SVGID_9_);">
						<path class="st19" d="M495.22,746.99h-899.55c-26.69,0-50.72-21.64-53.67-48.33l-67.51-611.79
							c-2.95-26.69,16.31-48.33,43-48.33l901.37,0.41c40.72,3.05,61.91,29.94,65.34,65.63l66.3,593.1
							C550.68,734.08,521.91,746.99,495.22,746.99z"/>
						<linearGradient id="SVGID_11_" gradientUnits="userSpaceOnUse" x1="-949.1706" y1="-326.3336" x2="443.2195" y2="740.1025">
							<stop  offset="4.277551e-03" style="stop-color:#6B1AFF"/>
							<stop  offset="0.9847" style="stop-color:#6FFFFF"/>
						</linearGradient>
						<path class="st51" d="M486.62,746.99h-915.63c-26.69,0-50.72-21.64-53.67-48.33L-550.2,86.86
							c-2.95-26.69,16.31-48.33,43-48.33h915.63c26.69,0,50.72,21.64,53.67,48.33l67.51,611.79
							C532.57,725.35,513.31,746.99,486.62,746.99z"/>
						
							<ellipse transform="matrix(0.6764 -0.7366 0.7366 0.6764 -283.3807 105.1218)" class="st7" cx="-22.06" cy="375.04" rx="45.82" ry="54.33"/>
						<g>
							<path class="st2" d="M-71.69,538.77H79.56L50.59,898.09h-228.05l87.9-345.43C-87.48,544.49-80.12,538.77-71.69,538.77z"/>
							<path class="st4" d="M50.61,919.42h-224.33c-2.07,0-3.74-1.68-3.74-3.74v-17.59H50.61V919.42z"/>
							<path class="st19" d="M153.89,919.42H50.61v-21.33h87.93c10.13,0,18.34,8.21,18.34,18.34v0
								C156.88,918.08,155.54,919.42,153.89,919.42z"/>
							<path class="st19" d="M79.56,538.77L79.56,538.77c6.68,73.91,5.01,144.83,0,218.87l-6.77,140.44H50.61L79.56,538.77z"/>
						</g>
					</g>
					<g style="clip-path:url(#SVGID_9_);">
						<g>
							<polygon class="st41" points="1611.83,993.13 1856.48,1554.77 1829.7,1554.77 1537.14,993.13 							"/>
							<polygon class="st19" points="1611.83,993.13 1537.14,993.13 1552.25,1022.14 1626.24,1026.21 							"/>
						</g>
						<g>
							<polygon class="st76" points="1073.44,993.13 1318.09,1554.77 1291.31,1554.77 998.74,993.13 							"/>
							<polygon class="st19" points="1073.44,993.13 998.74,993.13 1013.86,1022.14 1087.85,1026.21 							"/>
						</g>
						<path class="st76" d="M-863.74,993.13H1815.8c3.22,0,5.83-2.61,5.83-5.83v0c0-37.49-30.4-67.89-67.89-67.89H-801.67
							c-37.49,0-67.89,30.4-67.89,67.89v0C-869.56,990.52-866.96,993.13-863.74,993.13z"/>
					</g>
					<g style="clip-path:url(#SVGID_9_);">
						<path class="st28" d="M393.91,782.03h-63.62v-56.08c0-17.57,14.24-31.81,31.81-31.81h0c17.57,0,31.81,14.24,31.81,31.81
							V782.03z"/>
						<path class="st28" d="M434.09,732.21v3.37c0,13.75-11.15,24.9-24.9,24.9h-24.65c0,0,0,0,0,0v-28.39h0h16.52v0.12
							c0-9.12,7.4-16.52,16.52-16.52h0C426.7,715.69,434.09,723.09,434.09,732.21z"/>
						<polygon class="st41" points="393.91,760.48 393.91,748.18 398.33,760.48 						"/>
						<path class="st15" d="M419.63,906.85H304.56c-9.51,0-17.52-7.09-18.67-16.53l-10.67-87.19c-1.37-11.21,7.38-21.1,18.67-21.1
							h136.42c11.3,0,20.05,9.89,18.67,21.1l-10.67,87.19C437.15,899.76,429.14,906.85,419.63,906.85z"/>
						<path class="st14" d="M429.98,919.42H294.22c-12.79,0-23.15-10.36-23.15-23.15v0c0-1.1,0.89-1.99,1.99-1.99h178.08
							c1.1,0,1.99,0.89,1.99,1.99v0C453.13,909.05,442.76,919.42,429.98,919.42z"/>
					</g>
					<path style="clip-path:url(#SVGID_9_);fill:#00B4CC;" d="M1139.91,993.13h681c1.62,0,2.93-1.31,2.93-2.93v0
						c0-39.09-31.69-70.79-70.79-70.79h-545.28c-39.09,0-70.79,31.69-70.79,70.79v0C1136.99,991.82,1138.3,993.13,1139.91,993.13z"
						/>
				</g>
			</g>
		</g>
	</g>
</g>
<g id="Layer_2">
</g>
</svg>
